BEGIN_OBJECTS
0 loc-x0-y0
1 loc-x0-y1
2 loc-x0-y2
3 loc-x0-y3
4 loc-x0-y4
5 loc-x0-y5
6 loc-x0-y6
7 loc-x0-y7
8 loc-x0-y8
9 loc-x0-y9
10 loc-x0-y10
11 loc-x1-y0
12 loc-x1-y1
13 loc-x1-y2
14 loc-x1-y3
15 loc-x1-y4
16 loc-x1-y5
17 loc-x1-y6
18 loc-x1-y7
19 loc-x1-y8
20 loc-x1-y9
21 loc-x1-y10
22 loc-x2-y0
23 loc-x2-y1
24 loc-x2-y2
25 loc-x2-y3
26 loc-x2-y4
27 loc-x2-y5
28 loc-x2-y6
29 loc-x2-y7
30 loc-x2-y8
31 loc-x2-y9
32 loc-x2-y10
33 loc-x3-y0
34 loc-x3-y1
35 loc-x3-y2
36 loc-x3-y3
37 loc-x3-y4
38 loc-x3-y5
39 loc-x3-y6
40 loc-x3-y7
41 loc-x3-y8
42 loc-x3-y9
43 loc-x3-y10
44 loc-x4-y0
45 loc-x4-y1
46 loc-x4-y2
47 loc-x4-y3
48 loc-x4-y4
49 loc-x4-y5
50 loc-x4-y6
51 loc-x4-y7
52 loc-x4-y8
53 loc-x4-y9
54 loc-x4-y10
55 loc-x5-y0
56 loc-x5-y1
57 loc-x5-y2
58 loc-x5-y3
59 loc-x5-y4
60 loc-x5-y5
61 loc-x5-y6
62 loc-x5-y7
63 loc-x5-y8
64 loc-x5-y9
65 loc-x5-y10
66 loc-x6-y0
67 loc-x6-y1
68 loc-x6-y2
69 loc-x6-y3
70 loc-x6-y4
71 loc-x6-y5
72 loc-x6-y6
73 loc-x6-y7
74 loc-x6-y8
75 loc-x6-y9
76 loc-x6-y10
77 loc-x7-y0
78 loc-x7-y1
79 loc-x7-y2
80 loc-x7-y3
81 loc-x7-y4
82 loc-x7-y5
83 loc-x7-y6
84 loc-x7-y7
85 loc-x7-y8
86 loc-x7-y9
87 loc-x7-y10
88 loc-x8-y0
89 loc-x8-y1
90 loc-x8-y2
91 loc-x8-y3
92 loc-x8-y4
93 loc-x8-y5
94 loc-x8-y6
95 loc-x8-y7
96 loc-x8-y8
97 loc-x8-y9
98 loc-x8-y10
99 loc-x9-y0
100 loc-x9-y1
101 loc-x9-y2
102 loc-x9-y3
103 loc-x9-y4
104 loc-x9-y5
105 loc-x9-y6
106 loc-x9-y7
107 loc-x9-y8
108 loc-x9-y9
109 loc-x9-y10
110 loc-x10-y0
111 loc-x10-y1
112 loc-x10-y2
113 loc-x10-y3
114 loc-x10-y4
115 loc-x10-y5
116 loc-x10-y6
117 loc-x10-y7
118 loc-x10-y8
119 loc-x10-y9
120 loc-x10-y10
END_OBJECTS
BEGIN_PREDICATES
0 connected
1 at-robot
END_PREDICATES
BEGIN_PREDICATE_ARITY_TUPLES
0 2
1 1
END_PREDICATE_PREDICATE_ARITY_TUPLES
BEGIN_FACT_LIST
0 0 1
0 0 11
0 1 0
0 1 2
0 1 12
0 2 1
0 2 3
0 2 13
0 3 2
0 3 4
0 3 14
0 4 3
0 4 5
0 4 15
0 5 4
0 5 6
0 5 16
0 6 5
0 6 7
0 6 17
0 7 6
0 7 8
0 7 18
0 8 7
0 8 9
0 8 19
0 9 8
0 9 10
0 9 20
0 10 9
0 10 21
0 11 0
0 11 12
0 11 22
0 12 1
0 12 11
0 12 13
0 12 23
0 13 2
0 13 12
0 13 14
0 13 24
0 14 3
0 14 13
0 14 15
0 14 25
0 15 4
0 15 14
0 15 16
0 15 26
0 16 5
0 16 15
0 16 17
0 16 27
0 17 6
0 17 16
0 17 18
0 17 28
0 18 7
0 18 17
0 18 19
0 18 29
0 19 8
0 19 18
0 19 20
0 19 30
0 20 9
0 20 19
0 20 21
0 20 31
0 21 10
0 21 20
0 21 32
0 22 11
0 22 23
0 22 33
0 23 12
0 23 22
0 23 24
0 23 34
0 24 13
0 24 23
0 24 25
0 24 35
0 25 14
0 25 24
0 25 26
0 25 36
0 26 15
0 26 25
0 26 27
0 26 37
0 27 16
0 27 26
0 27 28
0 27 38
0 28 17
0 28 27
0 28 29
0 28 39
0 29 18
0 29 28
0 29 30
0 29 40
0 30 19
0 30 29
0 30 31
0 30 41
0 31 20
0 31 30
0 31 32
0 31 42
0 32 21
0 32 31
0 32 43
0 33 22
0 33 34
0 33 44
0 34 23
0 34 33
0 34 35
0 34 45
0 35 24
0 35 34
0 35 36
0 35 46
0 36 25
0 36 35
0 36 37
0 36 47
0 37 26
0 37 36
0 37 38
0 37 48
0 38 27
0 38 37
0 38 39
0 38 49
0 39 28
0 39 38
0 39 40
0 39 50
0 40 29
0 40 39
0 40 41
0 40 51
0 41 30
0 41 40
0 41 42
0 41 52
0 42 31
0 42 41
0 42 43
0 42 53
0 43 32
0 43 42
0 43 54
0 44 33
0 44 45
0 44 55
0 45 34
0 45 44
0 45 46
0 45 56
0 46 35
0 46 45
0 46 47
0 46 57
0 47 36
0 47 46
0 47 48
0 47 58
0 48 37
0 48 47
0 48 49
0 48 59
0 49 38
0 49 48
0 49 50
0 49 60
0 50 39
0 50 49
0 50 51
0 50 61
0 51 40
0 51 50
0 51 52
0 51 62
0 52 41
0 52 51
0 52 53
0 52 63
0 53 42
0 53 52
0 53 54
0 53 64
0 54 43
0 54 53
0 54 65
0 55 44
0 55 56
0 55 66
0 56 45
0 56 55
0 56 57
0 56 67
0 57 46
0 57 56
0 57 58
0 57 68
0 58 47
0 58 57
0 58 59
0 58 69
0 59 48
0 59 58
0 59 60
0 59 70
0 60 49
0 60 59
0 60 61
0 60 71
0 61 50
0 61 60
0 61 62
0 61 72
0 62 51
0 62 61
0 62 63
0 62 73
0 63 52
0 63 62
0 63 64
0 63 74
0 64 53
0 64 63
0 64 65
0 64 75
0 65 54
0 65 64
0 65 76
0 66 55
0 66 67
0 66 77
0 67 56
0 67 66
0 67 68
0 67 78
0 68 57
0 68 67
0 68 69
0 68 79
0 69 58
0 69 68
0 69 70
0 69 80
0 70 59
0 70 69
0 70 71
0 70 81
0 71 60
0 71 70
0 71 72
0 71 82
0 72 61
0 72 71
0 72 73
0 72 83
0 73 62
0 73 72
0 73 74
0 73 84
0 74 63
0 74 73
0 74 75
0 74 85
0 75 64
0 75 74
0 75 76
0 75 86
0 76 65
0 76 75
0 76 87
0 77 66
0 77 78
0 77 88
0 78 67
0 78 77
0 78 79
0 78 89
0 79 68
0 79 78
0 79 80
0 79 90
0 80 69
0 80 79
0 80 81
0 80 91
0 81 70
0 81 80
0 81 82
0 81 92
0 82 71
0 82 81
0 82 83
0 82 93
0 83 72
0 83 82
0 83 84
0 83 94
0 84 73
0 84 83
0 84 85
0 84 95
0 85 74
0 85 84
0 85 86
0 85 96
0 86 75
0 86 85
0 86 87
0 86 97
0 87 76
0 87 86
0 87 98
0 88 77
0 88 89
0 88 99
0 89 78
0 89 88
0 89 90
0 89 100
0 90 79
0 90 89
0 90 91
0 90 101
0 91 80
0 91 90
0 91 92
0 91 102
0 92 81
0 92 91
0 92 93
0 92 103
0 93 82
0 93 92
0 93 94
0 93 104
0 94 83
0 94 93
0 94 95
0 94 105
0 95 84
0 95 94
0 95 96
0 95 106
0 96 85
0 96 95
0 96 97
0 96 107
0 97 86
0 97 96
0 97 98
0 97 108
0 98 87
0 98 97
0 98 109
0 99 88
0 99 100
0 99 110
0 100 89
0 100 99
0 100 101
0 100 111
0 101 90
0 101 100
0 101 102
0 101 112
0 102 91
0 102 101
0 102 103
0 102 113
0 103 92
0 103 102
0 103 104
0 103 114
0 104 93
0 104 103
0 104 105
0 104 115
0 105 94
0 105 104
0 105 106
0 105 116
0 106 95
0 106 105
0 106 107
0 106 117
0 107 96
0 107 106
0 107 108
0 107 118
0 108 97
0 108 107
0 108 109
0 108 119
0 109 98
0 109 108
0 109 120
0 110 99
0 110 111
0 111 100
0 111 110
0 111 112
0 112 101
0 112 111
0 112 113
0 113 102
0 113 112
0 113 114
0 114 103
0 114 113
0 114 115
0 115 104
0 115 114
0 115 116
0 116 105
0 116 115
0 116 117
0 117 106
0 117 116
0 117 118
0 118 107
0 118 117
0 118 119
0 119 108
0 119 118
0 119 120
0 120 109
0 120 119
END_FACT_LIST
BEGIN_GOAL_LIST
1 0
END_GOAL_LIST
BEGIN_STATE_LIST
BEGIN_LABELED_STATE
10.0
BEGIN_STATE
1 60
END_STATE
END_LABELED_STATE
BEGIN_LABELED_STATE
9.0
BEGIN_STATE
1 59
END_STATE
END_LABELED_STATE
BEGIN_LABELED_STATE
8.0
BEGIN_STATE
1 58
END_STATE
END_LABELED_STATE
BEGIN_LABELED_STATE
7.0
BEGIN_STATE
1 57
END_STATE
END_LABELED_STATE
BEGIN_LABELED_STATE
6.0
BEGIN_STATE
1 56
END_STATE
END_LABELED_STATE
BEGIN_LABELED_STATE
5.0
BEGIN_STATE
1 55
END_STATE
END_LABELED_STATE
BEGIN_LABELED_STATE
4.0
BEGIN_STATE
1 44
END_STATE
END_LABELED_STATE
BEGIN_LABELED_STATE
3.0
BEGIN_STATE
1 33
END_STATE
END_LABELED_STATE
BEGIN_LABELED_STATE
2.0
BEGIN_STATE
1 22
END_STATE
END_LABELED_STATE
BEGIN_LABELED_STATE
1.0
BEGIN_STATE
1 11
END_STATE
END_LABELED_STATE
BEGIN_LABELED_STATE
0.0
BEGIN_STATE
1 0
END_STATE
END_LABELED_STATE
BEGIN_LABELED_STATE
11.0
BEGIN_STATE
1 71
END_STATE
END_LABELED_STATE
BEGIN_LABELED_STATE
10.0
BEGIN_STATE
1 70
END_STATE
END_LABELED_STATE
BEGIN_LABELED_STATE
9.0
BEGIN_STATE
1 69
END_STATE
END_LABELED_STATE
BEGIN_LABELED_STATE
8.0
BEGIN_STATE
1 68
END_STATE
END_LABELED_STATE
BEGIN_LABELED_STATE
7.0
BEGIN_STATE
1 67
END_STATE
END_LABELED_STATE
BEGIN_LABELED_STATE
6.0
BEGIN_STATE
1 66
END_STATE
END_LABELED_STATE
BEGIN_LABELED_STATE
12.0
BEGIN_STATE
1 82
END_STATE
END_LABELED_STATE
BEGIN_LABELED_STATE
11.0
BEGIN_STATE
1 81
END_STATE
END_LABELED_STATE
BEGIN_LABELED_STATE
10.0
BEGIN_STATE
1 80
END_STATE
END_LABELED_STATE
BEGIN_LABELED_STATE
9.0
BEGIN_STATE
1 79
END_STATE
END_LABELED_STATE
BEGIN_LABELED_STATE
8.0
BEGIN_STATE
1 78
END_STATE
END_LABELED_STATE
BEGIN_LABELED_STATE
7.0
BEGIN_STATE
1 77
END_STATE
END_LABELED_STATE
BEGIN_LABELED_STATE
13.0
BEGIN_STATE
1 93
END_STATE
END_LABELED_STATE
BEGIN_LABELED_STATE
12.0
BEGIN_STATE
1 92
END_STATE
END_LABELED_STATE
BEGIN_LABELED_STATE
11.0
BEGIN_STATE
1 91
END_STATE
END_LABELED_STATE
BEGIN_LABELED_STATE
10.0
BEGIN_STATE
1 90
END_STATE
END_LABELED_STATE
BEGIN_LABELED_STATE
9.0
BEGIN_STATE
1 89
END_STATE
END_LABELED_STATE
BEGIN_LABELED_STATE
8.0
BEGIN_STATE
1 88
END_STATE
END_LABELED_STATE
BEGIN_LABELED_STATE
14.0
BEGIN_STATE
1 104
END_STATE
END_LABELED_STATE
BEGIN_LABELED_STATE
13.0
BEGIN_STATE
1 103
END_STATE
END_LABELED_STATE
BEGIN_LABELED_STATE
12.0
BEGIN_STATE
1 102
END_STATE
END_LABELED_STATE
BEGIN_LABELED_STATE
11.0
BEGIN_STATE
1 101
END_STATE
END_LABELED_STATE
BEGIN_LABELED_STATE
10.0
BEGIN_STATE
1 100
END_STATE
END_LABELED_STATE
BEGIN_LABELED_STATE
9.0
BEGIN_STATE
1 99
END_STATE
END_LABELED_STATE
BEGIN_LABELED_STATE
15.0
BEGIN_STATE
1 115
END_STATE
END_LABELED_STATE
BEGIN_LABELED_STATE
14.0
BEGIN_STATE
1 114
END_STATE
END_LABELED_STATE
BEGIN_LABELED_STATE
13.0
BEGIN_STATE
1 113
END_STATE
END_LABELED_STATE
BEGIN_LABELED_STATE
12.0
BEGIN_STATE
1 112
END_STATE
END_LABELED_STATE
BEGIN_LABELED_STATE
11.0
BEGIN_STATE
1 111
END_STATE
END_LABELED_STATE
BEGIN_LABELED_STATE
10.0
BEGIN_STATE
1 110
END_STATE
END_LABELED_STATE
BEGIN_LABELED_STATE
16.0
BEGIN_STATE
1 116
END_STATE
END_LABELED_STATE
BEGIN_LABELED_STATE
17.0
BEGIN_STATE
1 117
END_STATE
END_LABELED_STATE
BEGIN_LABELED_STATE
18.0
BEGIN_STATE
1 118
END_STATE
END_LABELED_STATE
BEGIN_LABELED_STATE
19.0
BEGIN_STATE
1 119
END_STATE
END_LABELED_STATE
BEGIN_LABELED_STATE
20.0
BEGIN_STATE
1 120
END_STATE
END_LABELED_STATE
BEGIN_LABELED_STATE
19.0
BEGIN_STATE
1 109
END_STATE
END_LABELED_STATE
BEGIN_LABELED_STATE
18.0
BEGIN_STATE
1 108
END_STATE
END_LABELED_STATE
BEGIN_LABELED_STATE
17.0
BEGIN_STATE
1 107
END_STATE
END_LABELED_STATE
BEGIN_LABELED_STATE
16.0
BEGIN_STATE
1 106
END_STATE
END_LABELED_STATE
BEGIN_LABELED_STATE
15.0
BEGIN_STATE
1 105
END_STATE
END_LABELED_STATE
BEGIN_LABELED_STATE
14.0
BEGIN_STATE
1 94
END_STATE
END_LABELED_STATE
BEGIN_LABELED_STATE
15.0
BEGIN_STATE
1 95
END_STATE
END_LABELED_STATE
BEGIN_LABELED_STATE
16.0
BEGIN_STATE
1 96
END_STATE
END_LABELED_STATE
BEGIN_LABELED_STATE
17.0
BEGIN_STATE
1 97
END_STATE
END_LABELED_STATE
BEGIN_LABELED_STATE
18.0
BEGIN_STATE
1 98
END_STATE
END_LABELED_STATE
BEGIN_LABELED_STATE
17.0
BEGIN_STATE
1 87
END_STATE
END_LABELED_STATE
BEGIN_LABELED_STATE
16.0
BEGIN_STATE
1 86
END_STATE
END_LABELED_STATE
BEGIN_LABELED_STATE
15.0
BEGIN_STATE
1 85
END_STATE
END_LABELED_STATE
BEGIN_LABELED_STATE
14.0
BEGIN_STATE
1 84
END_STATE
END_LABELED_STATE
BEGIN_LABELED_STATE
13.0
BEGIN_STATE
1 83
END_STATE
END_LABELED_STATE
BEGIN_LABELED_STATE
12.0
BEGIN_STATE
1 72
END_STATE
END_LABELED_STATE
BEGIN_LABELED_STATE
13.0
BEGIN_STATE
1 73
END_STATE
END_LABELED_STATE
BEGIN_LABELED_STATE
14.0
BEGIN_STATE
1 74
END_STATE
END_LABELED_STATE
BEGIN_LABELED_STATE
15.0
BEGIN_STATE
1 75
END_STATE
END_LABELED_STATE
BEGIN_LABELED_STATE
16.0
BEGIN_STATE
1 76
END_STATE
END_LABELED_STATE
BEGIN_LABELED_STATE
15.0
BEGIN_STATE
1 65
END_STATE
END_LABELED_STATE
BEGIN_LABELED_STATE
14.0
BEGIN_STATE
1 64
END_STATE
END_LABELED_STATE
BEGIN_LABELED_STATE
13.0
BEGIN_STATE
1 63
END_STATE
END_LABELED_STATE
BEGIN_LABELED_STATE
12.0
BEGIN_STATE
1 62
END_STATE
END_LABELED_STATE
BEGIN_LABELED_STATE
11.0
BEGIN_STATE
1 61
END_STATE
END_LABELED_STATE
BEGIN_LABELED_STATE
10.0
BEGIN_STATE
1 50
END_STATE
END_LABELED_STATE
BEGIN_LABELED_STATE
9.0
BEGIN_STATE
1 49
END_STATE
END_LABELED_STATE
BEGIN_LABELED_STATE
8.0
BEGIN_STATE
1 48
END_STATE
END_LABELED_STATE
BEGIN_LABELED_STATE
7.0
BEGIN_STATE
1 47
END_STATE
END_LABELED_STATE
BEGIN_LABELED_STATE
6.0
BEGIN_STATE
1 46
END_STATE
END_LABELED_STATE
BEGIN_LABELED_STATE
5.0
BEGIN_STATE
1 45
END_STATE
END_LABELED_STATE
BEGIN_LABELED_STATE
11.0
BEGIN_STATE
1 51
END_STATE
END_LABELED_STATE
BEGIN_LABELED_STATE
12.0
BEGIN_STATE
1 52
END_STATE
END_LABELED_STATE
BEGIN_LABELED_STATE
13.0
BEGIN_STATE
1 53
END_STATE
END_LABELED_STATE
BEGIN_LABELED_STATE
14.0
BEGIN_STATE
1 54
END_STATE
END_LABELED_STATE
BEGIN_LABELED_STATE
13.0
BEGIN_STATE
1 43
END_STATE
END_LABELED_STATE
BEGIN_LABELED_STATE
12.0
BEGIN_STATE
1 42
END_STATE
END_LABELED_STATE
BEGIN_LABELED_STATE
11.0
BEGIN_STATE
1 41
END_STATE
END_LABELED_STATE
BEGIN_LABELED_STATE
10.0
BEGIN_STATE
1 40
END_STATE
END_LABELED_STATE
BEGIN_LABELED_STATE
9.0
BEGIN_STATE
1 39
END_STATE
END_LABELED_STATE
BEGIN_LABELED_STATE
8.0
BEGIN_STATE
1 38
END_STATE
END_LABELED_STATE
BEGIN_LABELED_STATE
7.0
BEGIN_STATE
1 37
END_STATE
END_LABELED_STATE
BEGIN_LABELED_STATE
6.0
BEGIN_STATE
1 36
END_STATE
END_LABELED_STATE
BEGIN_LABELED_STATE
5.0
BEGIN_STATE
1 35
END_STATE
END_LABELED_STATE
BEGIN_LABELED_STATE
4.0
BEGIN_STATE
1 34
END_STATE
END_LABELED_STATE
BEGIN_LABELED_STATE
6.0
BEGIN_STATE
1 26
END_STATE
END_LABELED_STATE
BEGIN_LABELED_STATE
5.0
BEGIN_STATE
1 25
END_STATE
END_LABELED_STATE
BEGIN_LABELED_STATE
4.0
BEGIN_STATE
1 24
END_STATE
END_LABELED_STATE
BEGIN_LABELED_STATE
3.0
BEGIN_STATE
1 23
END_STATE
END_LABELED_STATE
BEGIN_LABELED_STATE
7.0
BEGIN_STATE
1 27
END_STATE
END_LABELED_STATE
BEGIN_LABELED_STATE
8.0
BEGIN_STATE
1 28
END_STATE
END_LABELED_STATE
BEGIN_LABELED_STATE
9.0
BEGIN_STATE
1 29
END_STATE
END_LABELED_STATE
BEGIN_LABELED_STATE
10.0
BEGIN_STATE
1 30
END_STATE
END_LABELED_STATE
BEGIN_LABELED_STATE
11.0
BEGIN_STATE
1 31
END_STATE
END_LABELED_STATE
BEGIN_LABELED_STATE
12.0
BEGIN_STATE
1 32
END_STATE
END_LABELED_STATE
BEGIN_LABELED_STATE
11.0
BEGIN_STATE
1 21
END_STATE
END_LABELED_STATE
BEGIN_LABELED_STATE
10.0
BEGIN_STATE
1 20
END_STATE
END_LABELED_STATE
BEGIN_LABELED_STATE
9.0
BEGIN_STATE
1 19
END_STATE
END_LABELED_STATE
BEGIN_LABELED_STATE
8.0
BEGIN_STATE
1 18
END_STATE
END_LABELED_STATE
BEGIN_LABELED_STATE
7.0
BEGIN_STATE
1 17
END_STATE
END_LABELED_STATE
BEGIN_LABELED_STATE
6.0
BEGIN_STATE
1 16
END_STATE
END_LABELED_STATE
BEGIN_LABELED_STATE
5.0
BEGIN_STATE
1 15
END_STATE
END_LABELED_STATE
BEGIN_LABELED_STATE
4.0
BEGIN_STATE
1 14
END_STATE
END_LABELED_STATE
BEGIN_LABELED_STATE
3.0
BEGIN_STATE
1 13
END_STATE
END_LABELED_STATE
BEGIN_LABELED_STATE
2.0
BEGIN_STATE
1 12
END_STATE
END_LABELED_STATE
BEGIN_LABELED_STATE
2.0
BEGIN_STATE
1 2
END_STATE
END_LABELED_STATE
BEGIN_LABELED_STATE
1.0
BEGIN_STATE
1 1
END_STATE
END_LABELED_STATE
BEGIN_LABELED_STATE
3.0
BEGIN_STATE
1 3
END_STATE
END_LABELED_STATE
BEGIN_LABELED_STATE
4.0
BEGIN_STATE
1 4
END_STATE
END_LABELED_STATE
BEGIN_LABELED_STATE
5.0
BEGIN_STATE
1 5
END_STATE
END_LABELED_STATE
BEGIN_LABELED_STATE
6.0
BEGIN_STATE
1 6
END_STATE
END_LABELED_STATE
BEGIN_LABELED_STATE
7.0
BEGIN_STATE
1 7
END_STATE
END_LABELED_STATE
BEGIN_LABELED_STATE
8.0
BEGIN_STATE
1 8
END_STATE
END_LABELED_STATE
BEGIN_LABELED_STATE
9.0
BEGIN_STATE
1 9
END_STATE
END_LABELED_STATE
BEGIN_LABELED_STATE
10.0
BEGIN_STATE
1 10
END_STATE
END_LABELED_STATE
END_STATE_LIST
