BEGIN_OBJECTS
0 loc-x0-y0
1 loc-x0-y1
2 loc-x0-y2
3 loc-x0-y3
4 loc-x0-y4
5 loc-x1-y0
6 loc-x1-y1
7 loc-x1-y2
8 loc-x1-y3
9 loc-x1-y4
10 loc-x2-y0
11 loc-x2-y1
12 loc-x2-y2
13 loc-x2-y3
14 loc-x2-y4
15 loc-x3-y0
16 loc-x3-y1
17 loc-x3-y2
18 loc-x3-y3
19 loc-x3-y4
20 loc-x4-y0
21 loc-x4-y1
22 loc-x4-y2
23 loc-x4-y3
24 loc-x4-y4
END_OBJECTS
BEGIN_PREDICATES
0 connected
1 at-robot
END_PREDICATES
BEGIN_PREDICATE_ARITY_TUPLES
0 2
1 1
END_PREDICATE_PREDICATE_ARITY_TUPLES
BEGIN_FACT_LIST
0 0 1
0 0 5
0 1 0
0 1 2
0 1 6
0 2 1
0 2 3
0 2 7
0 3 2
0 3 4
0 3 8
0 4 3
0 4 9
0 5 0
0 5 6
0 5 10
0 6 1
0 6 5
0 6 7
0 6 11
0 7 2
0 7 6
0 7 8
0 7 12
0 8 3
0 8 7
0 8 9
0 8 13
0 9 4
0 9 8
0 9 14
0 10 5
0 10 11
0 10 15
0 11 6
0 11 10
0 11 12
0 11 16
0 12 7
0 12 11
0 12 13
0 12 17
0 13 8
0 13 12
0 13 14
0 13 18
0 14 9
0 14 13
0 14 19
0 15 10
0 15 16
0 15 20
0 16 11
0 16 15
0 16 17
0 16 21
0 17 12
0 17 16
0 17 18
0 17 22
0 18 13
0 18 17
0 18 19
0 18 23
0 19 14
0 19 18
0 19 24
0 20 15
0 20 21
0 21 16
0 21 20
0 21 22
0 22 17
0 22 21
0 22 23
0 23 18
0 23 22
0 23 24
0 24 19
0 24 23
END_FACT_LIST
BEGIN_GOAL_LIST
1 1
END_GOAL_LIST
BEGIN_STATE_LIST
BEGIN_LABELED_STATE
3.0
BEGIN_STATE
1 12
END_STATE
END_LABELED_STATE
BEGIN_LABELED_STATE
2.0
BEGIN_STATE
1 11
END_STATE
END_LABELED_STATE
BEGIN_LABELED_STATE
1.0
BEGIN_STATE
1 6
END_STATE
END_LABELED_STATE
BEGIN_LABELED_STATE
0.0
BEGIN_STATE
1 1
END_STATE
END_LABELED_STATE
BEGIN_LABELED_STATE
4.0
BEGIN_STATE
1 17
END_STATE
END_LABELED_STATE
BEGIN_LABELED_STATE
3.0
BEGIN_STATE
1 16
END_STATE
END_LABELED_STATE
BEGIN_LABELED_STATE
5.0
BEGIN_STATE
1 22
END_STATE
END_LABELED_STATE
BEGIN_LABELED_STATE
4.0
BEGIN_STATE
1 21
END_STATE
END_LABELED_STATE
BEGIN_LABELED_STATE
6.0
BEGIN_STATE
1 23
END_STATE
END_LABELED_STATE
BEGIN_LABELED_STATE
7.0
BEGIN_STATE
1 24
END_STATE
END_LABELED_STATE
BEGIN_LABELED_STATE
6.0
BEGIN_STATE
1 19
END_STATE
END_LABELED_STATE
BEGIN_LABELED_STATE
5.0
BEGIN_STATE
1 18
END_STATE
END_LABELED_STATE
BEGIN_LABELED_STATE
4.0
BEGIN_STATE
1 13
END_STATE
END_LABELED_STATE
BEGIN_LABELED_STATE
5.0
BEGIN_STATE
1 14
END_STATE
END_LABELED_STATE
BEGIN_LABELED_STATE
4.0
BEGIN_STATE
1 9
END_STATE
END_LABELED_STATE
BEGIN_LABELED_STATE
3.0
BEGIN_STATE
1 8
END_STATE
END_LABELED_STATE
BEGIN_LABELED_STATE
2.0
BEGIN_STATE
1 7
END_STATE
END_LABELED_STATE
BEGIN_LABELED_STATE
5.0
BEGIN_STATE
1 20
END_STATE
END_LABELED_STATE
BEGIN_LABELED_STATE
4.0
BEGIN_STATE
1 15
END_STATE
END_LABELED_STATE
BEGIN_LABELED_STATE
3.0
BEGIN_STATE
1 10
END_STATE
END_LABELED_STATE
BEGIN_LABELED_STATE
2.0
BEGIN_STATE
1 5
END_STATE
END_LABELED_STATE
BEGIN_LABELED_STATE
1.0
BEGIN_STATE
1 0
END_STATE
END_LABELED_STATE
BEGIN_LABELED_STATE
1.0
BEGIN_STATE
1 2
END_STATE
END_LABELED_STATE
BEGIN_LABELED_STATE
2.0
BEGIN_STATE
1 3
END_STATE
END_LABELED_STATE
BEGIN_LABELED_STATE
3.0
BEGIN_STATE
1 4
END_STATE
END_LABELED_STATE
END_STATE_LIST
