BEGIN_OBJECTS
0 car_00
1 car_01
2 car_02
3 car_03
4 car_04
5 car_05
6 car_06
7 car_07
8 car_08
9 car_09
10 car_10
11 car_11
12 car_12
13 car_13
14 car_14
15 car_15
16 curb_0
17 curb_1
18 curb_2
19 curb_3
20 curb_4
21 curb_5
22 curb_6
23 curb_7
24 curb_8
END_OBJECTS
BEGIN_PREDICATES
0 car
1 curb
2 at-curb
3 at-curb-num
4 behind-car
5 car-clear
6 curb-clear
END_PREDICATES
BEGIN_PREDICATE_ARITY_TUPLES
0 1
1 1
2 1
3 2
4 2
5 1
6 1
END_PREDICATE_PREDICATE_ARITY_TUPLES
BEGIN_FACT_LIST
0 0
0 1
0 2
0 3
0 4
0 5
0 6
0 7
0 8
0 9
0 10
0 11
0 12
0 13
0 14
0 15
1 16
1 17
1 18
1 19
1 20
1 21
1 22
1 23
1 24
END_FACT_LIST
BEGIN_GOAL_LIST
4 15 6
END_GOAL_LIST
BEGIN_STATE_LIST
BEGIN_LABELED_STATE
3.0
BEGIN_STATE
4 13 2
6 24
3 10 17
3 0 16
3 2 18
3 15 19
3 9 20
3 4 23
3 7 22
3 14 21
4 11 7
4 8 10
4 12 0
4 1 4
4 3 9
4 5 15
4 6 14
2 0
2 2
2 4
2 7
2 9
2 10
2 14
2 15
5 1
5 3
5 5
5 6
5 8
5 11
5 12
5 13
END_STATE
END_LABELED_STATE
BEGIN_LABELED_STATE
2.0
BEGIN_STATE
4 13 2
3 6 24
3 10 17
3 0 16
3 2 18
3 15 19
3 9 20
3 4 23
3 7 22
3 14 21
4 11 7
4 8 10
4 12 0
4 1 4
4 3 9
4 5 15
2 0
2 2
2 4
2 6
2 7
2 9
2 10
2 14
2 15
5 1
5 3
5 5
5 6
5 8
5 11
5 12
5 13
5 14
END_STATE
END_LABELED_STATE
BEGIN_LABELED_STATE
1.0
BEGIN_STATE
4 13 2
3 6 24
3 10 17
3 0 16
3 2 18
3 15 19
3 9 20
3 4 23
3 7 22
3 14 21
4 11 7
4 8 10
4 12 0
4 1 4
4 3 9
4 5 14
2 0
2 2
2 4
2 6
2 7
2 9
2 10
2 14
2 15
5 1
5 3
5 5
5 6
5 8
5 11
5 12
5 13
5 15
END_STATE
END_LABELED_STATE
BEGIN_LABELED_STATE
0.0
BEGIN_STATE
4 13 2
3 6 24
3 10 17
3 0 16
3 2 18
6 19
3 9 20
3 4 23
3 7 22
3 14 21
4 11 7
4 8 10
4 12 0
4 1 4
4 3 9
4 5 14
4 15 6
2 0
2 2
2 4
2 6
2 7
2 9
2 10
2 14
5 1
5 3
5 5
5 8
5 11
5 12
5 13
5 15
END_STATE
END_LABELED_STATE
BEGIN_LABELED_STATE
2.0
BEGIN_STATE
4 13 2
3 6 24
3 10 17
3 0 16
3 2 18
3 15 19
3 9 20
3 4 23
3 7 22
3 14 21
4 11 7
4 8 10
4 12 0
4 1 4
4 5 6
4 3 9
2 0
2 2
2 4
2 6
2 7
2 9
2 10
2 14
2 15
5 1
5 3
5 5
5 8
5 11
5 12
5 13
5 14
5 15
END_STATE
END_LABELED_STATE
BEGIN_LABELED_STATE
3.0
BEGIN_STATE
4 13 2
3 6 24
3 10 17
3 0 16
3 2 18
3 15 19
3 9 20
3 4 23
3 7 22
3 14 21
4 11 7
4 8 10
4 12 0
4 1 4
4 5 6
4 3 15
2 0
2 2
2 4
2 6
2 7
2 9
2 10
2 14
2 15
5 1
5 3
5 5
5 8
5 9
5 11
5 12
5 13
5 14
END_STATE
END_LABELED_STATE
BEGIN_LABELED_STATE
2.0
BEGIN_STATE
4 13 2
3 6 24
3 10 17
3 0 16
3 2 18
3 15 19
3 9 20
3 4 23
3 7 22
3 14 21
4 11 7
4 8 10
4 12 0
4 1 4
4 5 6
4 3 14
2 0
2 2
2 4
2 6
2 7
2 9
2 10
2 14
2 15
5 1
5 3
5 5
5 8
5 9
5 11
5 12
5 13
5 15
END_STATE
END_LABELED_STATE
BEGIN_LABELED_STATE
1.0
BEGIN_STATE
4 13 2
3 6 24
3 10 17
3 0 16
3 2 18
3 15 19
3 9 20
3 4 23
3 7 22
3 14 21
4 11 7
4 8 10
4 12 0
4 1 4
4 5 9
4 3 14
2 0
2 2
2 4
2 6
2 7
2 9
2 10
2 14
2 15
5 1
5 3
5 5
5 6
5 8
5 11
5 12
5 13
5 15
END_STATE
END_LABELED_STATE
BEGIN_LABELED_STATE
0.0
BEGIN_STATE
4 13 2
3 6 24
3 10 17
3 0 16
3 2 18
6 19
3 9 20
3 4 23
3 7 22
3 14 21
4 11 7
4 8 10
4 12 0
4 1 4
4 5 9
4 15 6
4 3 14
2 0
2 2
2 4
2 6
2 7
2 9
2 10
2 14
5 1
5 3
5 5
5 8
5 11
5 12
5 13
5 15
END_STATE
END_LABELED_STATE
BEGIN_LABELED_STATE
2.0
BEGIN_STATE
4 13 2
3 6 24
3 10 17
3 0 16
3 2 18
3 15 19
3 9 20
3 4 23
3 7 22
3 14 21
4 11 7
4 8 10
4 12 0
4 1 4
4 5 15
4 3 14
2 0
2 2
2 4
2 6
2 7
2 9
2 10
2 14
2 15
5 1
5 3
5 5
5 6
5 8
5 9
5 11
5 12
5 13
END_STATE
END_LABELED_STATE
BEGIN_LABELED_STATE
3.0
BEGIN_STATE
4 13 2
3 6 24
3 10 17
3 0 16
3 2 18
3 15 19
3 9 20
3 4 23
3 7 22
3 14 21
4 11 7
4 8 10
4 3 6
4 12 0
4 1 4
4 5 15
2 0
2 2
2 4
2 6
2 7
2 9
2 10
2 14
2 15
5 1
5 3
5 5
5 8
5 9
5 11
5 12
5 13
5 14
END_STATE
END_LABELED_STATE
BEGIN_LABELED_STATE
2.0
BEGIN_STATE
4 13 2
3 6 24
3 10 17
3 0 16
3 2 18
3 15 19
3 9 20
3 4 23
3 7 22
3 14 21
4 11 7
4 8 10
4 3 6
4 12 0
4 1 4
4 5 9
2 0
2 2
2 4
2 6
2 7
2 9
2 10
2 14
2 15
5 1
5 3
5 5
5 8
5 11
5 12
5 13
5 14
5 15
END_STATE
END_LABELED_STATE
BEGIN_LABELED_STATE
2.0
BEGIN_STATE
4 13 2
3 6 24
3 10 17
3 0 16
3 2 18
3 15 19
3 9 20
3 4 23
3 7 22
3 14 21
4 11 7
4 8 10
4 3 6
4 12 0
4 1 4
4 5 14
2 0
2 2
2 4
2 6
2 7
2 9
2 10
2 14
2 15
5 1
5 3
5 5
5 8
5 9
5 11
5 12
5 13
5 15
END_STATE
END_LABELED_STATE
BEGIN_LABELED_STATE
3.0
BEGIN_STATE
4 13 2
3 6 24
3 10 17
3 0 16
3 2 18
3 15 19
3 9 20
3 4 23
3 7 22
3 14 21
4 11 7
4 8 10
4 3 6
4 12 0
4 5 9
2 0
2 2
2 4
2 6
2 7
2 9
2 10
2 14
2 15
4 1 15
5 1
5 3
5 4
5 5
5 8
5 11
5 12
5 13
5 14
END_STATE
END_LABELED_STATE
BEGIN_LABELED_STATE
2.0
BEGIN_STATE
4 13 2
3 6 24
3 10 17
3 0 16
3 2 18
3 15 19
3 9 20
3 4 23
3 7 22
3 14 21
4 11 7
4 8 10
4 3 6
4 12 0
4 5 9
2 0
2 2
2 4
2 6
2 7
2 9
2 10
2 14
2 15
4 1 14
5 1
5 3
5 4
5 5
5 8
5 11
5 12
5 13
5 15
END_STATE
END_LABELED_STATE
BEGIN_LABELED_STATE
1.0
BEGIN_STATE
4 13 2
3 6 24
3 10 17
3 0 16
3 2 18
3 15 19
3 9 20
3 4 23
3 7 22
3 14 21
4 3 4
4 11 7
4 8 10
4 12 0
4 5 9
2 0
2 2
2 4
2 6
2 7
2 9
2 10
2 14
2 15
4 1 14
5 1
5 3
5 5
5 6
5 8
5 11
5 12
5 13
5 15
END_STATE
END_LABELED_STATE
BEGIN_LABELED_STATE
0.0
BEGIN_STATE
4 13 2
3 6 24
3 10 17
3 0 16
3 2 18
6 19
3 9 20
3 4 23
3 7 22
3 14 21
4 3 4
4 11 7
4 8 10
4 12 0
4 5 9
4 15 6
2 0
2 2
2 4
2 6
2 7
2 9
2 10
2 14
4 1 14
5 1
5 3
5 5
5 8
5 11
5 12
5 13
5 15
END_STATE
END_LABELED_STATE
BEGIN_LABELED_STATE
3.0
BEGIN_STATE
4 13 2
3 6 24
3 10 17
3 0 16
3 2 18
3 15 19
3 9 20
3 4 23
3 7 22
3 14 21
4 11 7
4 8 10
4 3 6
4 12 0
4 5 15
2 0
2 2
2 4
2 6
2 7
2 9
2 10
2 14
2 15
4 1 14
5 1
5 3
5 4
5 5
5 8
5 9
5 11
5 12
5 13
END_STATE
END_LABELED_STATE
BEGIN_LABELED_STATE
2.0
BEGIN_STATE
4 13 2
3 6 24
3 10 17
3 0 16
3 2 18
3 15 19
3 9 20
3 4 23
3 7 22
3 14 21
4 11 7
4 8 10
4 3 6
4 12 0
2 0
2 2
2 4
2 6
2 7
2 9
2 10
2 14
2 15
4 1 14
4 5 4
5 1
5 3
5 5
5 8
5 9
5 11
5 12
5 13
5 15
END_STATE
END_LABELED_STATE
BEGIN_LABELED_STATE
1.0
BEGIN_STATE
4 13 2
3 6 24
3 10 17
3 0 16
3 2 18
3 15 19
3 9 20
3 4 23
3 7 22
3 14 21
4 11 7
4 8 10
4 12 0
4 3 9
2 0
2 2
2 4
2 6
2 7
2 9
2 10
2 14
2 15
4 1 14
4 5 4
5 1
5 3
5 5
5 6
5 8
5 11
5 12
5 13
5 15
END_STATE
END_LABELED_STATE
BEGIN_LABELED_STATE
0.0
BEGIN_STATE
4 13 2
3 6 24
3 10 17
3 0 16
3 2 18
6 19
3 9 20
3 4 23
3 7 22
3 14 21
4 11 7
4 8 10
4 12 0
4 3 9
4 15 6
2 0
2 2
2 4
2 6
2 7
2 9
2 10
2 14
4 1 14
4 5 4
5 1
5 3
5 5
5 8
5 11
5 12
5 13
5 15
END_STATE
END_LABELED_STATE
BEGIN_LABELED_STATE
3.0
BEGIN_STATE
4 13 2
3 6 24
3 10 17
3 0 16
3 2 18
3 15 19
3 9 20
3 4 23
3 7 22
3 14 21
4 11 7
4 8 10
4 3 6
4 12 0
4 1 9
4 5 15
2 0
2 2
2 4
2 6
2 7
2 9
2 10
2 14
2 15
5 1
5 3
5 4
5 5
5 8
5 11
5 12
5 13
5 14
END_STATE
END_LABELED_STATE
BEGIN_LABELED_STATE
2.0
BEGIN_STATE
4 13 2
3 6 24
3 10 17
3 0 16
3 2 18
3 15 19
3 9 20
3 4 23
3 7 22
3 14 21
4 11 7
4 8 10
4 3 6
4 12 0
4 1 9
2 0
2 2
2 4
2 6
2 7
2 9
2 10
2 14
2 15
4 5 4
5 1
5 3
5 5
5 8
5 11
5 12
5 13
5 14
5 15
END_STATE
END_LABELED_STATE
BEGIN_LABELED_STATE
1.0
BEGIN_STATE
4 13 2
3 6 24
3 10 17
3 0 16
3 2 18
3 15 19
3 9 20
3 4 23
3 7 22
3 14 21
4 11 7
4 8 10
4 12 0
4 1 9
4 3 14
2 0
2 2
2 4
2 6
2 7
2 9
2 10
2 14
2 15
4 5 4
5 1
5 3
5 5
5 6
5 8
5 11
5 12
5 13
5 15
END_STATE
END_LABELED_STATE
BEGIN_LABELED_STATE
0.0
BEGIN_STATE
4 13 2
3 6 24
3 10 17
3 0 16
3 2 18
6 19
3 9 20
3 4 23
3 7 22
3 14 21
4 11 7
4 8 10
4 12 0
4 1 9
4 15 6
4 3 14
2 0
2 2
2 4
2 6
2 7
2 9
2 10
2 14
4 5 4
5 1
5 3
5 5
5 8
5 11
5 12
5 13
5 15
END_STATE
END_LABELED_STATE
BEGIN_LABELED_STATE
2.0
BEGIN_STATE
4 13 2
3 6 24
3 10 17
3 0 16
3 2 18
3 15 19
3 9 20
3 4 23
3 7 22
3 14 21
4 11 7
4 8 10
4 3 6
4 12 0
4 1 9
4 5 14
2 0
2 2
2 4
2 6
2 7
2 9
2 10
2 14
2 15
5 1
5 3
5 4
5 5
5 8
5 11
5 12
5 13
5 15
END_STATE
END_LABELED_STATE
BEGIN_LABELED_STATE
1.0
BEGIN_STATE
4 13 2
3 6 24
3 10 17
3 0 16
3 2 18
3 15 19
3 9 20
3 4 23
3 7 22
3 14 21
4 3 4
4 11 7
4 8 10
4 12 0
4 1 9
4 5 14
2 0
2 2
2 4
2 6
2 7
2 9
2 10
2 14
2 15
5 1
5 3
5 5
5 6
5 8
5 11
5 12
5 13
5 15
END_STATE
END_LABELED_STATE
BEGIN_LABELED_STATE
0.0
BEGIN_STATE
4 13 2
3 6 24
3 10 17
3 0 16
3 2 18
6 19
3 9 20
3 4 23
3 7 22
3 14 21
4 3 4
4 11 7
4 8 10
4 12 0
4 1 9
4 5 14
4 15 6
2 0
2 2
2 4
2 6
2 7
2 9
2 10
2 14
5 1
5 3
5 5
5 8
5 11
5 12
5 13
5 15
END_STATE
END_LABELED_STATE
BEGIN_LABELED_STATE
3.0
BEGIN_STATE
4 13 2
3 6 24
3 10 17
3 0 16
3 2 18
3 15 19
3 9 20
3 4 23
3 7 22
3 14 21
4 11 7
4 8 10
4 3 6
4 12 0
2 0
2 2
2 4
2 6
2 7
2 9
2 10
2 14
2 15
4 1 15
4 5 4
5 1
5 3
5 5
5 8
5 9
5 11
5 12
5 13
5 14
END_STATE
END_LABELED_STATE
BEGIN_LABELED_STATE
3.0
BEGIN_STATE
4 13 2
3 6 24
3 10 17
3 0 16
3 2 18
3 15 19
3 9 20
3 4 23
3 7 22
3 14 21
4 11 7
4 8 10
4 3 6
4 12 0
4 5 14
2 0
2 2
2 4
2 6
2 7
2 9
2 10
2 14
2 15
4 1 15
5 1
5 3
5 4
5 5
5 8
5 9
5 11
5 12
5 13
END_STATE
END_LABELED_STATE
BEGIN_LABELED_STATE
3.0
BEGIN_STATE
4 13 2
3 6 24
3 10 17
3 0 16
3 2 18
3 15 19
3 9 20
3 4 23
3 7 22
3 14 21
4 11 7
4 8 10
4 3 6
4 12 9
4 5 14
2 0
2 2
2 4
2 6
2 7
2 9
2 10
2 14
2 15
4 1 15
5 0
5 1
5 3
5 4
5 5
5 8
5 11
5 12
5 13
END_STATE
END_LABELED_STATE
BEGIN_LABELED_STATE
2.0
BEGIN_STATE
4 13 2
3 6 24
3 10 17
3 0 16
3 2 18
3 15 19
3 9 20
3 4 23
3 7 22
3 14 21
4 11 7
4 8 10
4 3 6
4 12 9
4 1 0
4 5 14
2 0
2 2
2 4
2 6
2 7
2 9
2 10
2 14
2 15
5 1
5 3
5 4
5 5
5 8
5 11
5 12
5 13
5 15
END_STATE
END_LABELED_STATE
BEGIN_LABELED_STATE
1.0
BEGIN_STATE
4 13 2
3 6 24
3 10 17
3 0 16
3 2 18
3 15 19
3 9 20
3 4 23
3 7 22
3 14 21
4 3 4
4 11 7
4 8 10
4 12 9
4 1 0
4 5 14
2 0
2 2
2 4
2 6
2 7
2 9
2 10
2 14
2 15
5 1
5 3
5 5
5 6
5 8
5 11
5 12
5 13
5 15
END_STATE
END_LABELED_STATE
BEGIN_LABELED_STATE
0.0
BEGIN_STATE
4 13 2
3 6 24
3 10 17
3 0 16
3 2 18
6 19
3 9 20
3 4 23
3 7 22
3 14 21
4 3 4
4 11 7
4 8 10
4 12 9
4 1 0
4 5 14
4 15 6
2 0
2 2
2 4
2 6
2 7
2 9
2 10
2 14
5 1
5 3
5 5
5 8
5 11
5 12
5 13
5 15
END_STATE
END_LABELED_STATE
BEGIN_LABELED_STATE
2.0
BEGIN_STATE
4 13 2
3 6 24
3 10 17
3 0 16
3 2 18
3 15 19
3 9 20
3 4 23
3 7 22
3 14 21
4 11 7
4 8 10
4 3 6
4 12 9
4 1 4
4 5 14
2 0
2 2
2 4
2 6
2 7
2 9
2 10
2 14
2 15
5 0
5 1
5 3
5 5
5 8
5 11
5 12
5 13
5 15
END_STATE
END_LABELED_STATE
BEGIN_LABELED_STATE
1.0
BEGIN_STATE
4 13 2
3 6 24
3 10 17
3 0 16
3 2 18
3 15 19
3 9 20
3 4 23
3 7 22
3 14 21
4 11 7
4 8 10
4 12 9
4 1 4
4 5 14
4 3 0
2 0
2 2
2 4
2 6
2 7
2 9
2 10
2 14
2 15
5 1
5 3
5 5
5 6
5 8
5 11
5 12
5 13
5 15
END_STATE
END_LABELED_STATE
BEGIN_LABELED_STATE
0.0
BEGIN_STATE
4 13 2
3 6 24
3 10 17
3 0 16
3 2 18
6 19
3 9 20
3 4 23
3 7 22
3 14 21
4 11 7
4 8 10
4 12 9
4 1 4
4 5 14
4 3 0
4 15 6
2 0
2 2
2 4
2 6
2 7
2 9
2 10
2 14
5 1
5 3
5 5
5 8
5 11
5 12
5 13
5 15
END_STATE
END_LABELED_STATE
BEGIN_LABELED_STATE
3.0
BEGIN_STATE
4 13 2
3 6 24
3 10 17
3 0 16
3 2 18
3 15 19
3 9 20
3 4 23
3 7 22
3 14 21
4 11 7
4 8 10
4 3 6
4 12 9
4 1 4
4 5 15
2 0
2 2
2 4
2 6
2 7
2 9
2 10
2 14
2 15
5 0
5 1
5 3
5 5
5 8
5 11
5 12
5 13
5 14
END_STATE
END_LABELED_STATE
BEGIN_LABELED_STATE
2.0
BEGIN_STATE
4 13 2
3 6 24
3 10 17
3 0 16
3 2 18
3 15 19
3 9 20
3 4 23
3 7 22
3 14 21
4 5 0
4 11 7
4 8 10
4 3 6
4 12 9
4 1 4
2 0
2 2
2 4
2 6
2 7
2 9
2 10
2 14
2 15
5 1
5 3
5 5
5 8
5 11
5 12
5 13
5 14
5 15
END_STATE
END_LABELED_STATE
BEGIN_LABELED_STATE
1.0
BEGIN_STATE
4 13 2
3 6 24
3 10 17
3 0 16
3 2 18
3 15 19
3 9 20
3 4 23
3 7 22
3 14 21
4 5 0
4 11 7
4 8 10
4 12 9
4 1 4
4 3 14
2 0
2 2
2 4
2 6
2 7
2 9
2 10
2 14
2 15
5 1
5 3
5 5
5 6
5 8
5 11
5 12
5 13
5 15
END_STATE
END_LABELED_STATE
BEGIN_LABELED_STATE
0.0
BEGIN_STATE
4 13 2
3 6 24
3 10 17
3 0 16
3 2 18
6 19
3 9 20
3 4 23
3 7 22
3 14 21
4 5 0
4 11 7
4 8 10
4 12 9
4 1 4
4 15 6
4 3 14
2 0
2 2
2 4
2 6
2 7
2 9
2 10
2 14
5 1
5 3
5 5
5 8
5 11
5 12
5 13
5 15
END_STATE
END_LABELED_STATE
BEGIN_LABELED_STATE
3.0
BEGIN_STATE
4 13 2
3 6 24
3 10 17
3 0 16
3 2 18
3 15 19
3 9 20
3 4 23
3 7 22
3 14 21
4 5 0
4 11 7
4 8 10
4 3 6
4 12 9
2 0
2 2
2 4
2 6
2 7
2 9
2 10
2 14
2 15
4 1 15
5 1
5 3
5 4
5 5
5 8
5 11
5 12
5 13
5 14
END_STATE
END_LABELED_STATE
BEGIN_LABELED_STATE
2.0
BEGIN_STATE
4 13 2
3 6 24
3 10 17
3 0 16
3 2 18
3 15 19
3 9 20
3 4 23
3 7 22
3 14 21
4 5 0
4 11 7
4 8 10
4 3 6
4 12 9
2 0
2 2
2 4
2 6
2 7
2 9
2 10
2 14
2 15
4 1 14
5 1
5 3
5 4
5 5
5 8
5 11
5 12
5 13
5 15
END_STATE
END_LABELED_STATE
BEGIN_LABELED_STATE
1.0
BEGIN_STATE
4 13 2
3 6 24
3 10 17
3 0 16
3 2 18
3 15 19
3 9 20
3 4 23
3 7 22
3 14 21
4 3 4
4 5 0
4 11 7
4 8 10
4 12 9
2 0
2 2
2 4
2 6
2 7
2 9
2 10
2 14
2 15
4 1 14
5 1
5 3
5 5
5 6
5 8
5 11
5 12
5 13
5 15
END_STATE
END_LABELED_STATE
BEGIN_LABELED_STATE
0.0
BEGIN_STATE
4 13 2
3 6 24
3 10 17
3 0 16
3 2 18
6 19
3 9 20
3 4 23
3 7 22
3 14 21
4 3 4
4 5 0
4 11 7
4 8 10
4 12 9
4 15 6
2 0
2 2
2 4
2 6
2 7
2 9
2 10
2 14
4 1 14
5 1
5 3
5 5
5 8
5 11
5 12
5 13
5 15
END_STATE
END_LABELED_STATE
BEGIN_LABELED_STATE
3.0
BEGIN_STATE
4 13 2
3 6 24
3 10 17
3 0 16
3 2 18
3 15 19
3 9 20
3 4 23
3 7 22
3 14 21
4 5 0
4 11 7
4 8 10
4 3 6
2 0
2 2
2 4
2 6
2 7
2 9
2 10
2 14
2 15
4 1 14
4 12 15
5 1
5 3
5 4
5 5
5 8
5 9
5 11
5 12
5 13
END_STATE
END_LABELED_STATE
BEGIN_LABELED_STATE
2.0
BEGIN_STATE
4 13 2
3 6 24
3 10 17
3 0 16
3 2 18
3 15 19
3 9 20
3 4 23
3 7 22
3 14 21
4 5 0
4 11 7
4 8 10
4 3 6
4 12 4
2 0
2 2
2 4
2 6
2 7
2 9
2 10
2 14
2 15
4 1 14
5 1
5 3
5 5
5 8
5 9
5 11
5 12
5 13
5 15
END_STATE
END_LABELED_STATE
BEGIN_LABELED_STATE
1.0
BEGIN_STATE
4 13 2
3 6 24
3 10 17
3 0 16
3 2 18
3 15 19
3 9 20
3 4 23
3 7 22
3 14 21
4 5 0
4 11 7
4 8 10
4 12 4
4 3 9
2 0
2 2
2 4
2 6
2 7
2 9
2 10
2 14
2 15
4 1 14
5 1
5 3
5 5
5 6
5 8
5 11
5 12
5 13
5 15
END_STATE
END_LABELED_STATE
BEGIN_LABELED_STATE
0.0
BEGIN_STATE
4 13 2
3 6 24
3 10 17
3 0 16
3 2 18
6 19
3 9 20
3 4 23
3 7 22
3 14 21
4 5 0
4 11 7
4 8 10
4 12 4
4 3 9
4 15 6
2 0
2 2
2 4
2 6
2 7
2 9
2 10
2 14
4 1 14
5 1
5 3
5 5
5 8
5 11
5 12
5 13
5 15
END_STATE
END_LABELED_STATE
BEGIN_LABELED_STATE
3.0
BEGIN_STATE
4 13 2
3 6 24
3 10 17
3 0 16
3 2 18
3 15 19
3 9 20
3 4 23
3 7 22
3 14 21
4 5 0
4 11 7
4 8 10
4 3 6
4 1 9
2 0
2 2
2 4
2 6
2 7
2 9
2 10
2 14
2 15
4 12 15
5 1
5 3
5 4
5 5
5 8
5 11
5 12
5 13
5 14
END_STATE
END_LABELED_STATE
BEGIN_LABELED_STATE
2.0
BEGIN_STATE
4 13 2
3 6 24
3 10 17
3 0 16
3 2 18
3 15 19
3 9 20
3 4 23
3 7 22
3 14 21
4 5 0
4 11 7
4 8 10
4 3 6
4 1 9
4 12 4
2 0
2 2
2 4
2 6
2 7
2 9
2 10
2 14
2 15
5 1
5 3
5 5
5 8
5 11
5 12
5 13
5 14
5 15
END_STATE
END_LABELED_STATE
BEGIN_LABELED_STATE
1.0
BEGIN_STATE
4 13 2
3 6 24
3 10 17
3 0 16
3 2 18
3 15 19
3 9 20
3 4 23
3 7 22
3 14 21
4 5 0
4 11 7
4 8 10
4 1 9
4 12 4
4 3 14
2 0
2 2
2 4
2 6
2 7
2 9
2 10
2 14
2 15
5 1
5 3
5 5
5 6
5 8
5 11
5 12
5 13
5 15
END_STATE
END_LABELED_STATE
BEGIN_LABELED_STATE
0.0
BEGIN_STATE
4 13 2
3 6 24
3 10 17
3 0 16
3 2 18
6 19
3 9 20
3 4 23
3 7 22
3 14 21
4 5 0
4 11 7
4 8 10
4 1 9
4 12 4
4 15 6
4 3 14
2 0
2 2
2 4
2 6
2 7
2 9
2 10
2 14
5 1
5 3
5 5
5 8
5 11
5 12
5 13
5 15
END_STATE
END_LABELED_STATE
BEGIN_LABELED_STATE
2.0
BEGIN_STATE
4 13 2
3 6 24
3 10 17
3 0 16
3 2 18
3 15 19
3 9 20
3 4 23
3 7 22
3 14 21
4 5 0
4 11 7
4 8 10
4 3 6
4 1 9
4 12 14
2 0
2 2
2 4
2 6
2 7
2 9
2 10
2 14
2 15
5 1
5 3
5 4
5 5
5 8
5 11
5 12
5 13
5 15
END_STATE
END_LABELED_STATE
BEGIN_LABELED_STATE
1.0
BEGIN_STATE
4 13 2
3 6 24
3 10 17
3 0 16
3 2 18
3 15 19
3 9 20
3 4 23
3 7 22
3 14 21
4 3 4
4 5 0
4 11 7
4 8 10
4 1 9
4 12 14
2 0
2 2
2 4
2 6
2 7
2 9
2 10
2 14
2 15
5 1
5 3
5 5
5 6
5 8
5 11
5 12
5 13
5 15
END_STATE
END_LABELED_STATE
BEGIN_LABELED_STATE
0.0
BEGIN_STATE
4 13 2
3 6 24
3 10 17
3 0 16
3 2 18
6 19
3 9 20
3 4 23
3 7 22
3 14 21
4 3 4
4 5 0
4 11 7
4 8 10
4 1 9
4 12 14
4 15 6
2 0
2 2
2 4
2 6
2 7
2 9
2 10
2 14
5 1
5 3
5 5
5 8
5 11
5 12
5 13
5 15
END_STATE
END_LABELED_STATE
BEGIN_LABELED_STATE
3.0
BEGIN_STATE
4 13 2
3 6 24
3 10 17
3 0 16
3 2 18
3 15 19
3 9 20
3 4 23
3 7 22
3 14 21
4 5 0
4 11 7
4 8 10
4 3 6
4 12 4
2 0
2 2
2 4
2 6
2 7
2 9
2 10
2 14
2 15
4 1 15
5 1
5 3
5 5
5 8
5 9
5 11
5 12
5 13
5 14
END_STATE
END_LABELED_STATE
BEGIN_LABELED_STATE
2.0
BEGIN_STATE
4 13 2
3 6 24
3 10 17
3 0 16
3 2 18
3 15 19
3 9 20
3 4 23
3 7 22
3 14 21
4 5 0
4 11 7
4 8 10
4 12 4
4 3 15
2 0
2 2
2 4
2 6
2 7
2 9
2 10
2 14
2 15
4 1 14
5 1
5 3
5 5
5 6
5 8
5 9
5 11
5 12
5 13
END_STATE
END_LABELED_STATE
BEGIN_LABELED_STATE
2.0
BEGIN_STATE
4 13 2
3 6 24
3 10 17
3 0 16
3 2 18
3 15 19
3 9 20
3 4 23
3 7 22
3 14 21
4 5 0
4 11 7
4 8 10
4 1 9
4 12 4
4 3 15
2 0
2 2
2 4
2 6
2 7
2 9
2 10
2 14
2 15
5 1
5 3
5 5
5 6
5 8
5 11
5 12
5 13
5 14
END_STATE
END_LABELED_STATE
BEGIN_LABELED_STATE
2.0
BEGIN_STATE
4 13 2
3 6 24
3 10 17
3 0 16
3 2 18
3 15 19
3 9 20
3 4 23
3 7 22
3 14 21
4 5 0
4 11 7
4 8 10
4 1 9
4 3 14
2 0
2 2
2 4
2 6
2 7
2 9
2 10
2 14
2 15
4 12 15
5 1
5 3
5 4
5 5
5 6
5 8
5 11
5 12
5 13
END_STATE
END_LABELED_STATE
BEGIN_LABELED_STATE
2.0
BEGIN_STATE
4 13 2
3 6 24
3 10 17
3 0 16
3 2 18
3 15 19
3 9 20
3 4 23
3 7 22
3 14 21
4 5 0
4 11 7
4 8 10
4 12 6
4 1 9
4 3 14
2 0
2 2
2 4
2 6
2 7
2 9
2 10
2 14
2 15
5 1
5 3
5 4
5 5
5 8
5 11
5 12
5 13
5 15
END_STATE
END_LABELED_STATE
BEGIN_LABELED_STATE
3.0
BEGIN_STATE
4 13 2
3 6 24
3 10 17
3 0 16
3 2 18
3 15 19
3 9 20
3 4 23
3 7 22
3 14 21
4 5 0
4 11 7
4 8 10
4 12 6
4 1 9
4 3 15
2 0
2 2
2 4
2 6
2 7
2 9
2 10
2 14
2 15
5 1
5 3
5 4
5 5
5 8
5 11
5 12
5 13
5 14
END_STATE
END_LABELED_STATE
BEGIN_LABELED_STATE
2.0
BEGIN_STATE
4 13 2
3 6 24
3 10 17
3 0 16
3 2 18
3 15 19
3 9 20
3 4 23
3 7 22
3 14 21
4 3 4
4 5 0
4 11 7
4 8 10
4 12 6
4 1 9
2 0
2 2
2 4
2 6
2 7
2 9
2 10
2 14
2 15
5 1
5 3
5 5
5 8
5 11
5 12
5 13
5 14
5 15
END_STATE
END_LABELED_STATE
BEGIN_LABELED_STATE
3.0
BEGIN_STATE
4 13 2
3 6 24
3 10 17
3 0 16
3 2 18
3 15 19
3 9 20
3 4 23
3 7 22
3 14 21
4 3 4
4 5 0
4 11 7
4 8 10
4 12 6
2 0
2 2
2 4
2 6
2 7
2 9
2 10
2 14
2 15
4 1 15
5 1
5 3
5 5
5 8
5 9
5 11
5 12
5 13
5 14
END_STATE
END_LABELED_STATE
BEGIN_LABELED_STATE
2.0
BEGIN_STATE
4 13 2
3 6 24
3 10 17
3 0 16
3 2 18
3 15 19
3 9 20
3 4 23
3 7 22
3 14 21
4 3 4
4 5 0
4 11 7
4 8 10
4 12 6
2 0
2 2
2 4
2 6
2 7
2 9
2 10
2 14
2 15
4 1 14
5 1
5 3
5 5
5 8
5 9
5 11
5 12
5 13
5 15
END_STATE
END_LABELED_STATE
BEGIN_LABELED_STATE
2.0
BEGIN_STATE
4 13 2
3 6 24
3 10 17
3 0 16
3 2 18
3 15 19
3 9 20
3 4 23
3 7 22
3 14 21
4 3 4
4 5 0
4 11 7
4 8 10
2 0
2 2
2 4
2 6
2 7
2 9
2 10
2 14
2 15
4 1 14
4 12 15
5 1
5 3
5 5
5 6
5 8
5 9
5 11
5 12
5 13
END_STATE
END_LABELED_STATE
BEGIN_LABELED_STATE
2.0
BEGIN_STATE
4 13 2
3 6 24
3 10 17
3 0 16
3 2 18
3 15 19
3 9 20
3 4 23
3 7 22
3 14 21
4 3 4
4 5 0
4 11 7
4 8 10
4 12 9
2 0
2 2
2 4
2 6
2 7
2 9
2 10
2 14
2 15
4 1 15
5 1
5 3
5 5
5 6
5 8
5 11
5 12
5 13
5 14
END_STATE
END_LABELED_STATE
BEGIN_LABELED_STATE
2.0
BEGIN_STATE
4 13 2
3 6 24
3 10 17
3 0 16
3 2 18
3 15 19
3 9 20
3 4 23
3 7 22
3 14 21
4 3 4
4 5 0
4 1 6
4 11 7
4 8 10
4 12 9
2 0
2 2
2 4
2 6
2 7
2 9
2 10
2 14
2 15
5 1
5 3
5 5
5 8
5 11
5 12
5 13
5 14
5 15
END_STATE
END_LABELED_STATE
BEGIN_LABELED_STATE
3.0
BEGIN_STATE
4 13 2
3 6 24
3 10 17
3 0 16
3 2 18
3 15 19
3 9 20
3 4 23
3 7 22
3 14 21
4 3 4
4 5 0
4 1 6
4 11 7
4 8 10
2 0
2 2
2 4
2 6
2 7
2 9
2 10
2 14
2 15
4 12 15
5 1
5 3
5 5
5 8
5 9
5 11
5 12
5 13
5 14
END_STATE
END_LABELED_STATE
BEGIN_LABELED_STATE
2.0
BEGIN_STATE
4 13 2
3 6 24
3 10 17
3 0 16
3 2 18
3 15 19
3 9 20
3 4 23
3 7 22
3 14 21
4 3 4
4 5 0
4 1 6
4 11 7
4 8 10
4 12 14
2 0
2 2
2 4
2 6
2 7
2 9
2 10
2 14
2 15
5 1
5 3
5 5
5 8
5 9
5 11
5 12
5 13
5 15
END_STATE
END_LABELED_STATE
BEGIN_LABELED_STATE
3.0
BEGIN_STATE
4 13 2
3 6 24
3 10 17
3 0 16
3 2 18
3 15 19
3 9 20
3 4 23
3 7 22
3 14 21
4 3 4
4 5 0
4 1 6
4 11 7
4 12 14
4 8 15
2 0
2 2
2 4
2 6
2 7
2 9
2 10
2 14
2 15
5 1
5 3
5 5
5 8
5 9
5 10
5 11
5 12
5 13
END_STATE
END_LABELED_STATE
BEGIN_LABELED_STATE
2.0
BEGIN_STATE
4 13 2
3 6 24
3 10 17
3 0 16
3 2 18
3 15 19
3 9 20
3 4 23
3 7 22
3 14 21
4 3 4
4 5 0
4 1 6
4 11 7
4 8 9
4 12 14
2 0
2 2
2 4
2 6
2 7
2 9
2 10
2 14
2 15
5 1
5 3
5 5
5 8
5 10
5 11
5 12
5 13
5 15
END_STATE
END_LABELED_STATE
BEGIN_LABELED_STATE
1.0
BEGIN_STATE
4 13 2
3 6 24
3 10 17
3 0 16
3 2 18
3 15 19
3 9 20
3 4 23
3 7 22
3 14 21
4 3 4
4 1 10
4 5 0
4 11 7
4 8 9
4 12 14
2 0
2 2
2 4
2 6
2 7
2 9
2 10
2 14
2 15
5 1
5 3
5 5
5 6
5 8
5 11
5 12
5 13
5 15
END_STATE
END_LABELED_STATE
BEGIN_LABELED_STATE
0.0
BEGIN_STATE
4 13 2
3 6 24
3 10 17
3 0 16
3 2 18
6 19
3 9 20
3 4 23
3 7 22
3 14 21
4 3 4
4 1 10
4 5 0
4 11 7
4 8 9
4 12 14
4 15 6
2 0
2 2
2 4
2 6
2 7
2 9
2 10
2 14
5 1
5 3
5 5
5 8
5 11
5 12
5 13
5 15
END_STATE
END_LABELED_STATE
BEGIN_LABELED_STATE
3.0
BEGIN_STATE
4 13 2
3 6 24
3 10 17
3 0 16
3 2 18
3 15 19
3 9 20
3 4 23
3 7 22
3 14 21
4 3 4
4 5 0
4 1 6
4 11 7
4 8 9
2 0
2 2
2 4
2 6
2 7
2 9
2 10
2 14
2 15
4 12 15
5 1
5 3
5 5
5 8
5 10
5 11
5 12
5 13
5 14
END_STATE
END_LABELED_STATE
BEGIN_LABELED_STATE
2.0
BEGIN_STATE
4 13 2
3 6 24
3 10 17
3 0 16
3 2 18
3 15 19
3 9 20
3 4 23
3 7 22
3 14 21
4 3 4
4 5 0
4 1 6
4 11 7
4 8 9
2 0
2 2
2 4
2 6
2 7
2 9
2 10
2 14
2 15
4 12 10
5 1
5 3
5 5
5 8
5 11
5 12
5 13
5 14
5 15
END_STATE
END_LABELED_STATE
BEGIN_LABELED_STATE
1.0
BEGIN_STATE
4 13 2
3 6 24
3 10 17
3 0 16
3 2 18
3 15 19
3 9 20
3 4 23
3 7 22
3 14 21
4 3 4
4 5 0
4 11 7
4 8 9
2 0
2 2
2 4
2 6
2 7
2 9
2 10
2 14
2 15
4 1 14
4 12 10
5 1
5 3
5 5
5 6
5 8
5 11
5 12
5 13
5 15
END_STATE
END_LABELED_STATE
BEGIN_LABELED_STATE
0.0
BEGIN_STATE
4 13 2
3 6 24
3 10 17
3 0 16
3 2 18
6 19
3 9 20
3 4 23
3 7 22
3 14 21
4 3 4
4 5 0
4 11 7
4 8 9
4 15 6
2 0
2 2
2 4
2 6
2 7
2 9
2 10
2 14
4 1 14
4 12 10
5 1
5 3
5 5
5 8
5 11
5 12
5 13
5 15
END_STATE
END_LABELED_STATE
BEGIN_LABELED_STATE
3.0
BEGIN_STATE
4 13 2
3 6 24
3 10 17
3 0 16
3 2 18
3 15 19
3 9 20
3 4 23
3 7 22
3 14 21
4 3 4
4 5 0
4 1 6
4 11 7
4 8 15
2 0
2 2
2 4
2 6
2 7
2 9
2 10
2 14
2 15
4 12 10
5 1
5 3
5 5
5 8
5 9
5 11
5 12
5 13
5 14
END_STATE
END_LABELED_STATE
BEGIN_LABELED_STATE
3.0
BEGIN_STATE
4 13 2
3 6 24
3 10 17
3 0 16
3 2 18
3 15 19
3 9 20
3 4 23
3 7 22
3 14 21
4 3 4
4 5 0
4 1 6
4 11 7
4 12 9
4 8 15
2 0
2 2
2 4
2 6
2 7
2 9
2 10
2 14
2 15
5 1
5 3
5 5
5 8
5 10
5 11
5 12
5 13
5 14
END_STATE
END_LABELED_STATE
BEGIN_LABELED_STATE
2.0
BEGIN_STATE
4 13 2
3 6 24
3 10 17
3 0 16
3 2 18
3 15 19
3 9 20
3 4 23
3 7 22
3 14 21
4 3 4
4 5 0
4 1 6
4 11 7
4 12 9
4 8 14
2 0
2 2
2 4
2 6
2 7
2 9
2 10
2 14
2 15
5 1
5 3
5 5
5 8
5 10
5 11
5 12
5 13
5 15
END_STATE
END_LABELED_STATE
BEGIN_LABELED_STATE
1.0
BEGIN_STATE
4 13 2
3 6 24
3 10 17
3 0 16
3 2 18
3 15 19
3 9 20
3 4 23
3 7 22
3 14 21
4 3 4
4 1 10
4 5 0
4 11 7
4 12 9
4 8 14
2 0
2 2
2 4
2 6
2 7
2 9
2 10
2 14
2 15
5 1
5 3
5 5
5 6
5 8
5 11
5 12
5 13
5 15
END_STATE
END_LABELED_STATE
BEGIN_LABELED_STATE
0.0
BEGIN_STATE
4 13 2
3 6 24
3 10 17
3 0 16
3 2 18
6 19
3 9 20
3 4 23
3 7 22
3 14 21
4 3 4
4 1 10
4 5 0
4 11 7
4 12 9
4 15 6
4 8 14
2 0
2 2
2 4
2 6
2 7
2 9
2 10
2 14
5 1
5 3
5 5
5 8
5 11
5 12
5 13
5 15
END_STATE
END_LABELED_STATE
BEGIN_LABELED_STATE
3.0
BEGIN_STATE
4 13 2
3 6 24
3 10 17
3 0 16
3 2 18
3 15 19
3 9 20
3 4 23
3 7 22
3 14 21
4 3 4
4 5 0
4 1 6
4 11 7
4 8 14
2 0
2 2
2 4
2 6
2 7
2 9
2 10
2 14
2 15
4 12 15
5 1
5 3
5 5
5 8
5 9
5 10
5 11
5 12
5 13
END_STATE
END_LABELED_STATE
BEGIN_LABELED_STATE
2.0
BEGIN_STATE
4 13 2
3 6 24
3 10 17
3 0 16
3 2 18
3 15 19
3 9 20
3 4 23
3 7 22
3 14 21
4 3 4
4 5 0
4 1 6
4 11 7
4 8 14
2 0
2 2
2 4
2 6
2 7
2 9
2 10
2 14
2 15
4 12 10
5 1
5 3
5 5
5 8
5 9
5 11
5 12
5 13
5 15
END_STATE
END_LABELED_STATE
BEGIN_LABELED_STATE
1.0
BEGIN_STATE
4 13 2
3 6 24
3 10 17
3 0 16
3 2 18
3 15 19
3 9 20
3 4 23
3 7 22
3 14 21
4 3 4
4 5 0
4 11 7
4 1 9
4 8 14
2 0
2 2
2 4
2 6
2 7
2 9
2 10
2 14
2 15
4 12 10
5 1
5 3
5 5
5 6
5 8
5 11
5 12
5 13
5 15
END_STATE
END_LABELED_STATE
BEGIN_LABELED_STATE
0.0
BEGIN_STATE
4 13 2
3 6 24
3 10 17
3 0 16
3 2 18
6 19
3 9 20
3 4 23
3 7 22
3 14 21
4 3 4
4 5 0
4 11 7
4 1 9
4 15 6
4 8 14
2 0
2 2
2 4
2 6
2 7
2 9
2 10
2 14
4 12 10
5 1
5 3
5 5
5 8
5 11
5 12
5 13
5 15
END_STATE
END_LABELED_STATE
BEGIN_LABELED_STATE
3.0
BEGIN_STATE
4 13 2
3 6 24
3 10 17
3 0 16
3 2 18
3 15 19
3 9 20
3 4 23
3 7 22
3 14 21
4 3 4
4 5 0
4 1 6
4 11 15
4 8 14
2 0
2 2
2 4
2 6
2 7
2 9
2 10
2 14
2 15
4 12 10
5 1
5 3
5 5
5 7
5 8
5 9
5 11
5 12
5 13
END_STATE
END_LABELED_STATE
BEGIN_LABELED_STATE
3.0
BEGIN_STATE
4 13 2
3 6 24
3 10 17
3 0 16
3 2 18
3 15 19
3 9 20
3 4 23
3 7 22
3 14 21
4 3 4
4 5 0
4 1 6
4 12 9
4 11 15
4 8 14
2 0
2 2
2 4
2 6
2 7
2 9
2 10
2 14
2 15
5 1
5 3
5 5
5 7
5 8
5 10
5 11
5 12
5 13
END_STATE
END_LABELED_STATE
BEGIN_LABELED_STATE
3.0
BEGIN_STATE
4 13 2
3 6 24
3 10 17
3 0 16
3 2 18
3 15 19
3 9 20
3 4 23
3 7 22
3 14 21
4 3 4
4 5 0
4 1 6
4 8 10
4 12 9
4 11 15
2 0
2 2
2 4
2 6
2 7
2 9
2 10
2 14
2 15
5 1
5 3
5 5
5 7
5 8
5 11
5 12
5 13
5 14
END_STATE
END_LABELED_STATE
BEGIN_LABELED_STATE
2.0
BEGIN_STATE
4 13 2
3 6 24
3 10 17
3 0 16
3 2 18
3 15 19
3 9 20
3 4 23
3 7 22
3 14 21
4 3 4
4 5 0
4 1 6
4 8 10
4 12 9
4 11 14
2 0
2 2
2 4
2 6
2 7
2 9
2 10
2 14
2 15
5 1
5 3
5 5
5 7
5 8
5 11
5 12
5 13
5 15
END_STATE
END_LABELED_STATE
BEGIN_LABELED_STATE
1.0
BEGIN_STATE
4 13 2
3 6 24
3 10 17
3 0 16
3 2 18
3 15 19
3 9 20
3 4 23
3 7 22
3 14 21
4 3 4
4 5 0
4 8 10
4 12 9
4 1 7
4 11 14
2 0
2 2
2 4
2 6
2 7
2 9
2 10
2 14
2 15
5 1
5 3
5 5
5 6
5 8
5 11
5 12
5 13
5 15
END_STATE
END_LABELED_STATE
BEGIN_LABELED_STATE
0.0
BEGIN_STATE
4 13 2
3 6 24
3 10 17
3 0 16
3 2 18
6 19
3 9 20
3 4 23
3 7 22
3 14 21
4 3 4
4 5 0
4 8 10
4 12 9
4 1 7
4 11 14
4 15 6
2 0
2 2
2 4
2 6
2 7
2 9
2 10
2 14
5 1
5 3
5 5
5 8
5 11
5 12
5 13
5 15
END_STATE
END_LABELED_STATE
BEGIN_LABELED_STATE
3.0
BEGIN_STATE
4 13 2
3 6 24
3 10 17
3 0 16
3 2 18
3 15 19
3 9 20
3 4 23
3 7 22
3 14 21
4 3 4
4 5 0
4 1 6
4 8 10
4 11 14
2 0
2 2
2 4
2 6
2 7
2 9
2 10
2 14
2 15
4 12 15
5 1
5 3
5 5
5 7
5 8
5 9
5 11
5 12
5 13
END_STATE
END_LABELED_STATE
BEGIN_LABELED_STATE
2.0
BEGIN_STATE
4 13 2
3 6 24
3 10 17
3 0 16
3 2 18
3 15 19
3 9 20
3 4 23
3 7 22
3 14 21
4 3 4
4 5 0
4 1 6
4 8 10
4 12 7
4 11 14
2 0
2 2
2 4
2 6
2 7
2 9
2 10
2 14
2 15
5 1
5 3
5 5
5 8
5 9
5 11
5 12
5 13
5 15
END_STATE
END_LABELED_STATE
BEGIN_LABELED_STATE
1.0
BEGIN_STATE
4 13 2
3 6 24
3 10 17
3 0 16
3 2 18
3 15 19
3 9 20
3 4 23
3 7 22
3 14 21
4 3 4
4 5 0
4 8 10
4 12 7
4 1 9
4 11 14
2 0
2 2
2 4
2 6
2 7
2 9
2 10
2 14
2 15
5 1
5 3
5 5
5 6
5 8
5 11
5 12
5 13
5 15
END_STATE
END_LABELED_STATE
BEGIN_LABELED_STATE
0.0
BEGIN_STATE
4 13 2
3 6 24
3 10 17
3 0 16
3 2 18
6 19
3 9 20
3 4 23
3 7 22
3 14 21
4 3 4
4 5 0
4 8 10
4 12 7
4 1 9
4 11 14
4 15 6
2 0
2 2
2 4
2 6
2 7
2 9
2 10
2 14
5 1
5 3
5 5
5 8
5 11
5 12
5 13
5 15
END_STATE
END_LABELED_STATE
BEGIN_LABELED_STATE
3.0
BEGIN_STATE
4 13 2
3 6 24
3 10 17
3 0 16
3 2 18
3 15 19
3 9 20
3 4 23
3 7 22
3 14 21
4 3 4
4 5 0
4 1 6
4 8 10
4 12 7
4 11 15
2 0
2 2
2 4
2 6
2 7
2 9
2 10
2 14
2 15
5 1
5 3
5 5
5 8
5 9
5 11
5 12
5 13
5 14
END_STATE
END_LABELED_STATE
BEGIN_LABELED_STATE
2.0
BEGIN_STATE
4 13 2
3 6 24
3 10 17
3 0 16
3 2 18
3 15 19
3 9 20
3 4 23
3 7 22
3 14 21
4 3 4
4 5 0
4 1 6
4 8 10
4 12 7
4 11 9
2 0
2 2
2 4
2 6
2 7
2 9
2 10
2 14
2 15
5 1
5 3
5 5
5 8
5 11
5 12
5 13
5 14
5 15
END_STATE
END_LABELED_STATE
BEGIN_LABELED_STATE
1.0
BEGIN_STATE
4 13 2
3 6 24
3 10 17
3 0 16
3 2 18
3 15 19
3 9 20
3 4 23
3 7 22
3 14 21
4 3 4
4 5 0
4 8 10
4 12 7
4 11 9
2 0
2 2
2 4
2 6
2 7
2 9
2 10
2 14
2 15
4 1 14
5 1
5 3
5 5
5 6
5 8
5 11
5 12
5 13
5 15
END_STATE
END_LABELED_STATE
BEGIN_LABELED_STATE
0.0
BEGIN_STATE
4 13 2
3 6 24
3 10 17
3 0 16
3 2 18
6 19
3 9 20
3 4 23
3 7 22
3 14 21
4 3 4
4 5 0
4 8 10
4 12 7
4 11 9
4 15 6
2 0
2 2
2 4
2 6
2 7
2 9
2 10
2 14
4 1 14
5 1
5 3
5 5
5 8
5 11
5 12
5 13
5 15
END_STATE
END_LABELED_STATE
BEGIN_LABELED_STATE
3.0
BEGIN_STATE
4 13 2
3 6 24
3 10 17
3 0 16
3 2 18
3 15 19
3 9 20
3 4 23
3 7 22
3 14 21
4 3 4
4 5 0
4 1 6
4 8 10
4 11 9
2 0
2 2
2 4
2 6
2 7
2 9
2 10
2 14
2 15
4 12 15
5 1
5 3
5 5
5 7
5 8
5 11
5 12
5 13
5 14
END_STATE
END_LABELED_STATE
BEGIN_LABELED_STATE
2.0
BEGIN_STATE
4 13 2
3 6 24
3 10 17
3 0 16
3 2 18
3 15 19
3 9 20
3 4 23
3 7 22
3 14 21
4 3 4
4 5 0
4 1 6
4 8 10
4 11 9
4 12 14
2 0
2 2
2 4
2 6
2 7
2 9
2 10
2 14
2 15
5 1
5 3
5 5
5 7
5 8
5 11
5 12
5 13
5 15
END_STATE
END_LABELED_STATE
BEGIN_LABELED_STATE
1.0
BEGIN_STATE
4 13 2
3 6 24
3 10 17
3 0 16
3 2 18
3 15 19
3 9 20
3 4 23
3 7 22
3 14 21
4 3 4
4 5 0
4 8 10
4 11 9
4 1 7
4 12 14
2 0
2 2
2 4
2 6
2 7
2 9
2 10
2 14
2 15
5 1
5 3
5 5
5 6
5 8
5 11
5 12
5 13
5 15
END_STATE
END_LABELED_STATE
BEGIN_LABELED_STATE
0.0
BEGIN_STATE
4 13 2
3 6 24
3 10 17
3 0 16
3 2 18
6 19
3 9 20
3 4 23
3 7 22
3 14 21
4 3 4
4 5 0
4 8 10
4 11 9
4 1 7
4 12 14
4 15 6
2 0
2 2
2 4
2 6
2 7
2 9
2 10
2 14
5 1
5 3
5 5
5 8
5 11
5 12
5 13
5 15
END_STATE
END_LABELED_STATE
BEGIN_LABELED_STATE
3.0
BEGIN_STATE
4 13 2
3 6 24
3 10 17
3 0 16
3 2 18
3 15 19
3 9 20
3 4 23
3 7 22
3 14 21
4 3 4
4 5 0
4 1 6
4 8 10
4 12 14
4 11 15
2 0
2 2
2 4
2 6
2 7
2 9
2 10
2 14
2 15
5 1
5 3
5 5
5 7
5 8
5 9
5 11
5 12
5 13
END_STATE
END_LABELED_STATE
BEGIN_LABELED_STATE
3.0
BEGIN_STATE
4 13 2
3 6 24
3 10 17
3 0 16
3 2 18
3 15 19
3 9 20
3 4 23
3 7 22
3 14 21
4 3 4
4 5 0
4 1 6
4 8 9
4 12 14
4 11 15
2 0
2 2
2 4
2 6
2 7
2 9
2 10
2 14
2 15
5 1
5 3
5 5
5 7
5 8
5 10
5 11
5 12
5 13
END_STATE
END_LABELED_STATE
BEGIN_LABELED_STATE
2.0
BEGIN_STATE
4 13 2
3 6 24
3 10 17
3 0 16
3 2 18
3 15 19
3 9 20
3 4 23
3 7 22
3 14 21
4 3 4
4 5 0
4 1 6
4 8 9
4 12 14
4 11 10
2 0
2 2
2 4
2 6
2 7
2 9
2 10
2 14
2 15
5 1
5 3
5 5
5 7
5 8
5 11
5 12
5 13
5 15
END_STATE
END_LABELED_STATE
BEGIN_LABELED_STATE
1.0
BEGIN_STATE
4 13 2
3 6 24
3 10 17
3 0 16
3 2 18
3 15 19
3 9 20
3 4 23
3 7 22
3 14 21
4 3 4
4 5 0
4 8 9
4 1 7
4 12 14
4 11 10
2 0
2 2
2 4
2 6
2 7
2 9
2 10
2 14
2 15
5 1
5 3
5 5
5 6
5 8
5 11
5 12
5 13
5 15
END_STATE
END_LABELED_STATE
BEGIN_LABELED_STATE
0.0
BEGIN_STATE
4 13 2
3 6 24
3 10 17
3 0 16
3 2 18
6 19
3 9 20
3 4 23
3 7 22
3 14 21
4 3 4
4 5 0
4 8 9
4 1 7
4 12 14
4 11 10
4 15 6
2 0
2 2
2 4
2 6
2 7
2 9
2 10
2 14
5 1
5 3
5 5
5 8
5 11
5 12
5 13
5 15
END_STATE
END_LABELED_STATE
BEGIN_LABELED_STATE
3.0
BEGIN_STATE
4 13 2
3 6 24
3 10 17
3 0 16
3 2 18
3 15 19
3 9 20
3 4 23
3 7 22
3 14 21
4 3 4
4 5 0
4 1 6
4 8 9
4 11 10
2 0
2 2
2 4
2 6
2 7
2 9
2 10
2 14
2 15
4 12 15
5 1
5 3
5 5
5 7
5 8
5 11
5 12
5 13
5 14
END_STATE
END_LABELED_STATE
BEGIN_LABELED_STATE
2.0
BEGIN_STATE
4 13 2
3 6 24
3 10 17
3 0 16
3 2 18
3 15 19
3 9 20
3 4 23
3 7 22
3 14 21
4 3 4
4 5 0
4 1 6
4 12 7
4 8 9
4 11 10
2 0
2 2
2 4
2 6
2 7
2 9
2 10
2 14
2 15
5 1
5 3
5 5
5 8
5 11
5 12
5 13
5 14
5 15
END_STATE
END_LABELED_STATE
BEGIN_LABELED_STATE
1.0
BEGIN_STATE
4 13 2
3 6 24
3 10 17
3 0 16
3 2 18
3 15 19
3 9 20
3 4 23
3 7 22
3 14 21
4 3 4
4 5 0
4 12 7
4 8 9
4 11 10
2 0
2 2
2 4
2 6
2 7
2 9
2 10
2 14
2 15
4 1 14
5 1
5 3
5 5
5 6
5 8
5 11
5 12
5 13
5 15
END_STATE
END_LABELED_STATE
BEGIN_LABELED_STATE
0.0
BEGIN_STATE
4 13 2
3 6 24
3 10 17
3 0 16
3 2 18
6 19
3 9 20
3 4 23
3 7 22
3 14 21
4 3 4
4 5 0
4 12 7
4 8 9
4 11 10
4 15 6
2 0
2 2
2 4
2 6
2 7
2 9
2 10
2 14
4 1 14
5 1
5 3
5 5
5 8
5 11
5 12
5 13
5 15
END_STATE
END_LABELED_STATE
BEGIN_LABELED_STATE
3.0
BEGIN_STATE
4 13 2
3 6 24
3 10 17
3 0 16
3 2 18
3 15 19
3 9 20
3 4 23
3 7 22
3 14 21
4 3 4
4 5 0
4 1 6
4 12 7
4 8 9
4 11 15
2 0
2 2
2 4
2 6
2 7
2 9
2 10
2 14
2 15
5 1
5 3
5 5
5 8
5 10
5 11
5 12
5 13
5 14
END_STATE
END_LABELED_STATE
BEGIN_LABELED_STATE
2.0
BEGIN_STATE
4 13 2
3 6 24
3 10 17
3 0 16
3 2 18
3 15 19
3 9 20
3 4 23
3 7 22
3 14 21
4 3 4
4 5 0
4 1 6
4 12 7
4 8 9
4 11 14
2 0
2 2
2 4
2 6
2 7
2 9
2 10
2 14
2 15
5 1
5 3
5 5
5 8
5 10
5 11
5 12
5 13
5 15
END_STATE
END_LABELED_STATE
BEGIN_LABELED_STATE
1.0
BEGIN_STATE
4 13 2
3 6 24
3 10 17
3 0 16
3 2 18
3 15 19
3 9 20
3 4 23
3 7 22
3 14 21
4 3 4
4 1 10
4 5 0
4 12 7
4 8 9
4 11 14
2 0
2 2
2 4
2 6
2 7
2 9
2 10
2 14
2 15
5 1
5 3
5 5
5 6
5 8
5 11
5 12
5 13
5 15
END_STATE
END_LABELED_STATE
BEGIN_LABELED_STATE
0.0
BEGIN_STATE
4 13 2
3 6 24
3 10 17
3 0 16
3 2 18
6 19
3 9 20
3 4 23
3 7 22
3 14 21
4 3 4
4 1 10
4 5 0
4 12 7
4 8 9
4 11 14
4 15 6
2 0
2 2
2 4
2 6
2 7
2 9
2 10
2 14
5 1
5 3
5 5
5 8
5 11
5 12
5 13
5 15
END_STATE
END_LABELED_STATE
BEGIN_LABELED_STATE
3.0
BEGIN_STATE
4 13 2
3 6 24
3 10 17
3 0 16
3 2 18
3 15 19
3 9 20
3 4 23
3 7 22
3 14 21
4 3 4
4 5 0
4 1 6
4 12 7
4 11 14
4 8 15
2 0
2 2
2 4
2 6
2 7
2 9
2 10
2 14
2 15
5 1
5 3
5 5
5 8
5 9
5 10
5 11
5 12
5 13
END_STATE
END_LABELED_STATE
BEGIN_LABELED_STATE
3.0
BEGIN_STATE
4 13 2
3 6 24
3 10 17
3 0 16
3 2 18
3 15 19
3 9 20
3 4 23
3 7 22
3 14 21
4 3 4
4 5 0
4 1 6
4 12 7
4 11 10
4 8 15
2 0
2 2
2 4
2 6
2 7
2 9
2 10
2 14
2 15
5 1
5 3
5 5
5 8
5 9
5 11
5 12
5 13
5 14
END_STATE
END_LABELED_STATE
BEGIN_LABELED_STATE
2.0
BEGIN_STATE
4 13 2
3 6 24
3 10 17
3 0 16
3 2 18
3 15 19
3 9 20
3 4 23
3 7 22
3 14 21
4 3 4
4 5 0
4 1 6
4 12 7
4 11 10
4 8 14
2 0
2 2
2 4
2 6
2 7
2 9
2 10
2 14
2 15
5 1
5 3
5 5
5 8
5 9
5 11
5 12
5 13
5 15
END_STATE
END_LABELED_STATE
BEGIN_LABELED_STATE
1.0
BEGIN_STATE
4 13 2
3 6 24
3 10 17
3 0 16
3 2 18
3 15 19
3 9 20
3 4 23
3 7 22
3 14 21
4 3 4
4 5 0
4 12 7
4 1 9
4 11 10
4 8 14
2 0
2 2
2 4
2 6
2 7
2 9
2 10
2 14
2 15
5 1
5 3
5 5
5 6
5 8
5 11
5 12
5 13
5 15
END_STATE
END_LABELED_STATE
BEGIN_LABELED_STATE
0.0
BEGIN_STATE
4 13 2
3 6 24
3 10 17
3 0 16
3 2 18
6 19
3 9 20
3 4 23
3 7 22
3 14 21
4 3 4
4 5 0
4 12 7
4 1 9
4 11 10
4 15 6
4 8 14
2 0
2 2
2 4
2 6
2 7
2 9
2 10
2 14
5 1
5 3
5 5
5 8
5 11
5 12
5 13
5 15
END_STATE
END_LABELED_STATE
BEGIN_LABELED_STATE
3.0
BEGIN_STATE
4 13 2
3 6 24
3 10 17
3 0 16
3 2 18
3 15 19
3 9 20
3 4 23
3 7 22
3 14 21
4 3 4
4 5 0
4 1 6
4 12 7
4 11 15
4 8 14
2 0
2 2
2 4
2 6
2 7
2 9
2 10
2 14
2 15
5 1
5 3
5 5
5 8
5 9
5 10
5 11
5 12
5 13
END_STATE
END_LABELED_STATE
BEGIN_LABELED_STATE
2.0
BEGIN_STATE
4 13 2
3 6 24
3 10 17
3 0 16
3 2 18
3 15 19
3 9 20
3 4 23
3 7 22
3 14 21
4 3 4
4 5 0
4 1 6
4 12 7
4 11 9
4 8 14
2 0
2 2
2 4
2 6
2 7
2 9
2 10
2 14
2 15
5 1
5 3
5 5
5 8
5 10
5 11
5 12
5 13
5 15
END_STATE
END_LABELED_STATE
BEGIN_LABELED_STATE
1.0
BEGIN_STATE
4 13 2
3 6 24
3 10 17
3 0 16
3 2 18
3 15 19
3 9 20
3 4 23
3 7 22
3 14 21
4 3 4
4 1 10
4 5 0
4 12 7
4 11 9
4 8 14
2 0
2 2
2 4
2 6
2 7
2 9
2 10
2 14
2 15
5 1
5 3
5 5
5 6
5 8
5 11
5 12
5 13
5 15
END_STATE
END_LABELED_STATE
BEGIN_LABELED_STATE
0.0
BEGIN_STATE
4 13 2
3 6 24
3 10 17
3 0 16
3 2 18
6 19
3 9 20
3 4 23
3 7 22
3 14 21
4 3 4
4 1 10
4 5 0
4 12 7
4 11 9
4 15 6
4 8 14
2 0
2 2
2 4
2 6
2 7
2 9
2 10
2 14
5 1
5 3
5 5
5 8
5 11
5 12
5 13
5 15
END_STATE
END_LABELED_STATE
BEGIN_LABELED_STATE
3.0
BEGIN_STATE
4 13 2
3 6 24
3 10 17
3 0 16
3 2 18
3 15 19
3 9 20
3 4 23
3 7 22
3 14 21
4 3 4
4 5 0
4 1 6
4 12 7
4 11 9
4 8 15
2 0
2 2
2 4
2 6
2 7
2 9
2 10
2 14
2 15
5 1
5 3
5 5
5 8
5 10
5 11
5 12
5 13
5 14
END_STATE
END_LABELED_STATE
BEGIN_LABELED_STATE
3.0
BEGIN_STATE
4 13 2
3 6 24
3 10 17
3 0 16
3 2 18
3 15 19
3 9 20
3 4 23
3 7 22
3 14 21
4 3 4
4 5 0
4 1 6
4 11 9
4 12 14
4 8 15
2 0
2 2
2 4
2 6
2 7
2 9
2 10
2 14
2 15
5 1
5 3
5 5
5 7
5 8
5 10
5 11
5 12
5 13
END_STATE
END_LABELED_STATE
BEGIN_LABELED_STATE
2.0
BEGIN_STATE
4 13 2
3 6 24
3 10 17
3 0 16
3 2 18
3 15 19
3 9 20
3 4 23
3 7 22
3 14 21
4 3 4
4 5 0
4 1 6
4 11 9
4 12 14
4 8 7
2 0
2 2
2 4
2 6
2 7
2 9
2 10
2 14
2 15
5 1
5 3
5 5
5 8
5 10
5 11
5 12
5 13
5 15
END_STATE
END_LABELED_STATE
BEGIN_LABELED_STATE
1.0
BEGIN_STATE
4 13 2
3 6 24
3 10 17
3 0 16
3 2 18
3 15 19
3 9 20
3 4 23
3 7 22
3 14 21
4 3 4
4 1 10
4 5 0
4 11 9
4 12 14
4 8 7
2 0
2 2
2 4
2 6
2 7
2 9
2 10
2 14
2 15
5 1
5 3
5 5
5 6
5 8
5 11
5 12
5 13
5 15
END_STATE
END_LABELED_STATE
BEGIN_LABELED_STATE
0.0
BEGIN_STATE
4 13 2
3 6 24
3 10 17
3 0 16
3 2 18
6 19
3 9 20
3 4 23
3 7 22
3 14 21
4 3 4
4 1 10
4 5 0
4 11 9
4 12 14
4 15 6
4 8 7
2 0
2 2
2 4
2 6
2 7
2 9
2 10
2 14
5 1
5 3
5 5
5 8
5 11
5 12
5 13
5 15
END_STATE
END_LABELED_STATE
BEGIN_LABELED_STATE
3.0
BEGIN_STATE
4 13 2
3 6 24
3 10 17
3 0 16
3 2 18
3 15 19
3 9 20
3 4 23
3 7 22
3 14 21
4 3 4
4 5 0
4 1 6
4 11 9
4 8 7
2 0
2 2
2 4
2 6
2 7
2 9
2 10
2 14
2 15
4 12 15
5 1
5 3
5 5
5 8
5 10
5 11
5 12
5 13
5 14
END_STATE
END_LABELED_STATE
BEGIN_LABELED_STATE
2.0
BEGIN_STATE
4 13 2
3 6 24
3 10 17
3 0 16
3 2 18
3 15 19
3 9 20
3 4 23
3 7 22
3 14 21
4 3 4
4 5 0
4 1 6
4 11 9
4 8 7
2 0
2 2
2 4
2 6
2 7
2 9
2 10
2 14
2 15
4 12 10
5 1
5 3
5 5
5 8
5 11
5 12
5 13
5 14
5 15
END_STATE
END_LABELED_STATE
BEGIN_LABELED_STATE
1.0
BEGIN_STATE
4 13 2
3 6 24
3 10 17
3 0 16
3 2 18
3 15 19
3 9 20
3 4 23
3 7 22
3 14 21
4 3 4
4 5 0
4 11 9
4 8 7
2 0
2 2
2 4
2 6
2 7
2 9
2 10
2 14
2 15
4 1 14
4 12 10
5 1
5 3
5 5
5 6
5 8
5 11
5 12
5 13
5 15
END_STATE
END_LABELED_STATE
BEGIN_LABELED_STATE
0.0
BEGIN_STATE
4 13 2
3 6 24
3 10 17
3 0 16
3 2 18
6 19
3 9 20
3 4 23
3 7 22
3 14 21
4 3 4
4 5 0
4 11 9
4 15 6
4 8 7
2 0
2 2
2 4
2 6
2 7
2 9
2 10
2 14
4 1 14
4 12 10
5 1
5 3
5 5
5 8
5 11
5 12
5 13
5 15
END_STATE
END_LABELED_STATE
BEGIN_LABELED_STATE
3.0
BEGIN_STATE
4 13 2
3 6 24
3 10 17
3 0 16
3 2 18
3 15 19
3 9 20
3 4 23
3 7 22
3 14 21
4 3 4
4 5 0
4 1 6
4 11 9
4 8 15
2 0
2 2
2 4
2 6
2 7
2 9
2 10
2 14
2 15
4 12 10
5 1
5 3
5 5
5 7
5 8
5 11
5 12
5 13
5 14
END_STATE
END_LABELED_STATE
BEGIN_LABELED_STATE
2.0
BEGIN_STATE
4 13 2
3 6 24
3 10 17
3 0 16
3 2 18
3 15 19
3 9 20
3 4 23
3 7 22
3 14 21
4 3 4
4 5 0
4 1 6
4 11 9
4 8 14
2 0
2 2
2 4
2 6
2 7
2 9
2 10
2 14
2 15
4 12 10
5 1
5 3
5 5
5 7
5 8
5 11
5 12
5 13
5 15
END_STATE
END_LABELED_STATE
BEGIN_LABELED_STATE
1.0
BEGIN_STATE
4 13 2
3 6 24
3 10 17
3 0 16
3 2 18
3 15 19
3 9 20
3 4 23
3 7 22
3 14 21
4 3 4
4 5 0
4 11 9
4 1 7
4 8 14
2 0
2 2
2 4
2 6
2 7
2 9
2 10
2 14
2 15
4 12 10
5 1
5 3
5 5
5 6
5 8
5 11
5 12
5 13
5 15
END_STATE
END_LABELED_STATE
BEGIN_LABELED_STATE
0.0
BEGIN_STATE
4 13 2
3 6 24
3 10 17
3 0 16
3 2 18
6 19
3 9 20
3 4 23
3 7 22
3 14 21
4 3 4
4 5 0
4 11 9
4 1 7
4 15 6
4 8 14
2 0
2 2
2 4
2 6
2 7
2 9
2 10
2 14
4 12 10
5 1
5 3
5 5
5 8
5 11
5 12
5 13
5 15
END_STATE
END_LABELED_STATE
BEGIN_LABELED_STATE
3.0
BEGIN_STATE
4 13 2
3 6 24
3 10 17
3 0 16
3 2 18
3 15 19
3 9 20
3 4 23
3 7 22
3 14 21
4 3 4
4 5 0
4 1 6
4 11 9
4 8 14
2 0
2 2
2 4
2 6
2 7
2 9
2 10
2 14
2 15
4 12 15
5 1
5 3
5 5
5 7
5 8
5 10
5 11
5 12
5 13
END_STATE
END_LABELED_STATE
BEGIN_LABELED_STATE
3.0
BEGIN_STATE
4 13 2
3 6 24
3 10 17
3 0 16
3 2 18
3 15 19
3 9 20
3 4 23
3 7 22
3 14 21
4 3 4
4 5 0
4 1 6
4 11 10
4 8 14
2 0
2 2
2 4
2 6
2 7
2 9
2 10
2 14
2 15
4 12 15
5 1
5 3
5 5
5 7
5 8
5 9
5 11
5 12
5 13
END_STATE
END_LABELED_STATE
BEGIN_LABELED_STATE
2.0
BEGIN_STATE
4 13 2
3 6 24
3 10 17
3 0 16
3 2 18
3 15 19
3 9 20
3 4 23
3 7 22
3 14 21
4 3 4
4 5 0
4 1 6
4 12 9
4 11 10
4 8 14
2 0
2 2
2 4
2 6
2 7
2 9
2 10
2 14
2 15
5 1
5 3
5 5
5 7
5 8
5 11
5 12
5 13
5 15
END_STATE
END_LABELED_STATE
BEGIN_LABELED_STATE
1.0
BEGIN_STATE
4 13 2
3 6 24
3 10 17
3 0 16
3 2 18
3 15 19
3 9 20
3 4 23
3 7 22
3 14 21
4 3 4
4 5 0
4 12 9
4 1 7
4 11 10
4 8 14
2 0
2 2
2 4
2 6
2 7
2 9
2 10
2 14
2 15
5 1
5 3
5 5
5 6
5 8
5 11
5 12
5 13
5 15
END_STATE
END_LABELED_STATE
BEGIN_LABELED_STATE
0.0
BEGIN_STATE
4 13 2
3 6 24
3 10 17
3 0 16
3 2 18
6 19
3 9 20
3 4 23
3 7 22
3 14 21
4 3 4
4 5 0
4 12 9
4 1 7
4 11 10
4 15 6
4 8 14
2 0
2 2
2 4
2 6
2 7
2 9
2 10
2 14
5 1
5 3
5 5
5 8
5 11
5 12
5 13
5 15
END_STATE
END_LABELED_STATE
BEGIN_LABELED_STATE
3.0
BEGIN_STATE
4 13 2
3 6 24
3 10 17
3 0 16
3 2 18
3 15 19
3 9 20
3 4 23
3 7 22
3 14 21
4 3 4
4 5 0
4 1 6
4 12 9
4 11 10
4 8 15
2 0
2 2
2 4
2 6
2 7
2 9
2 10
2 14
2 15
5 1
5 3
5 5
5 7
5 8
5 11
5 12
5 13
5 14
END_STATE
END_LABELED_STATE
BEGIN_LABELED_STATE
2.0
BEGIN_STATE
4 13 2
3 6 24
3 10 17
3 0 16
3 2 18
3 15 19
3 9 20
3 4 23
3 7 22
3 14 21
4 3 4
4 5 0
4 1 6
4 12 9
4 11 10
4 8 7
2 0
2 2
2 4
2 6
2 7
2 9
2 10
2 14
2 15
5 1
5 3
5 5
5 8
5 11
5 12
5 13
5 14
5 15
END_STATE
END_LABELED_STATE
BEGIN_LABELED_STATE
1.0
BEGIN_STATE
4 13 2
3 6 24
3 10 17
3 0 16
3 2 18
3 15 19
3 9 20
3 4 23
3 7 22
3 14 21
4 3 4
4 5 0
4 12 9
4 11 10
4 8 7
2 0
2 2
2 4
2 6
2 7
2 9
2 10
2 14
2 15
4 1 14
5 1
5 3
5 5
5 6
5 8
5 11
5 12
5 13
5 15
END_STATE
END_LABELED_STATE
BEGIN_LABELED_STATE
0.0
BEGIN_STATE
4 13 2
3 6 24
3 10 17
3 0 16
3 2 18
6 19
3 9 20
3 4 23
3 7 22
3 14 21
4 3 4
4 5 0
4 12 9
4 11 10
4 15 6
4 8 7
2 0
2 2
2 4
2 6
2 7
2 9
2 10
2 14
4 1 14
5 1
5 3
5 5
5 8
5 11
5 12
5 13
5 15
END_STATE
END_LABELED_STATE
BEGIN_LABELED_STATE
3.0
BEGIN_STATE
4 13 2
3 6 24
3 10 17
3 0 16
3 2 18
3 15 19
3 9 20
3 4 23
3 7 22
3 14 21
4 3 4
4 5 0
4 1 6
4 12 9
4 11 15
4 8 7
2 0
2 2
2 4
2 6
2 7
2 9
2 10
2 14
2 15
5 1
5 3
5 5
5 8
5 10
5 11
5 12
5 13
5 14
END_STATE
END_LABELED_STATE
BEGIN_LABELED_STATE
2.0
BEGIN_STATE
4 13 2
3 6 24
3 10 17
3 0 16
3 2 18
3 15 19
3 9 20
3 4 23
3 7 22
3 14 21
4 3 4
4 5 0
4 1 6
4 12 9
4 11 14
4 8 7
2 0
2 2
2 4
2 6
2 7
2 9
2 10
2 14
2 15
5 1
5 3
5 5
5 8
5 10
5 11
5 12
5 13
5 15
END_STATE
END_LABELED_STATE
BEGIN_LABELED_STATE
1.0
BEGIN_STATE
4 13 2
3 6 24
3 10 17
3 0 16
3 2 18
3 15 19
3 9 20
3 4 23
3 7 22
3 14 21
4 3 4
4 1 10
4 5 0
4 12 9
4 11 14
4 8 7
2 0
2 2
2 4
2 6
2 7
2 9
2 10
2 14
2 15
5 1
5 3
5 5
5 6
5 8
5 11
5 12
5 13
5 15
END_STATE
END_LABELED_STATE
BEGIN_LABELED_STATE
0.0
BEGIN_STATE
4 13 2
3 6 24
3 10 17
3 0 16
3 2 18
6 19
3 9 20
3 4 23
3 7 22
3 14 21
4 3 4
4 1 10
4 5 0
4 12 9
4 11 14
4 15 6
4 8 7
2 0
2 2
2 4
2 6
2 7
2 9
2 10
2 14
5 1
5 3
5 5
5 8
5 11
5 12
5 13
5 15
END_STATE
END_LABELED_STATE
BEGIN_LABELED_STATE
3.0
BEGIN_STATE
4 13 2
3 6 24
3 10 17
3 0 16
3 2 18
3 15 19
3 9 20
3 4 23
3 7 22
3 14 21
4 3 4
4 5 0
4 1 6
4 12 9
4 11 14
4 8 15
2 0
2 2
2 4
2 6
2 7
2 9
2 10
2 14
2 15
5 1
5 3
5 5
5 7
5 8
5 10
5 11
5 12
5 13
END_STATE
END_LABELED_STATE
BEGIN_LABELED_STATE
3.0
BEGIN_STATE
4 13 2
3 6 24
3 10 17
3 0 16
3 2 18
3 15 19
3 9 20
3 4 23
3 7 22
3 14 21
4 3 4
4 5 0
4 1 6
4 11 14
4 8 15
2 0
2 2
2 4
2 6
2 7
2 9
2 10
2 14
2 15
4 12 10
5 1
5 3
5 5
5 7
5 8
5 9
5 11
5 12
5 13
END_STATE
END_LABELED_STATE
BEGIN_LABELED_STATE
2.0
BEGIN_STATE
4 13 2
3 6 24
3 10 17
3 0 16
3 2 18
3 15 19
3 9 20
3 4 23
3 7 22
3 14 21
4 3 4
4 5 0
4 1 6
4 11 14
4 8 7
2 0
2 2
2 4
2 6
2 7
2 9
2 10
2 14
2 15
4 12 10
5 1
5 3
5 5
5 8
5 9
5 11
5 12
5 13
5 15
END_STATE
END_LABELED_STATE
BEGIN_LABELED_STATE
1.0
BEGIN_STATE
4 13 2
3 6 24
3 10 17
3 0 16
3 2 18
3 15 19
3 9 20
3 4 23
3 7 22
3 14 21
4 3 4
4 5 0
4 1 9
4 11 14
4 8 7
2 0
2 2
2 4
2 6
2 7
2 9
2 10
2 14
2 15
4 12 10
5 1
5 3
5 5
5 6
5 8
5 11
5 12
5 13
5 15
END_STATE
END_LABELED_STATE
BEGIN_LABELED_STATE
0.0
BEGIN_STATE
4 13 2
3 6 24
3 10 17
3 0 16
3 2 18
6 19
3 9 20
3 4 23
3 7 22
3 14 21
4 3 4
4 5 0
4 1 9
4 11 14
4 15 6
4 8 7
2 0
2 2
2 4
2 6
2 7
2 9
2 10
2 14
4 12 10
5 1
5 3
5 5
5 8
5 11
5 12
5 13
5 15
END_STATE
END_LABELED_STATE
BEGIN_LABELED_STATE
2.0
BEGIN_STATE
4 13 2
3 6 24
3 10 17
3 0 16
3 2 18
3 15 19
3 9 20
3 4 23
3 7 22
3 14 21
4 3 4
4 5 0
4 1 6
4 8 9
4 11 14
2 0
2 2
2 4
2 6
2 7
2 9
2 10
2 14
2 15
4 12 10
5 1
5 3
5 5
5 7
5 8
5 11
5 12
5 13
5 15
END_STATE
END_LABELED_STATE
BEGIN_LABELED_STATE
1.0
BEGIN_STATE
4 13 2
3 6 24
3 10 17
3 0 16
3 2 18
3 15 19
3 9 20
3 4 23
3 7 22
3 14 21
4 3 4
4 5 0
4 8 9
4 1 7
4 11 14
2 0
2 2
2 4
2 6
2 7
2 9
2 10
2 14
2 15
4 12 10
5 1
5 3
5 5
5 6
5 8
5 11
5 12
5 13
5 15
END_STATE
END_LABELED_STATE
BEGIN_LABELED_STATE
0.0
BEGIN_STATE
4 13 2
3 6 24
3 10 17
3 0 16
3 2 18
6 19
3 9 20
3 4 23
3 7 22
3 14 21
4 3 4
4 5 0
4 8 9
4 1 7
4 11 14
4 15 6
2 0
2 2
2 4
2 6
2 7
2 9
2 10
2 14
4 12 10
5 1
5 3
5 5
5 8
5 11
5 12
5 13
5 15
END_STATE
END_LABELED_STATE
BEGIN_LABELED_STATE
3.0
BEGIN_STATE
4 13 2
3 6 24
3 10 17
3 0 16
3 2 18
3 15 19
3 9 20
3 4 23
3 7 22
3 14 21
4 3 4
4 5 0
4 1 6
4 8 9
4 11 14
2 0
2 2
2 4
2 6
2 7
2 9
2 10
2 14
2 15
4 12 15
5 1
5 3
5 5
5 7
5 8
5 10
5 11
5 12
5 13
END_STATE
END_LABELED_STATE
BEGIN_LABELED_STATE
3.0
BEGIN_STATE
4 13 2
3 6 24
3 10 17
3 0 16
3 2 18
3 15 19
3 9 20
3 4 23
3 7 22
3 14 21
4 3 4
4 5 0
4 1 6
4 11 14
4 8 7
2 0
2 2
2 4
2 6
2 7
2 9
2 10
2 14
2 15
4 12 15
5 1
5 3
5 5
5 8
5 9
5 10
5 11
5 12
5 13
END_STATE
END_LABELED_STATE
BEGIN_LABELED_STATE
3.0
BEGIN_STATE
4 13 2
3 6 24
3 10 17
3 0 16
3 2 18
3 15 19
3 9 20
3 4 23
3 7 22
3 14 21
4 3 4
4 5 0
4 1 6
4 11 15
4 8 7
2 0
2 2
2 4
2 6
2 7
2 9
2 10
2 14
2 15
4 12 10
5 1
5 3
5 5
5 8
5 9
5 11
5 12
5 13
5 14
END_STATE
END_LABELED_STATE
BEGIN_LABELED_STATE
3.0
BEGIN_STATE
4 13 2
3 6 24
3 10 17
3 0 16
3 2 18
3 15 19
3 9 20
3 4 23
3 7 22
3 14 21
4 3 4
4 5 0
4 1 6
4 12 14
4 11 15
4 8 7
2 0
2 2
2 4
2 6
2 7
2 9
2 10
2 14
2 15
5 1
5 3
5 5
5 8
5 9
5 10
5 11
5 12
5 13
END_STATE
END_LABELED_STATE
BEGIN_LABELED_STATE
2.0
BEGIN_STATE
4 13 2
3 6 24
3 10 17
3 0 16
3 2 18
3 15 19
3 9 20
3 4 23
3 7 22
3 14 21
4 3 4
4 5 0
4 1 6
4 12 14
4 11 10
4 8 7
2 0
2 2
2 4
2 6
2 7
2 9
2 10
2 14
2 15
5 1
5 3
5 5
5 8
5 9
5 11
5 12
5 13
5 15
END_STATE
END_LABELED_STATE
BEGIN_LABELED_STATE
1.0
BEGIN_STATE
4 13 2
3 6 24
3 10 17
3 0 16
3 2 18
3 15 19
3 9 20
3 4 23
3 7 22
3 14 21
4 3 4
4 5 0
4 1 9
4 12 14
4 11 10
4 8 7
2 0
2 2
2 4
2 6
2 7
2 9
2 10
2 14
2 15
5 1
5 3
5 5
5 6
5 8
5 11
5 12
5 13
5 15
END_STATE
END_LABELED_STATE
BEGIN_LABELED_STATE
0.0
BEGIN_STATE
4 13 2
3 6 24
3 10 17
3 0 16
3 2 18
6 19
3 9 20
3 4 23
3 7 22
3 14 21
4 3 4
4 5 0
4 1 9
4 12 14
4 11 10
4 15 6
4 8 7
2 0
2 2
2 4
2 6
2 7
2 9
2 10
2 14
5 1
5 3
5 5
5 8
5 11
5 12
5 13
5 15
END_STATE
END_LABELED_STATE
BEGIN_LABELED_STATE
3.0
BEGIN_STATE
4 13 2
3 6 24
3 10 17
3 0 16
3 2 18
3 15 19
3 9 20
3 4 23
3 7 22
3 14 21
4 3 4
4 5 0
4 1 6
4 12 14
4 11 10
4 8 15
2 0
2 2
2 4
2 6
2 7
2 9
2 10
2 14
2 15
5 1
5 3
5 5
5 7
5 8
5 9
5 11
5 12
5 13
END_STATE
END_LABELED_STATE
BEGIN_LABELED_STATE
2.0
BEGIN_STATE
4 13 2
3 6 24
3 10 17
3 0 16
3 2 18
3 15 19
3 9 20
3 4 23
3 7 22
3 14 21
4 3 4
4 5 0
4 1 9
4 12 14
4 11 10
4 8 15
2 0
2 2
2 4
2 6
2 7
2 9
2 10
2 14
2 15
5 1
5 3
5 5
5 6
5 7
5 8
5 11
5 12
5 13
END_STATE
END_LABELED_STATE
BEGIN_LABELED_STATE
2.0
BEGIN_STATE
4 13 2
3 6 24
3 10 17
3 0 16
3 2 18
3 15 19
3 9 20
3 4 23
3 7 22
3 14 21
4 3 4
4 5 0
4 1 9
4 12 14
4 11 10
4 8 6
2 0
2 2
2 4
2 6
2 7
2 9
2 10
2 14
2 15
5 1
5 3
5 5
5 7
5 8
5 11
5 12
5 13
5 15
END_STATE
END_LABELED_STATE
BEGIN_LABELED_STATE
3.0
BEGIN_STATE
4 13 2
3 6 24
3 10 17
3 0 16
3 2 18
3 15 19
3 9 20
3 4 23
3 7 22
3 14 21
4 3 4
4 5 0
4 1 9
4 12 14
4 11 15
4 8 6
2 0
2 2
2 4
2 6
2 7
2 9
2 10
2 14
2 15
5 1
5 3
5 5
5 7
5 8
5 10
5 11
5 12
5 13
END_STATE
END_LABELED_STATE
BEGIN_LABELED_STATE
2.0
BEGIN_STATE
4 13 2
3 6 24
3 10 17
3 0 16
3 2 18
3 15 19
3 9 20
3 4 23
3 7 22
3 14 21
4 3 4
4 5 0
4 1 9
4 12 14
4 11 15
4 8 7
2 0
2 2
2 4
2 6
2 7
2 9
2 10
2 14
2 15
5 1
5 3
5 5
5 6
5 8
5 10
5 11
5 12
5 13
END_STATE
END_LABELED_STATE
BEGIN_LABELED_STATE
2.0
BEGIN_STATE
4 13 2
3 6 24
3 10 17
3 0 16
3 2 18
3 15 19
3 9 20
3 4 23
3 7 22
3 14 21
4 3 4
4 5 0
4 8 10
4 1 9
4 12 14
4 11 15
2 0
2 2
2 4
2 6
2 7
2 9
2 10
2 14
2 15
5 1
5 3
5 5
5 6
5 7
5 8
5 11
5 12
5 13
END_STATE
END_LABELED_STATE
BEGIN_LABELED_STATE
2.0
BEGIN_STATE
4 13 2
3 6 24
3 10 17
3 0 16
3 2 18
3 15 19
3 9 20
3 4 23
3 7 22
3 14 21
4 3 4
4 5 0
4 11 7
4 8 10
4 1 9
2 0
2 2
2 4
2 6
2 7
2 9
2 10
2 14
2 15
4 12 15
5 1
5 3
5 5
5 6
5 8
5 11
5 12
5 13
5 14
END_STATE
END_LABELED_STATE
BEGIN_LABELED_STATE
2.0
BEGIN_STATE
4 13 2
3 6 24
3 10 17
3 0 16
3 2 18
3 15 19
3 9 20
3 4 23
3 7 22
3 14 21
4 3 4
4 5 0
4 11 7
4 1 9
4 8 14
2 0
2 2
2 4
2 6
2 7
2 9
2 10
2 14
2 15
4 12 15
5 1
5 3
5 5
5 6
5 8
5 10
5 11
5 12
5 13
END_STATE
END_LABELED_STATE
BEGIN_LABELED_STATE
2.0
BEGIN_STATE
4 13 2
3 6 24
3 10 17
3 0 16
3 2 18
3 15 19
3 9 20
3 4 23
3 7 22
3 14 21
4 3 4
4 5 0
4 11 7
4 12 6
4 1 9
4 8 14
2 0
2 2
2 4
2 6
2 7
2 9
2 10
2 14
2 15
5 1
5 3
5 5
5 8
5 10
5 11
5 12
5 13
5 15
END_STATE
END_LABELED_STATE
BEGIN_LABELED_STATE
3.0
BEGIN_STATE
4 13 2
3 6 24
3 10 17
3 0 16
3 2 18
3 15 19
3 9 20
3 4 23
3 7 22
3 14 21
4 3 4
4 5 0
4 11 7
4 12 6
4 1 9
4 8 15
2 0
2 2
2 4
2 6
2 7
2 9
2 10
2 14
2 15
5 1
5 3
5 5
5 8
5 10
5 11
5 12
5 13
5 14
END_STATE
END_LABELED_STATE
BEGIN_LABELED_STATE
3.0
BEGIN_STATE
4 13 2
3 6 24
3 10 17
3 0 16
3 2 18
3 15 19
3 9 20
3 4 23
3 7 22
3 14 21
4 3 4
4 5 0
4 11 7
4 12 6
4 8 15
2 0
2 2
2 4
2 6
2 7
2 9
2 10
2 14
2 15
4 1 14
5 1
5 3
5 5
5 8
5 9
5 10
5 11
5 12
5 13
END_STATE
END_LABELED_STATE
BEGIN_LABELED_STATE
2.0
BEGIN_STATE
4 13 2
3 6 24
3 10 17
3 0 16
3 2 18
3 15 19
3 9 20
3 4 23
3 7 22
3 14 21
4 3 4
4 5 0
4 11 7
4 12 6
4 8 9
2 0
2 2
2 4
2 6
2 7
2 9
2 10
2 14
2 15
4 1 14
5 1
5 3
5 5
5 8
5 10
5 11
5 12
5 13
5 15
END_STATE
END_LABELED_STATE
BEGIN_LABELED_STATE
3.0
BEGIN_STATE
4 13 2
3 6 24
3 10 17
3 0 16
3 2 18
3 15 19
3 9 20
3 4 23
3 7 22
3 14 21
4 3 4
4 1 10
4 5 0
4 11 7
4 12 6
4 8 15
2 0
2 2
2 4
2 6
2 7
2 9
2 10
2 14
2 15
5 1
5 3
5 5
5 8
5 9
5 11
5 12
5 13
5 14
END_STATE
END_LABELED_STATE
BEGIN_LABELED_STATE
2.0
BEGIN_STATE
4 13 2
3 6 24
3 10 17
3 0 16
3 2 18
3 15 19
3 9 20
3 4 23
3 7 22
3 14 21
4 3 4
4 1 10
4 5 0
4 11 7
4 12 6
4 8 9
2 0
2 2
2 4
2 6
2 7
2 9
2 10
2 14
2 15
5 1
5 3
5 5
5 8
5 11
5 12
5 13
5 14
5 15
END_STATE
END_LABELED_STATE
BEGIN_LABELED_STATE
2.0
BEGIN_STATE
4 13 2
3 6 24
3 10 17
3 0 16
3 2 18
3 15 19
3 9 20
3 4 23
3 7 22
3 14 21
4 3 4
4 1 10
4 5 0
4 11 7
4 12 6
4 8 14
2 0
2 2
2 4
2 6
2 7
2 9
2 10
2 14
2 15
5 1
5 3
5 5
5 8
5 9
5 11
5 12
5 13
5 15
END_STATE
END_LABELED_STATE
BEGIN_LABELED_STATE
2.0
BEGIN_STATE
4 13 2
3 6 24
3 10 17
3 0 16
3 2 18
3 15 19
3 9 20
3 4 23
3 7 22
3 14 21
4 3 4
4 1 10
4 5 0
4 11 7
4 8 9
2 0
2 2
2 4
2 6
2 7
2 9
2 10
2 14
2 15
4 12 15
5 1
5 3
5 5
5 6
5 8
5 11
5 12
5 13
5 14
END_STATE
END_LABELED_STATE
END_STATE_LIST
