BEGIN_OBJECTS
0 a
1 d
2 c
3 e
4 b
END_OBJECTS
BEGIN_PREDICATES
0 on
1 ontable
2 clear
3 handempty
4 holding
END_PREDICATES
BEGIN_PREDICATE_ARITY_TUPLES
0 2
1 1
2 1
3 0
4 1
END_PREDICATE_PREDICATE_ARITY_TUPLES
BEGIN_FACT_LIST
END_FACT_LIST
BEGIN_GOAL_LIST
0 0 4
END_GOAL_LIST
BEGIN_STATE_LIST
BEGIN_LABELED_STATE
4.0
BEGIN_STATE
3
0 0 1
0 4 0
1 1
1 2
1 3
2 2
2 3
2 4
END_STATE
END_LABELED_STATE
BEGIN_LABELED_STATE
3.0
BEGIN_STATE
4 4
0 0 1
1 1
1 2
1 3
2 0
2 2
2 3
END_STATE
END_LABELED_STATE
BEGIN_LABELED_STATE
2.0
BEGIN_STATE
3
0 0 1
1 1
1 2
1 3
1 4
2 0
2 2
2 3
2 4
END_STATE
END_LABELED_STATE
BEGIN_LABELED_STATE
1.0
BEGIN_STATE
4 0
1 1
1 2
1 3
1 4
2 1
2 2
2 3
2 4
END_STATE
END_LABELED_STATE
BEGIN_LABELED_STATE
0.0
BEGIN_STATE
3
0 0 4
1 1
1 2
1 3
1 4
2 0
2 1
2 2
2 3
END_STATE
END_LABELED_STATE
BEGIN_LABELED_STATE
5.0
BEGIN_STATE
4 3
0 0 1
0 4 0
1 1
1 2
2 2
2 4
END_STATE
END_LABELED_STATE
BEGIN_LABELED_STATE
4.0
BEGIN_STATE
3
0 0 1
0 3 2
0 4 0
1 1
1 2
2 3
2 4
END_STATE
END_LABELED_STATE
BEGIN_LABELED_STATE
3.0
BEGIN_STATE
4 4
0 0 1
0 3 2
1 1
1 2
2 0
2 3
END_STATE
END_LABELED_STATE
BEGIN_LABELED_STATE
2.0
BEGIN_STATE
3
0 0 1
0 3 2
1 1
1 2
1 4
2 0
2 3
2 4
END_STATE
END_LABELED_STATE
BEGIN_LABELED_STATE
1.0
BEGIN_STATE
4 0
0 3 2
1 1
1 2
1 4
2 1
2 3
2 4
END_STATE
END_LABELED_STATE
BEGIN_LABELED_STATE
0.0
BEGIN_STATE
3
0 0 4
0 3 2
1 1
1 2
1 4
2 0
2 1
2 3
END_STATE
END_LABELED_STATE
BEGIN_LABELED_STATE
6.0
BEGIN_STATE
3
0 0 1
0 3 4
0 4 0
1 1
1 2
2 2
2 3
END_STATE
END_LABELED_STATE
BEGIN_LABELED_STATE
7.0
BEGIN_STATE
4 2
0 0 1
0 3 4
0 4 0
1 1
2 3
END_STATE
END_LABELED_STATE
BEGIN_LABELED_STATE
8.0
BEGIN_STATE
3
0 0 1
0 2 3
0 3 4
0 4 0
1 1
2 2
END_STATE
END_LABELED_STATE
BEGIN_LABELED_STATE
3.0
BEGIN_STATE
4 3
0 0 1
1 1
1 2
1 4
2 0
2 2
2 4
END_STATE
END_LABELED_STATE
BEGIN_LABELED_STATE
2.0
BEGIN_STATE
3
0 0 1
0 4 3
1 1
1 2
1 3
2 0
2 2
2 4
END_STATE
END_LABELED_STATE
BEGIN_LABELED_STATE
1.0
BEGIN_STATE
4 0
0 4 3
1 1
1 2
1 3
2 1
2 2
2 4
END_STATE
END_LABELED_STATE
BEGIN_LABELED_STATE
0.0
BEGIN_STATE
3
0 0 4
0 4 3
1 1
1 2
1 3
2 0
2 1
2 2
END_STATE
END_LABELED_STATE
BEGIN_LABELED_STATE
3.0
BEGIN_STATE
4 2
0 0 1
0 4 3
1 1
1 3
2 0
2 4
END_STATE
END_LABELED_STATE
BEGIN_LABELED_STATE
4.0
BEGIN_STATE
3
0 0 1
0 2 4
0 4 3
1 1
1 3
2 0
2 2
END_STATE
END_LABELED_STATE
BEGIN_LABELED_STATE
5.0
BEGIN_STATE
4 0
0 2 4
0 4 3
1 1
1 3
2 1
2 2
END_STATE
END_LABELED_STATE
BEGIN_LABELED_STATE
4.0
BEGIN_STATE
3
0 2 4
0 4 3
1 0
1 1
1 3
2 0
2 1
2 2
END_STATE
END_LABELED_STATE
BEGIN_LABELED_STATE
3.0
BEGIN_STATE
4 2
0 4 3
1 0
1 1
1 3
2 0
2 1
2 4
END_STATE
END_LABELED_STATE
BEGIN_LABELED_STATE
2.0
BEGIN_STATE
3
0 4 3
1 0
1 1
1 2
1 3
2 0
2 1
2 2
2 4
END_STATE
END_LABELED_STATE
BEGIN_LABELED_STATE
5.0
BEGIN_STATE
4 1
0 2 4
0 4 3
1 0
1 3
2 0
2 2
END_STATE
END_LABELED_STATE
BEGIN_LABELED_STATE
6.0
BEGIN_STATE
3
0 1 2
0 2 4
0 4 3
1 0
1 3
2 0
2 1
END_STATE
END_LABELED_STATE
BEGIN_LABELED_STATE
7.0
BEGIN_STATE
4 0
0 1 2
0 2 4
0 4 3
1 3
2 1
END_STATE
END_LABELED_STATE
BEGIN_LABELED_STATE
8.0
BEGIN_STATE
3
0 0 1
0 1 2
0 2 4
0 4 3
1 3
2 0
END_STATE
END_LABELED_STATE
BEGIN_LABELED_STATE
6.0
BEGIN_STATE
3
0 1 0
0 2 4
0 4 3
1 0
1 3
2 1
2 2
END_STATE
END_LABELED_STATE
BEGIN_LABELED_STATE
5.0
BEGIN_STATE
4 2
0 1 0
0 4 3
1 0
1 3
2 1
2 4
END_STATE
END_LABELED_STATE
BEGIN_LABELED_STATE
4.0
BEGIN_STATE
3
0 1 0
0 4 3
1 0
1 2
1 3
2 1
2 2
2 4
END_STATE
END_LABELED_STATE
BEGIN_LABELED_STATE
3.0
BEGIN_STATE
4 1
0 4 3
1 0
1 2
1 3
2 0
2 2
2 4
END_STATE
END_LABELED_STATE
BEGIN_LABELED_STATE
5.0
BEGIN_STATE
4 4
0 1 0
1 0
1 2
1 3
2 1
2 2
2 3
END_STATE
END_LABELED_STATE
BEGIN_LABELED_STATE
4.0
BEGIN_STATE
3
0 1 0
0 4 2
1 0
1 2
1 3
2 1
2 3
2 4
END_STATE
END_LABELED_STATE
BEGIN_LABELED_STATE
3.0
BEGIN_STATE
4 1
0 4 2
1 0
1 2
1 3
2 0
2 3
2 4
END_STATE
END_LABELED_STATE
BEGIN_LABELED_STATE
2.0
BEGIN_STATE
3
0 4 2
1 0
1 1
1 2
1 3
2 0
2 1
2 3
2 4
END_STATE
END_LABELED_STATE
BEGIN_LABELED_STATE
1.0
BEGIN_STATE
4 0
0 4 2
1 1
1 2
1 3
2 1
2 3
2 4
END_STATE
END_LABELED_STATE
BEGIN_LABELED_STATE
0.0
BEGIN_STATE
3
0 0 4
0 4 2
1 1
1 2
1 3
2 0
2 1
2 3
END_STATE
END_LABELED_STATE
BEGIN_LABELED_STATE
4.0
BEGIN_STATE
3
0 1 0
1 0
1 2
1 3
1 4
2 1
2 2
2 3
2 4
END_STATE
END_LABELED_STATE
BEGIN_LABELED_STATE
3.0
BEGIN_STATE
4 1
1 0
1 2
1 3
1 4
2 0
2 2
2 3
2 4
END_STATE
END_LABELED_STATE
BEGIN_LABELED_STATE
2.0
BEGIN_STATE
3
1 0
1 1
1 2
1 3
1 4
2 0
2 1
2 2
2 3
2 4
END_STATE
END_LABELED_STATE
BEGIN_LABELED_STATE
5.0
BEGIN_STATE
4 3
0 1 0
1 0
1 2
1 4
2 1
2 2
2 4
END_STATE
END_LABELED_STATE
BEGIN_LABELED_STATE
4.0
BEGIN_STATE
3
0 1 0
0 3 2
1 0
1 2
1 4
2 1
2 3
2 4
END_STATE
END_LABELED_STATE
BEGIN_LABELED_STATE
3.0
BEGIN_STATE
4 1
0 3 2
1 0
1 2
1 4
2 0
2 3
2 4
END_STATE
END_LABELED_STATE
BEGIN_LABELED_STATE
2.0
BEGIN_STATE
3
0 3 2
1 0
1 1
1 2
1 4
2 0
2 1
2 3
2 4
END_STATE
END_LABELED_STATE
BEGIN_LABELED_STATE
6.0
BEGIN_STATE
3
0 1 0
0 3 4
1 0
1 2
1 4
2 1
2 2
2 3
END_STATE
END_LABELED_STATE
BEGIN_LABELED_STATE
7.0
BEGIN_STATE
4 2
0 1 0
0 3 4
1 0
1 4
2 1
2 3
END_STATE
END_LABELED_STATE
BEGIN_LABELED_STATE
8.0
BEGIN_STATE
3
0 1 0
0 2 3
0 3 4
1 0
1 4
2 1
2 2
END_STATE
END_LABELED_STATE
BEGIN_LABELED_STATE
7.0
BEGIN_STATE
4 1
0 2 3
0 3 4
1 0
1 4
2 0
2 2
END_STATE
END_LABELED_STATE
BEGIN_LABELED_STATE
6.0
BEGIN_STATE
3
0 2 3
0 3 4
1 0
1 1
1 4
2 0
2 1
2 2
END_STATE
END_LABELED_STATE
BEGIN_LABELED_STATE
5.0
BEGIN_STATE
4 2
0 3 4
1 0
1 1
1 4
2 0
2 1
2 3
END_STATE
END_LABELED_STATE
BEGIN_LABELED_STATE
4.0
BEGIN_STATE
3
0 2 1
0 3 4
1 0
1 1
1 4
2 0
2 2
2 3
END_STATE
END_LABELED_STATE
BEGIN_LABELED_STATE
3.0
BEGIN_STATE
4 3
0 2 1
1 0
1 1
1 4
2 0
2 2
2 4
END_STATE
END_LABELED_STATE
BEGIN_LABELED_STATE
2.0
BEGIN_STATE
3
0 2 1
1 0
1 1
1 3
1 4
2 0
2 2
2 3
2 4
END_STATE
END_LABELED_STATE
BEGIN_LABELED_STATE
1.0
BEGIN_STATE
4 0
0 2 1
1 1
1 3
1 4
2 2
2 3
2 4
END_STATE
END_LABELED_STATE
BEGIN_LABELED_STATE
0.0
BEGIN_STATE
3
0 0 4
0 2 1
1 1
1 3
1 4
2 0
2 2
2 3
END_STATE
END_LABELED_STATE
BEGIN_LABELED_STATE
7.0
BEGIN_STATE
4 0
0 2 3
0 3 4
1 1
1 4
2 1
2 2
END_STATE
END_LABELED_STATE
BEGIN_LABELED_STATE
8.0
BEGIN_STATE
3
0 0 2
0 2 3
0 3 4
1 1
1 4
2 0
2 1
END_STATE
END_LABELED_STATE
BEGIN_LABELED_STATE
9.0
BEGIN_STATE
4 1
0 0 2
0 2 3
0 3 4
1 4
2 0
END_STATE
END_LABELED_STATE
BEGIN_LABELED_STATE
10.0
BEGIN_STATE
3
0 0 2
0 1 0
0 2 3
0 3 4
1 4
2 1
END_STATE
END_LABELED_STATE
BEGIN_LABELED_STATE
6.0
BEGIN_STATE
3
0 0 1
0 2 3
0 3 4
1 1
1 4
2 0
2 2
END_STATE
END_LABELED_STATE
BEGIN_LABELED_STATE
5.0
BEGIN_STATE
4 2
0 0 1
0 3 4
1 1
1 4
2 0
2 3
END_STATE
END_LABELED_STATE
BEGIN_LABELED_STATE
4.0
BEGIN_STATE
3
0 0 1
0 3 4
1 1
1 2
1 4
2 0
2 2
2 3
END_STATE
END_LABELED_STATE
BEGIN_LABELED_STATE
5.0
BEGIN_STATE
4 0
0 3 4
1 1
1 2
1 4
2 1
2 2
2 3
END_STATE
END_LABELED_STATE
BEGIN_LABELED_STATE
4.0
BEGIN_STATE
3
0 3 4
1 0
1 1
1 2
1 4
2 0
2 1
2 2
2 3
END_STATE
END_LABELED_STATE
BEGIN_LABELED_STATE
3.0
BEGIN_STATE
4 3
1 0
1 1
1 2
1 4
2 0
2 1
2 2
2 4
END_STATE
END_LABELED_STATE
BEGIN_LABELED_STATE
5.0
BEGIN_STATE
4 0
0 2 1
0 3 4
1 1
1 4
2 2
2 3
END_STATE
END_LABELED_STATE
BEGIN_LABELED_STATE
4.0
BEGIN_STATE
3
0 0 2
0 2 1
0 3 4
1 1
1 4
2 0
2 3
END_STATE
END_LABELED_STATE
BEGIN_LABELED_STATE
3.0
BEGIN_STATE
4 3
0 0 2
0 2 1
1 1
1 4
2 0
2 4
END_STATE
END_LABELED_STATE
BEGIN_LABELED_STATE
2.0
BEGIN_STATE
3
0 0 2
0 2 1
1 1
1 3
1 4
2 0
2 3
2 4
END_STATE
END_LABELED_STATE
BEGIN_LABELED_STATE
6.0
BEGIN_STATE
3
0 0 3
0 2 1
0 3 4
1 1
1 4
2 0
2 2
END_STATE
END_LABELED_STATE
BEGIN_LABELED_STATE
7.0
BEGIN_STATE
4 2
0 0 3
0 3 4
1 1
1 4
2 0
2 1
END_STATE
END_LABELED_STATE
BEGIN_LABELED_STATE
6.0
BEGIN_STATE
3
0 0 3
0 3 4
1 1
1 2
1 4
2 0
2 1
2 2
END_STATE
END_LABELED_STATE
BEGIN_LABELED_STATE
7.0
BEGIN_STATE
4 1
0 0 3
0 3 4
1 2
1 4
2 0
2 2
END_STATE
END_LABELED_STATE
BEGIN_LABELED_STATE
6.0
BEGIN_STATE
3
0 0 3
0 1 2
0 3 4
1 2
1 4
2 0
2 1
END_STATE
END_LABELED_STATE
BEGIN_LABELED_STATE
5.0
BEGIN_STATE
4 0
0 1 2
0 3 4
1 2
1 4
2 1
2 3
END_STATE
END_LABELED_STATE
BEGIN_LABELED_STATE
4.0
BEGIN_STATE
3
0 0 1
0 1 2
0 3 4
1 2
1 4
2 0
2 3
END_STATE
END_LABELED_STATE
BEGIN_LABELED_STATE
3.0
BEGIN_STATE
4 3
0 0 1
0 1 2
1 2
1 4
2 0
2 4
END_STATE
END_LABELED_STATE
BEGIN_LABELED_STATE
2.0
BEGIN_STATE
3
0 0 1
0 1 2
1 2
1 3
1 4
2 0
2 3
2 4
END_STATE
END_LABELED_STATE
BEGIN_LABELED_STATE
1.0
BEGIN_STATE
4 0
0 1 2
1 2
1 3
1 4
2 1
2 3
2 4
END_STATE
END_LABELED_STATE
BEGIN_LABELED_STATE
0.0
BEGIN_STATE
3
0 0 4
0 1 2
1 2
1 3
1 4
2 0
2 1
2 3
END_STATE
END_LABELED_STATE
BEGIN_LABELED_STATE
4.0
BEGIN_STATE
3
0 1 2
0 3 4
1 0
1 2
1 4
2 0
2 1
2 3
END_STATE
END_LABELED_STATE
BEGIN_LABELED_STATE
3.0
BEGIN_STATE
4 3
0 1 2
1 0
1 2
1 4
2 0
2 1
2 4
END_STATE
END_LABELED_STATE
BEGIN_LABELED_STATE
2.0
BEGIN_STATE
3
0 1 2
1 0
1 2
1 3
1 4
2 0
2 1
2 3
2 4
END_STATE
END_LABELED_STATE
BEGIN_LABELED_STATE
3.0
BEGIN_STATE
4 4
0 1 2
1 0
1 2
1 3
2 0
2 1
2 3
END_STATE
END_LABELED_STATE
BEGIN_LABELED_STATE
2.0
BEGIN_STATE
3
0 1 2
0 4 3
1 0
1 2
1 3
2 0
2 1
2 4
END_STATE
END_LABELED_STATE
BEGIN_LABELED_STATE
1.0
BEGIN_STATE
4 0
0 1 2
0 4 3
1 2
1 3
2 1
2 4
END_STATE
END_LABELED_STATE
BEGIN_LABELED_STATE
0.0
BEGIN_STATE
3
0 0 4
0 1 2
0 4 3
1 2
1 3
2 0
2 1
END_STATE
END_LABELED_STATE
BEGIN_LABELED_STATE
0.0
BEGIN_STATE
4 1
0 0 4
0 4 3
1 2
1 3
2 0
2 2
END_STATE
END_LABELED_STATE
BEGIN_LABELED_STATE
0.0
BEGIN_STATE
4 2
0 0 4
0 4 3
1 1
1 3
2 0
2 1
END_STATE
END_LABELED_STATE
BEGIN_LABELED_STATE
0.0
BEGIN_STATE
3
0 0 4
0 2 1
0 4 3
1 1
1 3
2 0
2 2
END_STATE
END_LABELED_STATE
BEGIN_LABELED_STATE
1.0
BEGIN_STATE
4 0
0 2 1
0 4 3
1 1
1 3
2 2
2 4
END_STATE
END_LABELED_STATE
BEGIN_LABELED_STATE
2.0
BEGIN_STATE
3
0 2 1
0 4 3
1 0
1 1
1 3
2 0
2 2
2 4
END_STATE
END_LABELED_STATE
BEGIN_LABELED_STATE
3.0
BEGIN_STATE
4 4
0 2 1
1 0
1 1
1 3
2 0
2 2
2 3
END_STATE
END_LABELED_STATE
BEGIN_LABELED_STATE
2.0
BEGIN_STATE
3
0 2 1
0 3 2
1 0
1 1
1 4
2 0
2 3
2 4
END_STATE
END_LABELED_STATE
BEGIN_LABELED_STATE
1.0
BEGIN_STATE
4 0
0 2 1
0 3 2
1 1
1 4
2 3
2 4
END_STATE
END_LABELED_STATE
BEGIN_LABELED_STATE
0.0
BEGIN_STATE
3
0 0 4
0 2 1
0 3 2
1 1
1 4
2 0
2 3
END_STATE
END_LABELED_STATE
BEGIN_LABELED_STATE
3.0
BEGIN_STATE
4 4
0 2 1
0 3 2
1 0
1 1
2 0
2 3
END_STATE
END_LABELED_STATE
BEGIN_LABELED_STATE
2.0
BEGIN_STATE
3
0 2 1
0 3 2
0 4 3
1 0
1 1
2 0
2 4
END_STATE
END_LABELED_STATE
BEGIN_LABELED_STATE
1.0
BEGIN_STATE
4 0
0 2 1
0 3 2
0 4 3
1 1
2 4
END_STATE
END_LABELED_STATE
BEGIN_LABELED_STATE
0.0
BEGIN_STATE
3
0 0 4
0 2 1
0 3 2
0 4 3
1 1
2 0
END_STATE
END_LABELED_STATE
BEGIN_LABELED_STATE
4.0
BEGIN_STATE
3
0 2 1
0 3 2
0 4 0
1 0
1 1
2 3
2 4
END_STATE
END_LABELED_STATE
BEGIN_LABELED_STATE
5.0
BEGIN_STATE
4 3
0 2 1
0 4 0
1 0
1 1
2 2
2 4
END_STATE
END_LABELED_STATE
BEGIN_LABELED_STATE
4.0
BEGIN_STATE
3
0 2 1
0 4 0
1 0
1 1
1 3
2 2
2 3
2 4
END_STATE
END_LABELED_STATE
BEGIN_LABELED_STATE
5.0
BEGIN_STATE
4 2
0 4 0
1 0
1 1
1 3
2 1
2 3
2 4
END_STATE
END_LABELED_STATE
BEGIN_LABELED_STATE
4.0
BEGIN_STATE
3
0 4 0
1 0
1 1
1 2
1 3
2 1
2 2
2 3
2 4
END_STATE
END_LABELED_STATE
BEGIN_LABELED_STATE
3.0
BEGIN_STATE
4 4
1 0
1 1
1 2
1 3
2 0
2 1
2 2
2 3
END_STATE
END_LABELED_STATE
BEGIN_LABELED_STATE
5.0
BEGIN_STATE
4 3
0 4 0
1 0
1 1
1 2
2 1
2 2
2 4
END_STATE
END_LABELED_STATE
BEGIN_LABELED_STATE
4.0
BEGIN_STATE
3
0 3 1
0 4 0
1 0
1 1
1 2
2 2
2 3
2 4
END_STATE
END_LABELED_STATE
BEGIN_LABELED_STATE
3.0
BEGIN_STATE
4 4
0 3 1
1 0
1 1
1 2
2 0
2 2
2 3
END_STATE
END_LABELED_STATE
BEGIN_LABELED_STATE
2.0
BEGIN_STATE
3
0 3 1
1 0
1 1
1 2
1 4
2 0
2 2
2 3
2 4
END_STATE
END_LABELED_STATE
BEGIN_LABELED_STATE
1.0
BEGIN_STATE
4 0
0 3 1
1 1
1 2
1 4
2 2
2 3
2 4
END_STATE
END_LABELED_STATE
BEGIN_LABELED_STATE
0.0
BEGIN_STATE
3
0 0 4
0 3 1
1 1
1 2
1 4
2 0
2 2
2 3
END_STATE
END_LABELED_STATE
BEGIN_LABELED_STATE
6.0
BEGIN_STATE
3
0 3 4
0 4 0
1 0
1 1
1 2
2 1
2 2
2 3
END_STATE
END_LABELED_STATE
BEGIN_LABELED_STATE
7.0
BEGIN_STATE
4 2
0 3 4
0 4 0
1 0
1 1
2 1
2 3
END_STATE
END_LABELED_STATE
BEGIN_LABELED_STATE
8.0
BEGIN_STATE
3
0 2 3
0 3 4
0 4 0
1 0
1 1
2 1
2 2
END_STATE
END_LABELED_STATE
BEGIN_LABELED_STATE
9.0
BEGIN_STATE
4 1
0 2 3
0 3 4
0 4 0
1 0
2 2
END_STATE
END_LABELED_STATE
BEGIN_LABELED_STATE
10.0
BEGIN_STATE
3
0 1 2
0 2 3
0 3 4
0 4 0
1 0
2 1
END_STATE
END_LABELED_STATE
BEGIN_LABELED_STATE
6.0
BEGIN_STATE
3
0 2 1
0 3 4
0 4 0
1 0
1 1
2 2
2 3
END_STATE
END_LABELED_STATE
BEGIN_LABELED_STATE
7.0
BEGIN_STATE
4 1
0 3 4
0 4 0
1 0
1 2
2 2
2 3
END_STATE
END_LABELED_STATE
BEGIN_LABELED_STATE
8.0
BEGIN_STATE
3
0 1 3
0 3 4
0 4 0
1 0
1 2
2 1
2 2
END_STATE
END_LABELED_STATE
BEGIN_LABELED_STATE
9.0
BEGIN_STATE
4 2
0 1 3
0 3 4
0 4 0
1 0
2 1
END_STATE
END_LABELED_STATE
BEGIN_LABELED_STATE
10.0
BEGIN_STATE
3
0 1 3
0 2 1
0 3 4
0 4 0
1 0
2 2
END_STATE
END_LABELED_STATE
BEGIN_LABELED_STATE
6.0
BEGIN_STATE
3
0 1 2
0 3 4
0 4 0
1 0
1 2
2 1
2 3
END_STATE
END_LABELED_STATE
BEGIN_LABELED_STATE
5.0
BEGIN_STATE
4 3
0 1 2
0 4 0
1 0
1 2
2 1
2 4
END_STATE
END_LABELED_STATE
BEGIN_LABELED_STATE
4.0
BEGIN_STATE
3
0 1 2
0 3 1
0 4 0
1 0
1 2
2 3
2 4
END_STATE
END_LABELED_STATE
BEGIN_LABELED_STATE
3.0
BEGIN_STATE
4 4
0 1 2
0 3 1
1 0
1 2
2 0
2 3
END_STATE
END_LABELED_STATE
BEGIN_LABELED_STATE
2.0
BEGIN_STATE
3
0 1 2
0 3 1
1 0
1 2
1 4
2 0
2 3
2 4
END_STATE
END_LABELED_STATE
BEGIN_LABELED_STATE
1.0
BEGIN_STATE
4 0
0 1 2
0 3 1
1 2
1 4
2 3
2 4
END_STATE
END_LABELED_STATE
BEGIN_LABELED_STATE
0.0
BEGIN_STATE
3
0 0 4
0 1 2
0 3 1
1 2
1 4
2 0
2 3
END_STATE
END_LABELED_STATE
BEGIN_LABELED_STATE
4.0
BEGIN_STATE
3
0 1 2
0 4 0
1 0
1 2
1 3
2 1
2 3
2 4
END_STATE
END_LABELED_STATE
BEGIN_LABELED_STATE
5.0
BEGIN_STATE
4 1
0 4 0
1 0
1 2
1 3
2 2
2 3
2 4
END_STATE
END_LABELED_STATE
BEGIN_LABELED_STATE
6.0
BEGIN_STATE
3
0 1 4
0 4 0
1 0
1 2
1 3
2 1
2 2
2 3
END_STATE
END_LABELED_STATE
BEGIN_LABELED_STATE
7.0
BEGIN_STATE
4 3
0 1 4
0 4 0
1 0
1 2
2 1
2 2
END_STATE
END_LABELED_STATE
BEGIN_LABELED_STATE
6.0
BEGIN_STATE
3
0 1 4
0 3 2
0 4 0
1 0
1 2
2 1
2 3
END_STATE
END_LABELED_STATE
BEGIN_LABELED_STATE
5.0
BEGIN_STATE
4 1
0 3 2
0 4 0
1 0
1 2
2 3
2 4
END_STATE
END_LABELED_STATE
BEGIN_LABELED_STATE
4.0
BEGIN_STATE
3
0 1 3
0 3 2
0 4 0
1 0
1 2
2 1
2 4
END_STATE
END_LABELED_STATE
BEGIN_LABELED_STATE
3.0
BEGIN_STATE
4 4
0 1 3
0 3 2
1 0
1 2
2 0
2 1
END_STATE
END_LABELED_STATE
BEGIN_LABELED_STATE
2.0
BEGIN_STATE
3
0 1 3
0 3 2
1 0
1 2
1 4
2 0
2 1
2 4
END_STATE
END_LABELED_STATE
BEGIN_LABELED_STATE
1.0
BEGIN_STATE
4 0
0 1 3
0 3 2
1 2
1 4
2 1
2 4
END_STATE
END_LABELED_STATE
BEGIN_LABELED_STATE
0.0
BEGIN_STATE
3
0 0 4
0 1 3
0 3 2
1 2
1 4
2 0
2 1
END_STATE
END_LABELED_STATE
BEGIN_LABELED_STATE
4.0
BEGIN_STATE
3
0 3 2
0 4 0
1 0
1 1
1 2
2 1
2 3
2 4
END_STATE
END_LABELED_STATE
BEGIN_LABELED_STATE
3.0
BEGIN_STATE
4 4
0 3 2
1 0
1 1
1 2
2 0
2 1
2 3
END_STATE
END_LABELED_STATE
BEGIN_LABELED_STATE
4.0
BEGIN_STATE
3
0 1 4
0 3 2
1 0
1 2
1 4
2 0
2 1
2 3
END_STATE
END_LABELED_STATE
BEGIN_LABELED_STATE
5.0
BEGIN_STATE
4 0
0 1 4
0 3 2
1 2
1 4
2 1
2 3
END_STATE
END_LABELED_STATE
BEGIN_LABELED_STATE
4.0
BEGIN_STATE
3
0 0 3
0 1 4
0 3 2
1 2
1 4
2 0
2 1
END_STATE
END_LABELED_STATE
BEGIN_LABELED_STATE
3.0
BEGIN_STATE
4 1
0 0 3
0 3 2
1 2
1 4
2 0
2 4
END_STATE
END_LABELED_STATE
BEGIN_LABELED_STATE
2.0
BEGIN_STATE
3
0 0 3
0 3 2
1 1
1 2
1 4
2 0
2 1
2 4
END_STATE
END_LABELED_STATE
BEGIN_LABELED_STATE
3.0
BEGIN_STATE
4 4
0 0 3
0 3 2
1 1
1 2
2 0
2 1
END_STATE
END_LABELED_STATE
BEGIN_LABELED_STATE
2.0
BEGIN_STATE
3
0 0 3
0 3 2
0 4 1
1 1
1 2
2 0
2 4
END_STATE
END_LABELED_STATE
BEGIN_LABELED_STATE
1.0
BEGIN_STATE
4 0
0 3 2
0 4 1
1 1
1 2
2 3
2 4
END_STATE
END_LABELED_STATE
BEGIN_LABELED_STATE
0.0
BEGIN_STATE
3
0 0 4
0 3 2
0 4 1
1 1
1 2
2 0
2 3
END_STATE
END_LABELED_STATE
BEGIN_LABELED_STATE
2.0
BEGIN_STATE
3
0 3 2
0 4 1
1 0
1 1
1 2
2 0
2 3
2 4
END_STATE
END_LABELED_STATE
BEGIN_LABELED_STATE
3.0
BEGIN_STATE
4 3
0 4 1
1 0
1 1
1 2
2 0
2 2
2 4
END_STATE
END_LABELED_STATE
BEGIN_LABELED_STATE
2.0
BEGIN_STATE
3
0 4 1
1 0
1 1
1 2
1 3
2 0
2 2
2 3
2 4
END_STATE
END_LABELED_STATE
BEGIN_LABELED_STATE
1.0
BEGIN_STATE
4 0
0 4 1
1 1
1 2
1 3
2 2
2 3
2 4
END_STATE
END_LABELED_STATE
BEGIN_LABELED_STATE
0.0
BEGIN_STATE
3
0 0 4
0 4 1
1 1
1 2
1 3
2 0
2 2
2 3
END_STATE
END_LABELED_STATE
BEGIN_LABELED_STATE
3.0
BEGIN_STATE
4 2
0 4 1
1 0
1 1
1 3
2 0
2 3
2 4
END_STATE
END_LABELED_STATE
BEGIN_LABELED_STATE
4.0
BEGIN_STATE
3
0 2 4
0 4 1
1 0
1 1
1 3
2 0
2 2
2 3
END_STATE
END_LABELED_STATE
BEGIN_LABELED_STATE
5.0
BEGIN_STATE
4 3
0 2 4
0 4 1
1 0
1 1
2 0
2 2
END_STATE
END_LABELED_STATE
BEGIN_LABELED_STATE
6.0
BEGIN_STATE
3
0 2 4
0 3 2
0 4 1
1 0
1 1
2 0
2 3
END_STATE
END_LABELED_STATE
BEGIN_LABELED_STATE
7.0
BEGIN_STATE
4 0
0 2 4
0 3 2
0 4 1
1 1
2 3
END_STATE
END_LABELED_STATE
BEGIN_LABELED_STATE
8.0
BEGIN_STATE
3
0 0 3
0 2 4
0 3 2
0 4 1
1 1
2 0
END_STATE
END_LABELED_STATE
BEGIN_LABELED_STATE
6.0
BEGIN_STATE
3
0 2 4
0 3 0
0 4 1
1 0
1 1
2 2
2 3
END_STATE
END_LABELED_STATE
BEGIN_LABELED_STATE
5.0
BEGIN_STATE
4 2
0 3 0
0 4 1
1 0
1 1
2 3
2 4
END_STATE
END_LABELED_STATE
BEGIN_LABELED_STATE
4.0
BEGIN_STATE
3
0 3 0
0 4 1
1 0
1 1
1 2
2 2
2 3
2 4
END_STATE
END_LABELED_STATE
BEGIN_LABELED_STATE
5.0
BEGIN_STATE
4 4
0 3 0
1 0
1 1
1 2
2 1
2 2
2 3
END_STATE
END_LABELED_STATE
BEGIN_LABELED_STATE
4.0
BEGIN_STATE
3
0 3 0
1 0
1 1
1 2
1 4
2 1
2 2
2 3
2 4
END_STATE
END_LABELED_STATE
BEGIN_LABELED_STATE
5.0
BEGIN_STATE
4 2
0 3 0
1 0
1 1
1 4
2 1
2 3
2 4
END_STATE
END_LABELED_STATE
BEGIN_LABELED_STATE
4.0
BEGIN_STATE
3
0 2 1
0 3 0
1 0
1 1
1 4
2 2
2 3
2 4
END_STATE
END_LABELED_STATE
BEGIN_LABELED_STATE
6.0
BEGIN_STATE
3
0 2 4
0 3 0
1 0
1 1
1 4
2 1
2 2
2 3
END_STATE
END_LABELED_STATE
BEGIN_LABELED_STATE
7.0
BEGIN_STATE
4 1
0 2 4
0 3 0
1 0
1 4
2 2
2 3
END_STATE
END_LABELED_STATE
BEGIN_LABELED_STATE
8.0
BEGIN_STATE
3
0 1 3
0 2 4
0 3 0
1 0
1 4
2 1
2 2
END_STATE
END_LABELED_STATE
BEGIN_LABELED_STATE
7.0
BEGIN_STATE
4 2
0 1 3
0 3 0
1 0
1 4
2 1
2 4
END_STATE
END_LABELED_STATE
BEGIN_LABELED_STATE
6.0
BEGIN_STATE
3
0 1 3
0 3 0
1 0
1 2
1 4
2 1
2 2
2 4
END_STATE
END_LABELED_STATE
BEGIN_LABELED_STATE
5.0
BEGIN_STATE
4 1
0 3 0
1 0
1 2
1 4
2 2
2 3
2 4
END_STATE
END_LABELED_STATE
BEGIN_LABELED_STATE
4.0
BEGIN_STATE
3
0 1 2
0 3 0
1 0
1 2
1 4
2 1
2 3
2 4
END_STATE
END_LABELED_STATE
BEGIN_LABELED_STATE
7.0
BEGIN_STATE
4 4
0 1 3
0 3 0
1 0
1 2
2 1
2 2
END_STATE
END_LABELED_STATE
BEGIN_LABELED_STATE
6.0
BEGIN_STATE
3
0 1 3
0 3 0
0 4 2
1 0
1 2
2 1
2 4
END_STATE
END_LABELED_STATE
BEGIN_LABELED_STATE
5.0
BEGIN_STATE
4 1
0 3 0
0 4 2
1 0
1 2
2 3
2 4
END_STATE
END_LABELED_STATE
BEGIN_LABELED_STATE
4.0
BEGIN_STATE
3
0 3 0
0 4 2
1 0
1 1
1 2
2 1
2 3
2 4
END_STATE
END_LABELED_STATE
BEGIN_LABELED_STATE
3.0
BEGIN_STATE
4 3
0 4 2
1 0
1 1
1 2
2 0
2 1
2 4
END_STATE
END_LABELED_STATE
BEGIN_LABELED_STATE
4.0
BEGIN_STATE
3
0 1 4
0 4 2
1 0
1 2
1 3
2 0
2 1
2 3
END_STATE
END_LABELED_STATE
BEGIN_LABELED_STATE
5.0
BEGIN_STATE
4 3
0 1 4
0 4 2
1 0
1 2
2 0
2 1
END_STATE
END_LABELED_STATE
BEGIN_LABELED_STATE
6.0
BEGIN_STATE
3
0 1 4
0 3 1
0 4 2
1 0
1 2
2 0
2 3
END_STATE
END_LABELED_STATE
BEGIN_LABELED_STATE
7.0
BEGIN_STATE
4 0
0 1 4
0 3 1
0 4 2
1 2
2 3
END_STATE
END_LABELED_STATE
BEGIN_LABELED_STATE
8.0
BEGIN_STATE
3
0 0 3
0 1 4
0 3 1
0 4 2
1 2
2 0
END_STATE
END_LABELED_STATE
BEGIN_LABELED_STATE
6.0
BEGIN_STATE
3
0 1 4
0 3 0
0 4 2
1 0
1 2
2 1
2 3
END_STATE
END_LABELED_STATE
BEGIN_LABELED_STATE
5.0
BEGIN_STATE
4 0
0 1 4
0 4 2
1 2
1 3
2 1
2 3
END_STATE
END_LABELED_STATE
BEGIN_LABELED_STATE
4.0
BEGIN_STATE
3
0 0 3
0 1 4
0 4 2
1 2
1 3
2 0
2 1
END_STATE
END_LABELED_STATE
BEGIN_LABELED_STATE
3.0
BEGIN_STATE
4 1
0 0 3
0 4 2
1 2
1 3
2 0
2 4
END_STATE
END_LABELED_STATE
BEGIN_LABELED_STATE
2.0
BEGIN_STATE
3
0 0 3
0 4 2
1 1
1 2
1 3
2 0
2 1
2 4
END_STATE
END_LABELED_STATE
BEGIN_LABELED_STATE
3.0
BEGIN_STATE
4 4
0 0 3
1 1
1 2
1 3
2 0
2 1
2 2
END_STATE
END_LABELED_STATE
BEGIN_LABELED_STATE
2.0
BEGIN_STATE
3
0 0 3
1 1
1 2
1 3
1 4
2 0
2 1
2 2
2 4
END_STATE
END_LABELED_STATE
BEGIN_LABELED_STATE
3.0
BEGIN_STATE
4 2
0 0 3
1 1
1 3
1 4
2 0
2 1
2 4
END_STATE
END_LABELED_STATE
BEGIN_LABELED_STATE
4.0
BEGIN_STATE
3
0 0 3
0 2 4
1 1
1 3
1 4
2 0
2 1
2 2
END_STATE
END_LABELED_STATE
BEGIN_LABELED_STATE
5.0
BEGIN_STATE
4 1
0 0 3
0 2 4
1 3
1 4
2 0
2 2
END_STATE
END_LABELED_STATE
BEGIN_LABELED_STATE
6.0
BEGIN_STATE
3
0 0 3
0 1 2
0 2 4
1 3
1 4
2 0
2 1
END_STATE
END_LABELED_STATE
BEGIN_LABELED_STATE
7.0
BEGIN_STATE
4 0
0 1 2
0 2 4
1 3
1 4
2 1
2 3
END_STATE
END_LABELED_STATE
BEGIN_LABELED_STATE
6.0
BEGIN_STATE
3
0 1 2
0 2 4
1 0
1 3
1 4
2 0
2 1
2 3
END_STATE
END_LABELED_STATE
BEGIN_LABELED_STATE
5.0
BEGIN_STATE
4 1
0 2 4
1 0
1 3
1 4
2 0
2 2
2 3
END_STATE
END_LABELED_STATE
BEGIN_LABELED_STATE
4.0
BEGIN_STATE
3
0 1 3
0 2 4
1 0
1 3
1 4
2 0
2 1
2 2
END_STATE
END_LABELED_STATE
BEGIN_LABELED_STATE
3.0
BEGIN_STATE
4 2
0 1 3
1 0
1 3
1 4
2 0
2 1
2 4
END_STATE
END_LABELED_STATE
BEGIN_LABELED_STATE
2.0
BEGIN_STATE
3
0 1 3
1 0
1 2
1 3
1 4
2 0
2 1
2 2
2 4
END_STATE
END_LABELED_STATE
BEGIN_LABELED_STATE
1.0
BEGIN_STATE
4 0
0 1 3
1 2
1 3
1 4
2 1
2 2
2 4
END_STATE
END_LABELED_STATE
BEGIN_LABELED_STATE
0.0
BEGIN_STATE
3
0 0 4
0 1 3
1 2
1 3
1 4
2 0
2 1
2 2
END_STATE
END_LABELED_STATE
BEGIN_LABELED_STATE
7.0
BEGIN_STATE
4 3
0 1 2
0 2 4
1 0
1 4
2 0
2 1
END_STATE
END_LABELED_STATE
BEGIN_LABELED_STATE
8.0
BEGIN_STATE
3
0 1 2
0 2 4
0 3 1
1 0
1 4
2 0
2 3
END_STATE
END_LABELED_STATE
BEGIN_LABELED_STATE
9.0
BEGIN_STATE
4 0
0 1 2
0 2 4
0 3 1
1 4
2 3
END_STATE
END_LABELED_STATE
BEGIN_LABELED_STATE
10.0
BEGIN_STATE
3
0 0 3
0 1 2
0 2 4
0 3 1
1 4
2 0
END_STATE
END_LABELED_STATE
BEGIN_LABELED_STATE
8.0
BEGIN_STATE
3
0 1 2
0 2 4
0 3 0
1 0
1 4
2 1
2 3
END_STATE
END_LABELED_STATE
BEGIN_LABELED_STATE
4.0
BEGIN_STATE
3
0 2 4
1 0
1 1
1 3
1 4
2 0
2 1
2 2
2 3
END_STATE
END_LABELED_STATE
BEGIN_LABELED_STATE
3.0
BEGIN_STATE
4 2
1 0
1 1
1 3
1 4
2 0
2 1
2 3
2 4
END_STATE
END_LABELED_STATE
BEGIN_LABELED_STATE
5.0
BEGIN_STATE
4 3
0 2 4
1 0
1 1
1 4
2 0
2 1
2 2
END_STATE
END_LABELED_STATE
BEGIN_LABELED_STATE
4.0
BEGIN_STATE
3
0 2 4
0 3 1
1 0
1 1
1 4
2 0
2 2
2 3
END_STATE
END_LABELED_STATE
BEGIN_LABELED_STATE
3.0
BEGIN_STATE
4 2
0 3 1
1 0
1 1
1 4
2 0
2 3
2 4
END_STATE
END_LABELED_STATE
BEGIN_LABELED_STATE
6.0
BEGIN_STATE
3
0 2 4
0 3 2
1 0
1 1
1 4
2 0
2 1
2 3
END_STATE
END_LABELED_STATE
BEGIN_LABELED_STATE
7.0
BEGIN_STATE
4 1
0 2 4
0 3 2
1 0
1 4
2 0
2 3
END_STATE
END_LABELED_STATE
BEGIN_LABELED_STATE
8.0
BEGIN_STATE
3
0 1 3
0 2 4
0 3 2
1 0
1 4
2 0
2 1
END_STATE
END_LABELED_STATE
BEGIN_LABELED_STATE
9.0
BEGIN_STATE
4 0
0 1 3
0 2 4
0 3 2
1 4
2 1
END_STATE
END_LABELED_STATE
BEGIN_LABELED_STATE
10.0
BEGIN_STATE
3
0 0 1
0 1 3
0 2 4
0 3 2
1 4
2 0
END_STATE
END_LABELED_STATE
BEGIN_LABELED_STATE
8.0
BEGIN_STATE
3
0 1 0
0 2 4
0 3 2
1 0
1 4
2 1
2 3
END_STATE
END_LABELED_STATE
BEGIN_LABELED_STATE
7.0
BEGIN_STATE
4 3
0 1 0
0 2 4
1 0
1 4
2 1
2 2
END_STATE
END_LABELED_STATE
BEGIN_LABELED_STATE
6.0
BEGIN_STATE
3
0 1 0
0 2 4
1 0
1 3
1 4
2 1
2 2
2 3
END_STATE
END_LABELED_STATE
BEGIN_LABELED_STATE
5.0
BEGIN_STATE
4 2
0 1 0
1 0
1 3
1 4
2 1
2 3
2 4
END_STATE
END_LABELED_STATE
BEGIN_LABELED_STATE
4.0
BEGIN_STATE
3
0 1 0
0 2 3
1 0
1 3
1 4
2 1
2 2
2 4
END_STATE
END_LABELED_STATE
BEGIN_LABELED_STATE
3.0
BEGIN_STATE
4 1
0 2 3
1 0
1 3
1 4
2 0
2 2
2 4
END_STATE
END_LABELED_STATE
BEGIN_LABELED_STATE
2.0
BEGIN_STATE
3
0 2 3
1 0
1 1
1 3
1 4
2 0
2 1
2 2
2 4
END_STATE
END_LABELED_STATE
BEGIN_LABELED_STATE
1.0
BEGIN_STATE
4 0
0 2 3
1 1
1 3
1 4
2 1
2 2
2 4
END_STATE
END_LABELED_STATE
BEGIN_LABELED_STATE
0.0
BEGIN_STATE
3
0 0 4
0 2 3
1 1
1 3
1 4
2 0
2 1
2 2
END_STATE
END_LABELED_STATE
BEGIN_LABELED_STATE
5.0
BEGIN_STATE
4 4
0 1 0
0 2 3
1 0
1 3
2 1
2 2
END_STATE
END_LABELED_STATE
BEGIN_LABELED_STATE
4.0
BEGIN_STATE
3
0 1 0
0 2 3
0 4 2
1 0
1 3
2 1
2 4
END_STATE
END_LABELED_STATE
BEGIN_LABELED_STATE
3.0
BEGIN_STATE
4 1
0 2 3
0 4 2
1 0
1 3
2 0
2 4
END_STATE
END_LABELED_STATE
BEGIN_LABELED_STATE
2.0
BEGIN_STATE
3
0 2 3
0 4 2
1 0
1 1
1 3
2 0
2 1
2 4
END_STATE
END_LABELED_STATE
BEGIN_LABELED_STATE
1.0
BEGIN_STATE
4 0
0 2 3
0 4 2
1 1
1 3
2 1
2 4
END_STATE
END_LABELED_STATE
BEGIN_LABELED_STATE
0.0
BEGIN_STATE
3
0 0 4
0 2 3
0 4 2
1 1
1 3
2 0
2 1
END_STATE
END_LABELED_STATE
BEGIN_LABELED_STATE
0.0
BEGIN_STATE
4 1
0 0 4
0 2 3
0 4 2
1 3
2 0
END_STATE
END_LABELED_STATE
BEGIN_LABELED_STATE
0.0
BEGIN_STATE
3
0 0 4
0 1 0
0 2 3
0 4 2
1 3
2 1
END_STATE
END_LABELED_STATE
BEGIN_LABELED_STATE
2.0
BEGIN_STATE
3
0 0 1
0 2 3
0 4 2
1 1
1 3
2 0
2 4
END_STATE
END_LABELED_STATE
BEGIN_LABELED_STATE
3.0
BEGIN_STATE
4 4
0 0 1
0 2 3
1 1
1 3
2 0
2 2
END_STATE
END_LABELED_STATE
BEGIN_LABELED_STATE
2.0
BEGIN_STATE
3
0 0 1
0 2 3
1 1
1 3
1 4
2 0
2 2
2 4
END_STATE
END_LABELED_STATE
BEGIN_LABELED_STATE
3.0
BEGIN_STATE
4 2
0 0 1
1 1
1 3
1 4
2 0
2 3
2 4
END_STATE
END_LABELED_STATE
BEGIN_LABELED_STATE
4.0
BEGIN_STATE
3
0 0 1
0 2 4
1 1
1 3
1 4
2 0
2 2
2 3
END_STATE
END_LABELED_STATE
BEGIN_LABELED_STATE
5.0
BEGIN_STATE
4 3
0 0 1
0 2 4
1 1
1 4
2 0
2 2
END_STATE
END_LABELED_STATE
BEGIN_LABELED_STATE
6.0
BEGIN_STATE
3
0 0 1
0 2 4
0 3 2
1 1
1 4
2 0
2 3
END_STATE
END_LABELED_STATE
BEGIN_LABELED_STATE
7.0
BEGIN_STATE
4 0
0 2 4
0 3 2
1 1
1 4
2 1
2 3
END_STATE
END_LABELED_STATE
BEGIN_LABELED_STATE
8.0
BEGIN_STATE
3
0 0 3
0 2 4
0 3 2
1 1
1 4
2 0
2 1
END_STATE
END_LABELED_STATE
BEGIN_LABELED_STATE
9.0
BEGIN_STATE
4 1
0 0 3
0 2 4
0 3 2
1 4
2 0
END_STATE
END_LABELED_STATE
BEGIN_LABELED_STATE
10.0
BEGIN_STATE
3
0 0 3
0 1 0
0 2 4
0 3 2
1 4
2 1
END_STATE
END_LABELED_STATE
BEGIN_LABELED_STATE
6.0
BEGIN_STATE
3
0 0 1
0 2 4
0 3 0
1 1
1 4
2 2
2 3
END_STATE
END_LABELED_STATE
BEGIN_LABELED_STATE
5.0
BEGIN_STATE
4 2
0 0 1
0 3 0
1 1
1 4
2 3
2 4
END_STATE
END_LABELED_STATE
BEGIN_LABELED_STATE
4.0
BEGIN_STATE
3
0 0 1
0 3 0
1 1
1 2
1 4
2 2
2 3
2 4
END_STATE
END_LABELED_STATE
BEGIN_LABELED_STATE
5.0
BEGIN_STATE
4 4
0 0 1
0 3 0
1 1
1 2
2 2
2 3
END_STATE
END_LABELED_STATE
BEGIN_LABELED_STATE
4.0
BEGIN_STATE
3
0 0 1
0 3 0
0 4 2
1 1
1 2
2 3
2 4
END_STATE
END_LABELED_STATE
BEGIN_LABELED_STATE
3.0
BEGIN_STATE
4 3
0 0 1
0 4 2
1 1
1 2
2 0
2 4
END_STATE
END_LABELED_STATE
BEGIN_LABELED_STATE
2.0
BEGIN_STATE
3
0 0 1
0 4 2
1 1
1 2
1 3
2 0
2 3
2 4
END_STATE
END_LABELED_STATE
BEGIN_LABELED_STATE
6.0
BEGIN_STATE
3
0 0 1
0 3 0
0 4 3
1 1
1 2
2 2
2 4
END_STATE
END_LABELED_STATE
BEGIN_LABELED_STATE
7.0
BEGIN_STATE
4 2
0 0 1
0 3 0
0 4 3
1 1
2 4
END_STATE
END_LABELED_STATE
BEGIN_LABELED_STATE
8.0
BEGIN_STATE
3
0 0 1
0 2 4
0 3 0
0 4 3
1 1
2 2
END_STATE
END_LABELED_STATE
BEGIN_LABELED_STATE
0.0
BEGIN_STATE
4 3
0 0 4
0 4 2
1 1
1 2
2 0
2 1
END_STATE
END_LABELED_STATE
BEGIN_LABELED_STATE
0.0
BEGIN_STATE
3
0 0 4
0 3 1
0 4 2
1 1
1 2
2 0
2 3
END_STATE
END_LABELED_STATE
BEGIN_LABELED_STATE
1.0
BEGIN_STATE
4 0
0 3 1
0 4 2
1 1
1 2
2 3
2 4
END_STATE
END_LABELED_STATE
BEGIN_LABELED_STATE
2.0
BEGIN_STATE
3
0 3 1
0 4 2
1 0
1 1
1 2
2 0
2 3
2 4
END_STATE
END_LABELED_STATE
BEGIN_LABELED_STATE
5.0
BEGIN_STATE
4 0
0 2 4
0 3 1
1 1
1 4
2 2
2 3
END_STATE
END_LABELED_STATE
BEGIN_LABELED_STATE
4.0
BEGIN_STATE
3
0 0 3
0 2 4
0 3 1
1 1
1 4
2 0
2 2
END_STATE
END_LABELED_STATE
BEGIN_LABELED_STATE
3.0
BEGIN_STATE
4 2
0 0 3
0 3 1
1 1
1 4
2 0
2 4
END_STATE
END_LABELED_STATE
BEGIN_LABELED_STATE
2.0
BEGIN_STATE
3
0 0 3
0 3 1
1 1
1 2
1 4
2 0
2 2
2 4
END_STATE
END_LABELED_STATE
BEGIN_LABELED_STATE
3.0
BEGIN_STATE
4 4
0 0 3
0 3 1
1 1
1 2
2 0
2 2
END_STATE
END_LABELED_STATE
BEGIN_LABELED_STATE
2.0
BEGIN_STATE
3
0 0 3
0 3 1
0 4 2
1 1
1 2
2 0
2 4
END_STATE
END_LABELED_STATE
BEGIN_LABELED_STATE
4.0
BEGIN_STATE
3
0 0 3
0 3 1
0 4 0
1 1
1 2
2 2
2 4
END_STATE
END_LABELED_STATE
BEGIN_LABELED_STATE
5.0
BEGIN_STATE
4 2
0 0 3
0 3 1
0 4 0
1 1
2 4
END_STATE
END_LABELED_STATE
BEGIN_LABELED_STATE
6.0
BEGIN_STATE
3
0 0 3
0 2 4
0 3 1
0 4 0
1 1
2 2
END_STATE
END_LABELED_STATE
BEGIN_LABELED_STATE
0.0
BEGIN_STATE
4 2
0 0 4
0 3 1
1 1
1 4
2 0
2 3
END_STATE
END_LABELED_STATE
BEGIN_LABELED_STATE
0.0
BEGIN_STATE
3
0 0 4
0 2 3
0 3 1
1 1
1 4
2 0
2 2
END_STATE
END_LABELED_STATE
BEGIN_LABELED_STATE
1.0
BEGIN_STATE
4 0
0 2 3
0 3 1
1 1
1 4
2 2
2 4
END_STATE
END_LABELED_STATE
BEGIN_LABELED_STATE
2.0
BEGIN_STATE
3
0 2 3
0 3 1
1 0
1 1
1 4
2 0
2 2
2 4
END_STATE
END_LABELED_STATE
BEGIN_LABELED_STATE
3.0
BEGIN_STATE
4 4
0 2 3
0 3 1
1 0
1 1
2 0
2 2
END_STATE
END_LABELED_STATE
BEGIN_LABELED_STATE
2.0
BEGIN_STATE
3
0 2 3
0 3 1
0 4 2
1 0
1 1
2 0
2 4
END_STATE
END_LABELED_STATE
BEGIN_LABELED_STATE
1.0
BEGIN_STATE
4 0
0 2 3
0 3 1
0 4 2
1 1
2 4
END_STATE
END_LABELED_STATE
BEGIN_LABELED_STATE
0.0
BEGIN_STATE
3
0 0 4
0 2 3
0 3 1
0 4 2
1 1
2 0
END_STATE
END_LABELED_STATE
BEGIN_LABELED_STATE
4.0
BEGIN_STATE
3
0 2 3
0 3 1
0 4 0
1 0
1 1
2 2
2 4
END_STATE
END_LABELED_STATE
BEGIN_LABELED_STATE
5.0
BEGIN_STATE
4 2
0 3 1
0 4 0
1 0
1 1
2 3
2 4
END_STATE
END_LABELED_STATE
BEGIN_LABELED_STATE
6.0
BEGIN_STATE
3
0 2 4
0 3 1
0 4 0
1 0
1 1
2 2
2 3
END_STATE
END_LABELED_STATE
BEGIN_LABELED_STATE
7.0
BEGIN_STATE
4 3
0 2 4
0 4 0
1 0
1 1
2 1
2 2
END_STATE
END_LABELED_STATE
BEGIN_LABELED_STATE
6.0
BEGIN_STATE
3
0 2 4
0 4 0
1 0
1 1
1 3
2 1
2 2
2 3
END_STATE
END_LABELED_STATE
BEGIN_LABELED_STATE
7.0
BEGIN_STATE
4 1
0 2 4
0 4 0
1 0
1 3
2 2
2 3
END_STATE
END_LABELED_STATE
BEGIN_LABELED_STATE
6.0
BEGIN_STATE
3
0 1 3
0 2 4
0 4 0
1 0
1 3
2 1
2 2
END_STATE
END_LABELED_STATE
BEGIN_LABELED_STATE
5.0
BEGIN_STATE
4 2
0 1 3
0 4 0
1 0
1 3
2 1
2 4
END_STATE
END_LABELED_STATE
BEGIN_LABELED_STATE
4.0
BEGIN_STATE
3
0 1 3
0 2 1
0 4 0
1 0
1 3
2 2
2 4
END_STATE
END_LABELED_STATE
BEGIN_LABELED_STATE
3.0
BEGIN_STATE
4 4
0 1 3
0 2 1
1 0
1 3
2 0
2 2
END_STATE
END_LABELED_STATE
BEGIN_LABELED_STATE
2.0
BEGIN_STATE
3
0 1 3
0 2 1
1 0
1 3
1 4
2 0
2 2
2 4
END_STATE
END_LABELED_STATE
BEGIN_LABELED_STATE
1.0
BEGIN_STATE
4 0
0 1 3
0 2 1
1 3
1 4
2 2
2 4
END_STATE
END_LABELED_STATE
BEGIN_LABELED_STATE
0.0
BEGIN_STATE
3
0 0 4
0 1 3
0 2 1
1 3
1 4
2 0
2 2
END_STATE
END_LABELED_STATE
BEGIN_LABELED_STATE
4.0
BEGIN_STATE
3
0 1 3
0 4 0
1 0
1 2
1 3
2 1
2 2
2 4
END_STATE
END_LABELED_STATE
BEGIN_LABELED_STATE
3.0
BEGIN_STATE
4 4
0 1 3
1 0
1 2
1 3
2 0
2 1
2 2
END_STATE
END_LABELED_STATE
BEGIN_LABELED_STATE
5.0
BEGIN_STATE
4 0
0 1 3
0 2 4
1 3
1 4
2 1
2 2
END_STATE
END_LABELED_STATE
BEGIN_LABELED_STATE
4.0
BEGIN_STATE
3
0 0 1
0 1 3
0 2 4
1 3
1 4
2 0
2 2
END_STATE
END_LABELED_STATE
BEGIN_LABELED_STATE
3.0
BEGIN_STATE
4 2
0 0 1
0 1 3
1 3
1 4
2 0
2 4
END_STATE
END_LABELED_STATE
BEGIN_LABELED_STATE
2.0
BEGIN_STATE
3
0 0 1
0 1 3
1 2
1 3
1 4
2 0
2 2
2 4
END_STATE
END_LABELED_STATE
BEGIN_LABELED_STATE
6.0
BEGIN_STATE
3
0 0 2
0 1 3
0 2 4
1 3
1 4
2 0
2 1
END_STATE
END_LABELED_STATE
BEGIN_LABELED_STATE
7.0
BEGIN_STATE
4 1
0 0 2
0 2 4
1 3
1 4
2 0
2 3
END_STATE
END_LABELED_STATE
BEGIN_LABELED_STATE
6.0
BEGIN_STATE
3
0 0 2
0 2 4
1 1
1 3
1 4
2 0
2 1
2 3
END_STATE
END_LABELED_STATE
BEGIN_LABELED_STATE
5.0
BEGIN_STATE
4 0
0 2 4
1 1
1 3
1 4
2 1
2 2
2 3
END_STATE
END_LABELED_STATE
BEGIN_LABELED_STATE
7.0
BEGIN_STATE
4 3
0 0 2
0 2 4
1 1
1 4
2 0
2 1
END_STATE
END_LABELED_STATE
BEGIN_LABELED_STATE
6.0
BEGIN_STATE
3
0 0 2
0 2 4
0 3 1
1 1
1 4
2 0
2 3
END_STATE
END_LABELED_STATE
BEGIN_LABELED_STATE
8.0
BEGIN_STATE
3
0 0 2
0 2 4
0 3 0
1 1
1 4
2 1
2 3
END_STATE
END_LABELED_STATE
BEGIN_LABELED_STATE
9.0
BEGIN_STATE
4 1
0 0 2
0 2 4
0 3 0
1 4
2 3
END_STATE
END_LABELED_STATE
BEGIN_LABELED_STATE
10.0
BEGIN_STATE
3
0 0 2
0 1 3
0 2 4
0 3 0
1 4
2 1
END_STATE
END_LABELED_STATE
BEGIN_LABELED_STATE
8.0
BEGIN_STATE
3
0 0 2
0 1 0
0 2 4
1 3
1 4
2 1
2 3
END_STATE
END_LABELED_STATE
BEGIN_LABELED_STATE
9.0
BEGIN_STATE
4 3
0 0 2
0 1 0
0 2 4
1 4
2 1
END_STATE
END_LABELED_STATE
BEGIN_LABELED_STATE
10.0
BEGIN_STATE
3
0 0 2
0 1 0
0 2 4
0 3 1
1 4
2 3
END_STATE
END_LABELED_STATE
BEGIN_LABELED_STATE
3.0
BEGIN_STATE
4 4
0 0 1
0 1 3
1 2
1 3
2 0
2 2
END_STATE
END_LABELED_STATE
BEGIN_LABELED_STATE
2.0
BEGIN_STATE
3
0 0 1
0 1 3
0 4 2
1 2
1 3
2 0
2 4
END_STATE
END_LABELED_STATE
BEGIN_LABELED_STATE
1.0
BEGIN_STATE
4 0
0 1 3
0 4 2
1 2
1 3
2 1
2 4
END_STATE
END_LABELED_STATE
BEGIN_LABELED_STATE
0.0
BEGIN_STATE
3
0 0 4
0 1 3
0 4 2
1 2
1 3
2 0
2 1
END_STATE
END_LABELED_STATE
BEGIN_LABELED_STATE
2.0
BEGIN_STATE
3
0 1 3
0 4 2
1 0
1 2
1 3
2 0
2 1
2 4
END_STATE
END_LABELED_STATE
BEGIN_LABELED_STATE
0.0
BEGIN_STATE
4 1
0 0 4
0 4 2
1 2
1 3
2 0
2 3
END_STATE
END_LABELED_STATE
BEGIN_LABELED_STATE
0.0
BEGIN_STATE
3
0 0 4
0 1 0
0 4 2
1 2
1 3
2 1
2 3
END_STATE
END_LABELED_STATE
BEGIN_LABELED_STATE
0.0
BEGIN_STATE
4 3
0 0 4
0 1 0
0 4 2
1 2
2 1
END_STATE
END_LABELED_STATE
BEGIN_LABELED_STATE
0.0
BEGIN_STATE
3
0 0 4
0 1 0
0 3 1
0 4 2
1 2
2 3
END_STATE
END_LABELED_STATE
BEGIN_LABELED_STATE
4.0
BEGIN_STATE
3
0 0 1
0 1 3
0 4 0
1 2
1 3
2 2
2 4
END_STATE
END_LABELED_STATE
BEGIN_LABELED_STATE
5.0
BEGIN_STATE
4 2
0 0 1
0 1 3
0 4 0
1 3
2 4
END_STATE
END_LABELED_STATE
BEGIN_LABELED_STATE
6.0
BEGIN_STATE
3
0 0 1
0 1 3
0 2 4
0 4 0
1 3
2 2
END_STATE
END_LABELED_STATE
BEGIN_LABELED_STATE
0.0
BEGIN_STATE
4 2
0 0 4
0 1 3
1 3
1 4
2 0
2 1
END_STATE
END_LABELED_STATE
BEGIN_LABELED_STATE
2.0
BEGIN_STATE
3
0 1 3
0 2 1
0 4 2
1 0
1 3
2 0
2 4
END_STATE
END_LABELED_STATE
BEGIN_LABELED_STATE
1.0
BEGIN_STATE
4 0
0 1 3
0 2 1
0 4 2
1 3
2 4
END_STATE
END_LABELED_STATE
BEGIN_LABELED_STATE
0.0
BEGIN_STATE
3
0 0 4
0 1 3
0 2 1
0 4 2
1 3
2 0
END_STATE
END_LABELED_STATE
BEGIN_LABELED_STATE
2.0
BEGIN_STATE
3
0 0 2
0 1 3
0 2 1
1 3
1 4
2 0
2 4
END_STATE
END_LABELED_STATE
BEGIN_LABELED_STATE
3.0
BEGIN_STATE
4 4
0 0 2
0 1 3
0 2 1
1 3
2 0
END_STATE
END_LABELED_STATE
BEGIN_LABELED_STATE
4.0
BEGIN_STATE
3
0 0 2
0 1 3
0 2 1
0 4 0
1 3
2 4
END_STATE
END_LABELED_STATE
BEGIN_LABELED_STATE
0.0
BEGIN_STATE
3
0 0 4
0 1 3
0 2 0
1 3
1 4
2 1
2 2
END_STATE
END_LABELED_STATE
BEGIN_LABELED_STATE
0.0
BEGIN_STATE
4 1
0 0 4
0 2 0
1 3
1 4
2 2
2 3
END_STATE
END_LABELED_STATE
BEGIN_LABELED_STATE
0.0
BEGIN_STATE
3
0 0 4
0 2 0
1 1
1 3
1 4
2 1
2 2
2 3
END_STATE
END_LABELED_STATE
BEGIN_LABELED_STATE
0.0
BEGIN_STATE
4 3
0 0 4
0 2 0
1 1
1 4
2 1
2 2
END_STATE
END_LABELED_STATE
BEGIN_LABELED_STATE
0.0
BEGIN_STATE
3
0 0 4
0 2 0
0 3 2
1 1
1 4
2 1
2 3
END_STATE
END_LABELED_STATE
BEGIN_LABELED_STATE
0.0
BEGIN_STATE
4 1
0 0 4
0 2 0
0 3 2
1 4
2 3
END_STATE
END_LABELED_STATE
BEGIN_LABELED_STATE
0.0
BEGIN_STATE
3
0 0 4
0 1 3
0 2 0
0 3 2
1 4
2 1
END_STATE
END_LABELED_STATE
BEGIN_LABELED_STATE
0.0
BEGIN_STATE
3
0 0 4
0 2 0
0 3 1
1 1
1 4
2 2
2 3
END_STATE
END_LABELED_STATE
BEGIN_LABELED_STATE
0.0
BEGIN_STATE
4 2
0 0 4
1 1
1 3
1 4
2 0
2 1
2 3
END_STATE
END_LABELED_STATE
BEGIN_LABELED_STATE
0.0
BEGIN_STATE
4 3
0 0 4
1 1
1 2
1 4
2 0
2 1
2 2
END_STATE
END_LABELED_STATE
BEGIN_LABELED_STATE
0.0
BEGIN_STATE
4 1
0 0 4
0 3 2
1 2
1 4
2 0
2 3
END_STATE
END_LABELED_STATE
BEGIN_LABELED_STATE
2.0
BEGIN_STATE
3
0 1 3
0 3 2
0 4 1
1 0
1 2
2 0
2 4
END_STATE
END_LABELED_STATE
BEGIN_LABELED_STATE
1.0
BEGIN_STATE
4 0
0 1 3
0 3 2
0 4 1
1 2
2 4
END_STATE
END_LABELED_STATE
BEGIN_LABELED_STATE
0.0
BEGIN_STATE
3
0 0 4
0 1 3
0 3 2
0 4 1
1 2
2 0
END_STATE
END_LABELED_STATE
BEGIN_LABELED_STATE
2.0
BEGIN_STATE
3
0 0 1
0 1 3
0 3 2
1 2
1 4
2 0
2 4
END_STATE
END_LABELED_STATE
BEGIN_LABELED_STATE
3.0
BEGIN_STATE
4 4
0 0 1
0 1 3
0 3 2
1 2
2 0
END_STATE
END_LABELED_STATE
BEGIN_LABELED_STATE
4.0
BEGIN_STATE
3
0 0 1
0 1 3
0 3 2
0 4 0
1 2
2 4
END_STATE
END_LABELED_STATE
BEGIN_LABELED_STATE
0.0
BEGIN_STATE
3
0 0 4
0 1 0
0 3 2
1 2
1 4
2 1
2 3
END_STATE
END_LABELED_STATE
BEGIN_LABELED_STATE
0.0
BEGIN_STATE
4 3
0 0 4
0 1 0
1 2
1 4
2 1
2 2
END_STATE
END_LABELED_STATE
BEGIN_LABELED_STATE
0.0
BEGIN_STATE
3
0 0 4
0 1 0
1 2
1 3
1 4
2 1
2 2
2 3
END_STATE
END_LABELED_STATE
BEGIN_LABELED_STATE
0.0
BEGIN_STATE
4 2
0 0 4
0 1 0
1 3
1 4
2 1
2 3
END_STATE
END_LABELED_STATE
BEGIN_LABELED_STATE
0.0
BEGIN_STATE
3
0 0 4
0 1 0
0 2 3
1 3
1 4
2 1
2 2
END_STATE
END_LABELED_STATE
BEGIN_LABELED_STATE
0.0
BEGIN_STATE
4 1
0 0 4
0 2 3
1 3
1 4
2 0
2 2
END_STATE
END_LABELED_STATE
BEGIN_LABELED_STATE
3.0
BEGIN_STATE
4 4
0 2 3
1 0
1 1
1 3
2 0
2 1
2 2
END_STATE
END_LABELED_STATE
BEGIN_LABELED_STATE
2.0
BEGIN_STATE
3
0 2 3
0 4 1
1 0
1 1
1 3
2 0
2 2
2 4
END_STATE
END_LABELED_STATE
BEGIN_LABELED_STATE
1.0
BEGIN_STATE
4 0
0 2 3
0 4 1
1 1
1 3
2 2
2 4
END_STATE
END_LABELED_STATE
BEGIN_LABELED_STATE
0.0
BEGIN_STATE
3
0 0 4
0 2 3
0 4 1
1 1
1 3
2 0
2 2
END_STATE
END_LABELED_STATE
BEGIN_LABELED_STATE
0.0
BEGIN_STATE
4 2
0 0 4
0 4 1
1 1
1 3
2 0
2 3
END_STATE
END_LABELED_STATE
BEGIN_LABELED_STATE
0.0
BEGIN_STATE
4 3
0 0 4
0 4 1
1 1
1 2
2 0
2 2
END_STATE
END_LABELED_STATE
BEGIN_LABELED_STATE
0.0
BEGIN_STATE
3
0 0 4
0 3 0
0 4 1
1 1
1 2
2 2
2 3
END_STATE
END_LABELED_STATE
BEGIN_LABELED_STATE
0.0
BEGIN_STATE
4 2
0 0 4
0 3 0
0 4 1
1 1
2 3
END_STATE
END_LABELED_STATE
BEGIN_LABELED_STATE
0.0
BEGIN_STATE
3
0 0 4
0 2 3
0 3 0
0 4 1
1 1
2 2
END_STATE
END_LABELED_STATE
BEGIN_LABELED_STATE
2.0
BEGIN_STATE
3
0 0 3
0 4 1
1 1
1 2
1 3
2 0
2 2
2 4
END_STATE
END_LABELED_STATE
BEGIN_LABELED_STATE
3.0
BEGIN_STATE
4 2
0 0 3
0 4 1
1 1
1 3
2 0
2 4
END_STATE
END_LABELED_STATE
BEGIN_LABELED_STATE
4.0
BEGIN_STATE
3
0 0 3
0 2 4
0 4 1
1 1
1 3
2 0
2 2
END_STATE
END_LABELED_STATE
BEGIN_LABELED_STATE
5.0
BEGIN_STATE
4 0
0 2 4
0 4 1
1 1
1 3
2 2
2 3
END_STATE
END_LABELED_STATE
BEGIN_LABELED_STATE
6.0
BEGIN_STATE
3
0 0 2
0 2 4
0 4 1
1 1
1 3
2 0
2 3
END_STATE
END_LABELED_STATE
BEGIN_LABELED_STATE
7.0
BEGIN_STATE
4 3
0 0 2
0 2 4
0 4 1
1 1
2 0
END_STATE
END_LABELED_STATE
BEGIN_LABELED_STATE
8.0
BEGIN_STATE
3
0 0 2
0 2 4
0 3 0
0 4 1
1 1
2 3
END_STATE
END_LABELED_STATE
BEGIN_LABELED_STATE
4.0
BEGIN_STATE
3
0 0 3
0 2 0
0 4 1
1 1
1 3
2 2
2 4
END_STATE
END_LABELED_STATE
BEGIN_LABELED_STATE
5.0
BEGIN_STATE
4 4
0 0 3
0 2 0
1 1
1 3
2 1
2 2
END_STATE
END_LABELED_STATE
BEGIN_LABELED_STATE
4.0
BEGIN_STATE
3
0 0 3
0 2 0
1 1
1 3
1 4
2 1
2 2
2 4
END_STATE
END_LABELED_STATE
BEGIN_LABELED_STATE
5.0
BEGIN_STATE
4 1
0 0 3
0 2 0
1 3
1 4
2 2
2 4
END_STATE
END_LABELED_STATE
BEGIN_LABELED_STATE
6.0
BEGIN_STATE
3
0 0 3
0 1 4
0 2 0
1 3
1 4
2 1
2 2
END_STATE
END_LABELED_STATE
BEGIN_LABELED_STATE
5.0
BEGIN_STATE
4 2
0 0 3
0 1 4
1 3
1 4
2 0
2 1
END_STATE
END_LABELED_STATE
BEGIN_LABELED_STATE
4.0
BEGIN_STATE
3
0 0 3
0 1 4
1 2
1 3
1 4
2 0
2 1
2 2
END_STATE
END_LABELED_STATE
BEGIN_LABELED_STATE
3.0
BEGIN_STATE
4 1
0 0 3
1 2
1 3
1 4
2 0
2 2
2 4
END_STATE
END_LABELED_STATE
BEGIN_LABELED_STATE
2.0
BEGIN_STATE
3
0 0 3
0 1 2
1 2
1 3
1 4
2 0
2 1
2 4
END_STATE
END_LABELED_STATE
BEGIN_LABELED_STATE
3.0
BEGIN_STATE
4 4
0 0 3
0 1 2
1 2
1 3
2 0
2 1
END_STATE
END_LABELED_STATE
BEGIN_LABELED_STATE
2.0
BEGIN_STATE
3
0 0 3
0 1 2
0 4 1
1 2
1 3
2 0
2 4
END_STATE
END_LABELED_STATE
BEGIN_LABELED_STATE
1.0
BEGIN_STATE
4 0
0 1 2
0 4 1
1 2
1 3
2 3
2 4
END_STATE
END_LABELED_STATE
BEGIN_LABELED_STATE
0.0
BEGIN_STATE
3
0 0 4
0 1 2
0 4 1
1 2
1 3
2 0
2 3
END_STATE
END_LABELED_STATE
BEGIN_LABELED_STATE
2.0
BEGIN_STATE
3
0 1 2
0 4 1
1 0
1 2
1 3
2 0
2 3
2 4
END_STATE
END_LABELED_STATE
BEGIN_LABELED_STATE
3.0
BEGIN_STATE
4 3
0 1 2
0 4 1
1 0
1 2
2 0
2 4
END_STATE
END_LABELED_STATE
BEGIN_LABELED_STATE
4.0
BEGIN_STATE
3
0 1 2
0 3 4
0 4 1
1 0
1 2
2 0
2 3
END_STATE
END_LABELED_STATE
BEGIN_LABELED_STATE
5.0
BEGIN_STATE
4 0
0 1 2
0 3 4
0 4 1
1 2
2 3
END_STATE
END_LABELED_STATE
BEGIN_LABELED_STATE
6.0
BEGIN_STATE
3
0 0 3
0 1 2
0 3 4
0 4 1
1 2
2 0
END_STATE
END_LABELED_STATE
BEGIN_LABELED_STATE
4.0
BEGIN_STATE
3
0 1 2
0 3 0
0 4 1
1 0
1 2
2 3
2 4
END_STATE
END_LABELED_STATE
BEGIN_LABELED_STATE
5.0
BEGIN_STATE
4 4
0 1 2
0 3 0
1 0
1 2
2 1
2 3
END_STATE
END_LABELED_STATE
BEGIN_LABELED_STATE
6.0
BEGIN_STATE
3
0 1 4
0 3 0
1 0
1 2
1 4
2 1
2 2
2 3
END_STATE
END_LABELED_STATE
BEGIN_LABELED_STATE
7.0
BEGIN_STATE
4 2
0 1 4
0 3 0
1 0
1 4
2 1
2 3
END_STATE
END_LABELED_STATE
BEGIN_LABELED_STATE
8.0
BEGIN_STATE
3
0 1 4
0 2 3
0 3 0
1 0
1 4
2 1
2 2
END_STATE
END_LABELED_STATE
BEGIN_LABELED_STATE
7.0
BEGIN_STATE
4 1
0 2 3
0 3 0
1 0
1 4
2 2
2 4
END_STATE
END_LABELED_STATE
BEGIN_LABELED_STATE
6.0
BEGIN_STATE
3
0 2 3
0 3 0
1 0
1 1
1 4
2 1
2 2
2 4
END_STATE
END_LABELED_STATE
BEGIN_LABELED_STATE
7.0
BEGIN_STATE
4 4
0 2 3
0 3 0
1 0
1 1
2 1
2 2
END_STATE
END_LABELED_STATE
BEGIN_LABELED_STATE
8.0
BEGIN_STATE
3
0 2 3
0 3 0
0 4 2
1 0
1 1
2 1
2 4
END_STATE
END_LABELED_STATE
BEGIN_LABELED_STATE
9.0
BEGIN_STATE
4 1
0 2 3
0 3 0
0 4 2
1 0
2 4
END_STATE
END_LABELED_STATE
BEGIN_LABELED_STATE
10.0
BEGIN_STATE
3
0 1 4
0 2 3
0 3 0
0 4 2
1 0
2 1
END_STATE
END_LABELED_STATE
BEGIN_LABELED_STATE
6.0
BEGIN_STATE
3
0 2 3
0 3 0
0 4 1
1 0
1 1
2 2
2 4
END_STATE
END_LABELED_STATE
BEGIN_LABELED_STATE
8.0
BEGIN_STATE
3
0 1 2
0 2 3
0 3 0
1 0
1 4
2 1
2 4
END_STATE
END_LABELED_STATE
BEGIN_LABELED_STATE
9.0
BEGIN_STATE
4 4
0 1 2
0 2 3
0 3 0
1 0
2 1
END_STATE
END_LABELED_STATE
BEGIN_LABELED_STATE
10.0
BEGIN_STATE
3
0 1 2
0 2 3
0 3 0
0 4 1
1 0
2 4
END_STATE
END_LABELED_STATE
BEGIN_LABELED_STATE
8.0
BEGIN_STATE
3
0 1 4
0 2 1
0 3 0
1 0
1 4
2 2
2 3
END_STATE
END_LABELED_STATE
BEGIN_LABELED_STATE
7.0
BEGIN_STATE
4 3
0 1 4
0 2 1
1 0
1 4
2 0
2 2
END_STATE
END_LABELED_STATE
BEGIN_LABELED_STATE
6.0
BEGIN_STATE
3
0 1 4
0 2 1
1 0
1 3
1 4
2 0
2 2
2 3
END_STATE
END_LABELED_STATE
BEGIN_LABELED_STATE
5.0
BEGIN_STATE
4 2
0 1 4
1 0
1 3
1 4
2 0
2 1
2 3
END_STATE
END_LABELED_STATE
BEGIN_LABELED_STATE
4.0
BEGIN_STATE
3
0 1 4
0 2 3
1 0
1 3
1 4
2 0
2 1
2 2
END_STATE
END_LABELED_STATE
BEGIN_LABELED_STATE
7.0
BEGIN_STATE
4 0
0 1 4
0 2 1
1 3
1 4
2 2
2 3
END_STATE
END_LABELED_STATE
BEGIN_LABELED_STATE
6.0
BEGIN_STATE
3
0 0 3
0 1 4
0 2 1
1 3
1 4
2 0
2 2
END_STATE
END_LABELED_STATE
BEGIN_LABELED_STATE
8.0
BEGIN_STATE
3
0 0 2
0 1 4
0 2 1
1 3
1 4
2 0
2 3
END_STATE
END_LABELED_STATE
BEGIN_LABELED_STATE
9.0
BEGIN_STATE
4 3
0 0 2
0 1 4
0 2 1
1 4
2 0
END_STATE
END_LABELED_STATE
BEGIN_LABELED_STATE
10.0
BEGIN_STATE
3
0 0 2
0 1 4
0 2 1
0 3 0
1 4
2 3
END_STATE
END_LABELED_STATE
BEGIN_LABELED_STATE
4.0
BEGIN_STATE
3
0 1 4
1 0
1 2
1 3
1 4
2 0
2 1
2 2
2 3
END_STATE
END_LABELED_STATE
BEGIN_LABELED_STATE
5.0
BEGIN_STATE
4 3
0 1 4
1 0
1 2
1 4
2 0
2 1
2 2
END_STATE
END_LABELED_STATE
BEGIN_LABELED_STATE
6.0
BEGIN_STATE
3
0 1 4
0 3 1
1 0
1 2
1 4
2 0
2 2
2 3
END_STATE
END_LABELED_STATE
BEGIN_LABELED_STATE
7.0
BEGIN_STATE
4 2
0 1 4
0 3 1
1 0
1 4
2 0
2 3
END_STATE
END_LABELED_STATE
BEGIN_LABELED_STATE
8.0
BEGIN_STATE
3
0 1 4
0 2 3
0 3 1
1 0
1 4
2 0
2 2
END_STATE
END_LABELED_STATE
BEGIN_LABELED_STATE
9.0
BEGIN_STATE
4 0
0 1 4
0 2 3
0 3 1
1 4
2 2
END_STATE
END_LABELED_STATE
BEGIN_LABELED_STATE
10.0
BEGIN_STATE
3
0 0 2
0 1 4
0 2 3
0 3 1
1 4
2 0
END_STATE
END_LABELED_STATE
BEGIN_LABELED_STATE
8.0
BEGIN_STATE
3
0 1 4
0 2 0
0 3 1
1 0
1 4
2 2
2 3
END_STATE
END_LABELED_STATE
BEGIN_LABELED_STATE
7.0
BEGIN_STATE
4 3
0 1 4
0 2 0
1 0
1 4
2 1
2 2
END_STATE
END_LABELED_STATE
BEGIN_LABELED_STATE
6.0
BEGIN_STATE
3
0 1 4
0 2 0
1 0
1 3
1 4
2 1
2 2
2 3
END_STATE
END_LABELED_STATE
BEGIN_LABELED_STATE
5.0
BEGIN_STATE
4 1
0 2 0
1 0
1 3
1 4
2 2
2 3
2 4
END_STATE
END_LABELED_STATE
BEGIN_LABELED_STATE
4.0
BEGIN_STATE
3
0 1 3
0 2 0
1 0
1 3
1 4
2 1
2 2
2 4
END_STATE
END_LABELED_STATE
BEGIN_LABELED_STATE
4.0
BEGIN_STATE
3
0 2 0
1 0
1 1
1 3
1 4
2 1
2 2
2 3
2 4
END_STATE
END_LABELED_STATE
BEGIN_LABELED_STATE
5.0
BEGIN_STATE
4 4
0 2 0
1 0
1 1
1 3
2 1
2 2
2 3
END_STATE
END_LABELED_STATE
BEGIN_LABELED_STATE
4.0
BEGIN_STATE
3
0 2 0
0 4 1
1 0
1 1
1 3
2 2
2 3
2 4
END_STATE
END_LABELED_STATE
BEGIN_LABELED_STATE
4.0
BEGIN_STATE
3
0 2 0
0 4 3
1 0
1 1
1 3
2 1
2 2
2 4
END_STATE
END_LABELED_STATE
BEGIN_LABELED_STATE
5.0
BEGIN_STATE
4 1
0 2 0
0 4 3
1 0
1 3
2 2
2 4
END_STATE
END_LABELED_STATE
BEGIN_LABELED_STATE
6.0
BEGIN_STATE
3
0 1 4
0 2 0
0 4 3
1 0
1 3
2 1
2 2
END_STATE
END_LABELED_STATE
BEGIN_LABELED_STATE
5.0
BEGIN_STATE
4 2
0 1 4
0 4 3
1 0
1 3
2 0
2 1
END_STATE
END_LABELED_STATE
BEGIN_LABELED_STATE
4.0
BEGIN_STATE
3
0 1 4
0 4 3
1 0
1 2
1 3
2 0
2 1
2 2
END_STATE
END_LABELED_STATE
BEGIN_LABELED_STATE
5.0
BEGIN_STATE
4 0
0 1 4
0 4 3
1 2
1 3
2 1
2 2
END_STATE
END_LABELED_STATE
BEGIN_LABELED_STATE
4.0
BEGIN_STATE
3
0 0 2
0 1 4
0 4 3
1 2
1 3
2 0
2 1
END_STATE
END_LABELED_STATE
BEGIN_LABELED_STATE
3.0
BEGIN_STATE
4 1
0 0 2
0 4 3
1 2
1 3
2 0
2 4
END_STATE
END_LABELED_STATE
BEGIN_LABELED_STATE
2.0
BEGIN_STATE
3
0 0 2
0 4 3
1 1
1 2
1 3
2 0
2 1
2 4
END_STATE
END_LABELED_STATE
BEGIN_LABELED_STATE
3.0
BEGIN_STATE
4 4
0 0 2
1 1
1 2
1 3
2 0
2 1
2 3
END_STATE
END_LABELED_STATE
BEGIN_LABELED_STATE
2.0
BEGIN_STATE
3
0 0 2
1 1
1 2
1 3
1 4
2 0
2 1
2 3
2 4
END_STATE
END_LABELED_STATE
BEGIN_LABELED_STATE
3.0
BEGIN_STATE
4 3
0 0 2
1 1
1 2
1 4
2 0
2 1
2 4
END_STATE
END_LABELED_STATE
BEGIN_LABELED_STATE
4.0
BEGIN_STATE
3
0 0 2
0 3 4
1 1
1 2
1 4
2 0
2 1
2 3
END_STATE
END_LABELED_STATE
BEGIN_LABELED_STATE
5.0
BEGIN_STATE
4 1
0 0 2
0 3 4
1 2
1 4
2 0
2 3
END_STATE
END_LABELED_STATE
BEGIN_LABELED_STATE
6.0
BEGIN_STATE
3
0 0 2
0 1 3
0 3 4
1 2
1 4
2 0
2 1
END_STATE
END_LABELED_STATE
BEGIN_LABELED_STATE
7.0
BEGIN_STATE
4 0
0 1 3
0 3 4
1 2
1 4
2 1
2 2
END_STATE
END_LABELED_STATE
BEGIN_LABELED_STATE
6.0
BEGIN_STATE
3
0 1 3
0 3 4
1 0
1 2
1 4
2 0
2 1
2 2
END_STATE
END_LABELED_STATE
BEGIN_LABELED_STATE
5.0
BEGIN_STATE
4 1
0 3 4
1 0
1 2
1 4
2 0
2 2
2 3
END_STATE
END_LABELED_STATE
BEGIN_LABELED_STATE
7.0
BEGIN_STATE
4 2
0 1 3
0 3 4
1 0
1 4
2 0
2 1
END_STATE
END_LABELED_STATE
BEGIN_LABELED_STATE
8.0
BEGIN_STATE
3
0 1 3
0 2 1
0 3 4
1 0
1 4
2 0
2 2
END_STATE
END_LABELED_STATE
BEGIN_LABELED_STATE
9.0
BEGIN_STATE
4 0
0 1 3
0 2 1
0 3 4
1 4
2 2
END_STATE
END_LABELED_STATE
BEGIN_LABELED_STATE
10.0
BEGIN_STATE
3
0 0 2
0 1 3
0 2 1
0 3 4
1 4
2 0
END_STATE
END_LABELED_STATE
BEGIN_LABELED_STATE
8.0
BEGIN_STATE
3
0 1 3
0 2 0
0 3 4
1 0
1 4
2 1
2 2
END_STATE
END_LABELED_STATE
BEGIN_LABELED_STATE
7.0
BEGIN_STATE
4 1
0 2 0
0 3 4
1 0
1 4
2 2
2 3
END_STATE
END_LABELED_STATE
BEGIN_LABELED_STATE
6.0
BEGIN_STATE
3
0 2 0
0 3 4
1 0
1 1
1 4
2 1
2 2
2 3
END_STATE
END_LABELED_STATE
BEGIN_LABELED_STATE
5.0
BEGIN_STATE
4 3
0 2 0
1 0
1 1
1 4
2 1
2 2
2 4
END_STATE
END_LABELED_STATE
BEGIN_LABELED_STATE
4.0
BEGIN_STATE
3
0 2 0
0 3 1
1 0
1 1
1 4
2 2
2 3
2 4
END_STATE
END_LABELED_STATE
BEGIN_LABELED_STATE
6.0
BEGIN_STATE
3
0 2 0
0 3 2
1 0
1 1
1 4
2 1
2 3
2 4
END_STATE
END_LABELED_STATE
BEGIN_LABELED_STATE
7.0
BEGIN_STATE
4 4
0 2 0
0 3 2
1 0
1 1
2 1
2 3
END_STATE
END_LABELED_STATE
BEGIN_LABELED_STATE
8.0
BEGIN_STATE
3
0 2 0
0 3 2
0 4 3
1 0
1 1
2 1
2 4
END_STATE
END_LABELED_STATE
BEGIN_LABELED_STATE
9.0
BEGIN_STATE
4 1
0 2 0
0 3 2
0 4 3
1 0
2 4
END_STATE
END_LABELED_STATE
BEGIN_LABELED_STATE
10.0
BEGIN_STATE
3
0 1 4
0 2 0
0 3 2
0 4 3
1 0
2 1
END_STATE
END_LABELED_STATE
BEGIN_LABELED_STATE
6.0
BEGIN_STATE
3
0 2 0
0 3 2
0 4 1
1 0
1 1
2 3
2 4
END_STATE
END_LABELED_STATE
BEGIN_LABELED_STATE
5.0
BEGIN_STATE
4 3
0 2 0
0 4 1
1 0
1 1
2 2
2 4
END_STATE
END_LABELED_STATE
BEGIN_LABELED_STATE
6.0
BEGIN_STATE
3
0 2 0
0 3 4
0 4 1
1 0
1 1
2 2
2 3
END_STATE
END_LABELED_STATE
BEGIN_LABELED_STATE
5.0
BEGIN_STATE
4 2
0 3 4
0 4 1
1 0
1 1
2 0
2 3
END_STATE
END_LABELED_STATE
BEGIN_LABELED_STATE
4.0
BEGIN_STATE
3
0 3 4
0 4 1
1 0
1 1
1 2
2 0
2 2
2 3
END_STATE
END_LABELED_STATE
BEGIN_LABELED_STATE
5.0
BEGIN_STATE
4 0
0 3 4
0 4 1
1 1
1 2
2 2
2 3
END_STATE
END_LABELED_STATE
BEGIN_LABELED_STATE
4.0
BEGIN_STATE
3
0 0 2
0 3 4
0 4 1
1 1
1 2
2 0
2 3
END_STATE
END_LABELED_STATE
BEGIN_LABELED_STATE
3.0
BEGIN_STATE
4 3
0 0 2
0 4 1
1 1
1 2
2 0
2 4
END_STATE
END_LABELED_STATE
BEGIN_LABELED_STATE
2.0
BEGIN_STATE
3
0 0 2
0 4 1
1 1
1 2
1 3
2 0
2 3
2 4
END_STATE
END_LABELED_STATE
BEGIN_LABELED_STATE
6.0
BEGIN_STATE
3
0 0 3
0 3 4
0 4 1
1 1
1 2
2 0
2 2
END_STATE
END_LABELED_STATE
BEGIN_LABELED_STATE
7.0
BEGIN_STATE
4 2
0 0 3
0 3 4
0 4 1
1 1
2 0
END_STATE
END_LABELED_STATE
BEGIN_LABELED_STATE
8.0
BEGIN_STATE
3
0 0 3
0 2 0
0 3 4
0 4 1
1 1
2 2
END_STATE
END_LABELED_STATE
BEGIN_LABELED_STATE
4.0
BEGIN_STATE
3
0 0 2
0 3 0
0 4 1
1 1
1 2
2 3
2 4
END_STATE
END_LABELED_STATE
BEGIN_LABELED_STATE
5.0
BEGIN_STATE
4 4
0 0 2
0 3 0
1 1
1 2
2 1
2 3
END_STATE
END_LABELED_STATE
BEGIN_LABELED_STATE
4.0
BEGIN_STATE
3
0 0 2
0 3 0
1 1
1 2
1 4
2 1
2 3
2 4
END_STATE
END_LABELED_STATE
BEGIN_LABELED_STATE
5.0
BEGIN_STATE
4 1
0 0 2
0 3 0
1 2
1 4
2 3
2 4
END_STATE
END_LABELED_STATE
BEGIN_LABELED_STATE
6.0
BEGIN_STATE
3
0 0 2
0 1 4
0 3 0
1 2
1 4
2 1
2 3
END_STATE
END_LABELED_STATE
BEGIN_LABELED_STATE
5.0
BEGIN_STATE
4 3
0 0 2
0 1 4
1 2
1 4
2 0
2 1
END_STATE
END_LABELED_STATE
BEGIN_LABELED_STATE
4.0
BEGIN_STATE
3
0 0 2
0 1 4
1 2
1 3
1 4
2 0
2 1
2 3
END_STATE
END_LABELED_STATE
BEGIN_LABELED_STATE
3.0
BEGIN_STATE
4 1
0 0 2
1 2
1 3
1 4
2 0
2 3
2 4
END_STATE
END_LABELED_STATE
BEGIN_LABELED_STATE
2.0
BEGIN_STATE
3
0 0 2
0 1 3
1 2
1 3
1 4
2 0
2 1
2 4
END_STATE
END_LABELED_STATE
BEGIN_LABELED_STATE
3.0
BEGIN_STATE
4 4
0 0 2
0 1 3
1 2
1 3
2 0
2 1
END_STATE
END_LABELED_STATE
BEGIN_LABELED_STATE
2.0
BEGIN_STATE
3
0 0 2
0 1 3
0 4 1
1 2
1 3
2 0
2 4
END_STATE
END_LABELED_STATE
BEGIN_LABELED_STATE
1.0
BEGIN_STATE
4 0
0 1 3
0 4 1
1 2
1 3
2 2
2 4
END_STATE
END_LABELED_STATE
BEGIN_LABELED_STATE
0.0
BEGIN_STATE
3
0 0 4
0 1 3
0 4 1
1 2
1 3
2 0
2 2
END_STATE
END_LABELED_STATE
BEGIN_LABELED_STATE
2.0
BEGIN_STATE
3
0 1 3
0 4 1
1 0
1 2
1 3
2 0
2 2
2 4
END_STATE
END_LABELED_STATE
BEGIN_LABELED_STATE
3.0
BEGIN_STATE
4 2
0 1 3
0 4 1
1 0
1 3
2 0
2 4
END_STATE
END_LABELED_STATE
BEGIN_LABELED_STATE
4.0
BEGIN_STATE
3
0 1 3
0 2 4
0 4 1
1 0
1 3
2 0
2 2
END_STATE
END_LABELED_STATE
BEGIN_LABELED_STATE
5.0
BEGIN_STATE
4 0
0 1 3
0 2 4
0 4 1
1 3
2 2
END_STATE
END_LABELED_STATE
BEGIN_LABELED_STATE
6.0
BEGIN_STATE
3
0 0 2
0 1 3
0 2 4
0 4 1
1 3
2 0
END_STATE
END_LABELED_STATE
BEGIN_LABELED_STATE
4.0
BEGIN_STATE
3
0 1 3
0 2 0
0 4 1
1 0
1 3
2 2
2 4
END_STATE
END_LABELED_STATE
BEGIN_LABELED_STATE
5.0
BEGIN_STATE
4 4
0 1 3
0 2 0
1 0
1 3
2 1
2 2
END_STATE
END_LABELED_STATE
BEGIN_LABELED_STATE
6.0
BEGIN_STATE
3
0 1 3
0 2 0
0 4 2
1 0
1 3
2 1
2 4
END_STATE
END_LABELED_STATE
BEGIN_LABELED_STATE
7.0
BEGIN_STATE
4 1
0 2 0
0 4 2
1 0
1 3
2 3
2 4
END_STATE
END_LABELED_STATE
BEGIN_LABELED_STATE
6.0
BEGIN_STATE
3
0 2 0
0 4 2
1 0
1 1
1 3
2 1
2 3
2 4
END_STATE
END_LABELED_STATE
BEGIN_LABELED_STATE
7.0
BEGIN_STATE
4 3
0 2 0
0 4 2
1 0
1 1
2 1
2 4
END_STATE
END_LABELED_STATE
BEGIN_LABELED_STATE
8.0
BEGIN_STATE
3
0 2 0
0 3 4
0 4 2
1 0
1 1
2 1
2 3
END_STATE
END_LABELED_STATE
BEGIN_LABELED_STATE
9.0
BEGIN_STATE
4 1
0 2 0
0 3 4
0 4 2
1 0
2 3
END_STATE
END_LABELED_STATE
BEGIN_LABELED_STATE
10.0
BEGIN_STATE
3
0 1 3
0 2 0
0 3 4
0 4 2
1 0
2 1
END_STATE
END_LABELED_STATE
BEGIN_LABELED_STATE
6.0
BEGIN_STATE
3
0 2 0
0 3 1
0 4 2
1 0
1 1
2 3
2 4
END_STATE
END_LABELED_STATE
BEGIN_LABELED_STATE
5.0
BEGIN_STATE
4 4
0 2 0
0 3 1
1 0
1 1
2 2
2 3
END_STATE
END_LABELED_STATE
BEGIN_LABELED_STATE
4.0
BEGIN_STATE
3
0 2 0
0 3 1
0 4 3
1 0
1 1
2 2
2 4
END_STATE
END_LABELED_STATE
BEGIN_LABELED_STATE
3.0
BEGIN_STATE
4 2
0 3 1
0 4 3
1 0
1 1
2 0
2 4
END_STATE
END_LABELED_STATE
BEGIN_LABELED_STATE
2.0
BEGIN_STATE
3
0 3 1
0 4 3
1 0
1 1
1 2
2 0
2 2
2 4
END_STATE
END_LABELED_STATE
BEGIN_LABELED_STATE
1.0
BEGIN_STATE
4 0
0 3 1
0 4 3
1 1
1 2
2 2
2 4
END_STATE
END_LABELED_STATE
BEGIN_LABELED_STATE
0.0
BEGIN_STATE
3
0 0 4
0 3 1
0 4 3
1 1
1 2
2 0
2 2
END_STATE
END_LABELED_STATE
BEGIN_LABELED_STATE
0.0
BEGIN_STATE
4 2
0 0 4
0 3 1
0 4 3
1 1
2 0
END_STATE
END_LABELED_STATE
BEGIN_LABELED_STATE
0.0
BEGIN_STATE
3
0 0 4
0 2 0
0 3 1
0 4 3
1 1
2 2
END_STATE
END_LABELED_STATE
BEGIN_LABELED_STATE
2.0
BEGIN_STATE
3
0 0 2
0 3 1
0 4 3
1 1
1 2
2 0
2 4
END_STATE
END_LABELED_STATE
BEGIN_LABELED_STATE
3.0
BEGIN_STATE
4 4
0 0 2
0 3 1
1 1
1 2
2 0
2 3
END_STATE
END_LABELED_STATE
BEGIN_LABELED_STATE
2.0
BEGIN_STATE
3
0 0 2
0 3 1
1 1
1 2
1 4
2 0
2 3
2 4
END_STATE
END_LABELED_STATE
BEGIN_LABELED_STATE
4.0
BEGIN_STATE
3
0 0 2
0 3 1
0 4 0
1 1
1 2
2 3
2 4
END_STATE
END_LABELED_STATE
BEGIN_LABELED_STATE
5.0
BEGIN_STATE
4 3
0 0 2
0 4 0
1 1
1 2
2 1
2 4
END_STATE
END_LABELED_STATE
BEGIN_LABELED_STATE
4.0
BEGIN_STATE
3
0 0 2
0 4 0
1 1
1 2
1 3
2 1
2 3
2 4
END_STATE
END_LABELED_STATE
BEGIN_LABELED_STATE
5.0
BEGIN_STATE
4 1
0 0 2
0 4 0
1 2
1 3
2 3
2 4
END_STATE
END_LABELED_STATE
BEGIN_LABELED_STATE
4.0
BEGIN_STATE
3
0 0 2
0 1 3
0 4 0
1 2
1 3
2 1
2 4
END_STATE
END_LABELED_STATE
BEGIN_LABELED_STATE
6.0
BEGIN_STATE
3
0 0 2
0 1 4
0 4 0
1 2
1 3
2 1
2 3
END_STATE
END_LABELED_STATE
BEGIN_LABELED_STATE
7.0
BEGIN_STATE
4 3
0 0 2
0 1 4
0 4 0
1 2
2 1
END_STATE
END_LABELED_STATE
BEGIN_LABELED_STATE
8.0
BEGIN_STATE
3
0 0 2
0 1 4
0 3 1
0 4 0
1 2
2 3
END_STATE
END_LABELED_STATE
BEGIN_LABELED_STATE
6.0
BEGIN_STATE
3
0 0 2
0 3 4
0 4 0
1 1
1 2
2 1
2 3
END_STATE
END_LABELED_STATE
BEGIN_LABELED_STATE
7.0
BEGIN_STATE
4 1
0 0 2
0 3 4
0 4 0
1 2
2 3
END_STATE
END_LABELED_STATE
BEGIN_LABELED_STATE
8.0
BEGIN_STATE
3
0 0 2
0 1 3
0 3 4
0 4 0
1 2
2 1
END_STATE
END_LABELED_STATE
BEGIN_LABELED_STATE
4.0
BEGIN_STATE
3
0 2 4
0 3 1
0 4 3
1 0
1 1
2 0
2 2
END_STATE
END_LABELED_STATE
BEGIN_LABELED_STATE
5.0
BEGIN_STATE
4 0
0 2 4
0 3 1
0 4 3
1 1
2 2
END_STATE
END_LABELED_STATE
BEGIN_LABELED_STATE
6.0
BEGIN_STATE
3
0 0 2
0 2 4
0 3 1
0 4 3
1 1
2 0
END_STATE
END_LABELED_STATE
BEGIN_LABELED_STATE
8.0
BEGIN_STATE
3
0 1 4
0 2 0
0 4 2
1 0
1 3
2 1
2 3
END_STATE
END_LABELED_STATE
BEGIN_LABELED_STATE
9.0
BEGIN_STATE
4 3
0 1 4
0 2 0
0 4 2
1 0
2 1
END_STATE
END_LABELED_STATE
BEGIN_LABELED_STATE
10.0
BEGIN_STATE
3
0 1 4
0 2 0
0 3 1
0 4 2
1 0
2 3
END_STATE
END_LABELED_STATE
BEGIN_LABELED_STATE
0.0
BEGIN_STATE
4 2
0 0 4
0 1 3
0 4 1
1 3
2 0
END_STATE
END_LABELED_STATE
BEGIN_LABELED_STATE
0.0
BEGIN_STATE
3
0 0 4
0 1 3
0 2 0
0 4 1
1 3
2 2
END_STATE
END_LABELED_STATE
BEGIN_LABELED_STATE
4.0
BEGIN_STATE
3
0 0 2
0 1 0
1 2
1 3
1 4
2 1
2 3
2 4
END_STATE
END_LABELED_STATE
BEGIN_LABELED_STATE
5.0
BEGIN_STATE
4 4
0 0 2
0 1 0
1 2
1 3
2 1
2 3
END_STATE
END_LABELED_STATE
BEGIN_LABELED_STATE
4.0
BEGIN_STATE
3
0 0 2
0 1 0
0 4 3
1 2
1 3
2 1
2 4
END_STATE
END_LABELED_STATE
BEGIN_LABELED_STATE
6.0
BEGIN_STATE
3
0 0 2
0 1 0
0 4 1
1 2
1 3
2 3
2 4
END_STATE
END_LABELED_STATE
BEGIN_LABELED_STATE
7.0
BEGIN_STATE
4 3
0 0 2
0 1 0
0 4 1
1 2
2 4
END_STATE
END_LABELED_STATE
BEGIN_LABELED_STATE
8.0
BEGIN_STATE
3
0 0 2
0 1 0
0 3 4
0 4 1
1 2
2 3
END_STATE
END_LABELED_STATE
BEGIN_LABELED_STATE
5.0
BEGIN_STATE
4 3
0 0 2
0 1 0
1 2
1 4
2 1
2 4
END_STATE
END_LABELED_STATE
BEGIN_LABELED_STATE
6.0
BEGIN_STATE
3
0 0 2
0 1 0
0 3 4
1 2
1 4
2 1
2 3
END_STATE
END_LABELED_STATE
BEGIN_LABELED_STATE
6.0
BEGIN_STATE
3
0 0 2
0 1 0
0 3 1
1 2
1 4
2 3
2 4
END_STATE
END_LABELED_STATE
BEGIN_LABELED_STATE
7.0
BEGIN_STATE
4 4
0 0 2
0 1 0
0 3 1
1 2
2 3
END_STATE
END_LABELED_STATE
BEGIN_LABELED_STATE
8.0
BEGIN_STATE
3
0 0 2
0 1 0
0 3 1
0 4 3
1 2
2 4
END_STATE
END_LABELED_STATE
BEGIN_LABELED_STATE
5.0
BEGIN_STATE
4 0
0 1 4
1 2
1 3
1 4
2 1
2 2
2 3
END_STATE
END_LABELED_STATE
BEGIN_LABELED_STATE
6.0
BEGIN_STATE
3
0 0 1
0 1 4
1 2
1 3
1 4
2 0
2 2
2 3
END_STATE
END_LABELED_STATE
BEGIN_LABELED_STATE
7.0
BEGIN_STATE
4 3
0 0 1
0 1 4
1 2
1 4
2 0
2 2
END_STATE
END_LABELED_STATE
BEGIN_LABELED_STATE
6.0
BEGIN_STATE
3
0 0 1
0 1 4
0 3 2
1 2
1 4
2 0
2 3
END_STATE
END_LABELED_STATE
BEGIN_LABELED_STATE
8.0
BEGIN_STATE
3
0 0 1
0 1 4
0 3 0
1 2
1 4
2 2
2 3
END_STATE
END_LABELED_STATE
BEGIN_LABELED_STATE
9.0
BEGIN_STATE
4 2
0 0 1
0 1 4
0 3 0
1 4
2 3
END_STATE
END_LABELED_STATE
BEGIN_LABELED_STATE
10.0
BEGIN_STATE
3
0 0 1
0 1 4
0 2 3
0 3 0
1 4
2 2
END_STATE
END_LABELED_STATE
BEGIN_LABELED_STATE
7.0
BEGIN_STATE
4 2
0 0 1
0 1 4
1 3
1 4
2 0
2 3
END_STATE
END_LABELED_STATE
BEGIN_LABELED_STATE
6.0
BEGIN_STATE
3
0 0 1
0 1 4
0 2 3
1 3
1 4
2 0
2 2
END_STATE
END_LABELED_STATE
BEGIN_LABELED_STATE
5.0
BEGIN_STATE
4 0
0 1 4
0 2 3
1 3
1 4
2 1
2 2
END_STATE
END_LABELED_STATE
BEGIN_LABELED_STATE
4.0
BEGIN_STATE
3
0 0 2
0 1 4
0 2 3
1 3
1 4
2 0
2 1
END_STATE
END_LABELED_STATE
BEGIN_LABELED_STATE
3.0
BEGIN_STATE
4 1
0 0 2
0 2 3
1 3
1 4
2 0
2 4
END_STATE
END_LABELED_STATE
BEGIN_LABELED_STATE
2.0
BEGIN_STATE
3
0 0 2
0 2 3
1 1
1 3
1 4
2 0
2 1
2 4
END_STATE
END_LABELED_STATE
BEGIN_LABELED_STATE
2.0
BEGIN_STATE
3
0 1 2
0 2 3
1 0
1 3
1 4
2 0
2 1
2 4
END_STATE
END_LABELED_STATE
BEGIN_LABELED_STATE
1.0
BEGIN_STATE
4 0
0 1 2
0 2 3
1 3
1 4
2 1
2 4
END_STATE
END_LABELED_STATE
BEGIN_LABELED_STATE
0.0
BEGIN_STATE
3
0 0 4
0 1 2
0 2 3
1 3
1 4
2 0
2 1
END_STATE
END_LABELED_STATE
BEGIN_LABELED_STATE
3.0
BEGIN_STATE
4 4
0 1 2
0 2 3
1 0
1 3
2 0
2 1
END_STATE
END_LABELED_STATE
BEGIN_LABELED_STATE
2.0
BEGIN_STATE
3
0 1 2
0 2 3
0 4 1
1 0
1 3
2 0
2 4
END_STATE
END_LABELED_STATE
BEGIN_LABELED_STATE
1.0
BEGIN_STATE
4 0
0 1 2
0 2 3
0 4 1
1 3
2 4
END_STATE
END_LABELED_STATE
BEGIN_LABELED_STATE
0.0
BEGIN_STATE
3
0 0 4
0 1 2
0 2 3
0 4 1
1 3
2 0
END_STATE
END_LABELED_STATE
BEGIN_LABELED_STATE
4.0
BEGIN_STATE
3
0 1 2
0 2 3
0 4 0
1 0
1 3
2 1
2 4
END_STATE
END_LABELED_STATE
BEGIN_LABELED_STATE
5.0
BEGIN_STATE
4 1
0 2 3
0 4 0
1 0
1 3
2 2
2 4
END_STATE
END_LABELED_STATE
BEGIN_LABELED_STATE
4.0
BEGIN_STATE
3
0 2 3
0 4 0
1 0
1 1
1 3
2 1
2 2
2 4
END_STATE
END_LABELED_STATE
BEGIN_LABELED_STATE
6.0
BEGIN_STATE
3
0 1 4
0 2 3
0 4 0
1 0
1 3
2 1
2 2
END_STATE
END_LABELED_STATE
BEGIN_LABELED_STATE
7.0
BEGIN_STATE
4 2
0 1 4
0 4 0
1 0
1 3
2 1
2 3
END_STATE
END_LABELED_STATE
BEGIN_LABELED_STATE
8.0
BEGIN_STATE
3
0 1 4
0 2 1
0 4 0
1 0
1 3
2 2
2 3
END_STATE
END_LABELED_STATE
BEGIN_LABELED_STATE
9.0
BEGIN_STATE
4 3
0 1 4
0 2 1
0 4 0
1 0
2 2
END_STATE
END_LABELED_STATE
BEGIN_LABELED_STATE
10.0
BEGIN_STATE
3
0 1 4
0 2 1
0 3 2
0 4 0
1 0
2 3
END_STATE
END_LABELED_STATE
BEGIN_LABELED_STATE
2.0
BEGIN_STATE
3
0 0 1
0 1 2
0 2 3
1 3
1 4
2 0
2 4
END_STATE
END_LABELED_STATE
BEGIN_LABELED_STATE
3.0
BEGIN_STATE
4 4
0 0 1
0 1 2
0 2 3
1 3
2 0
END_STATE
END_LABELED_STATE
BEGIN_LABELED_STATE
4.0
BEGIN_STATE
3
0 0 1
0 1 2
0 2 3
0 4 0
1 3
2 4
END_STATE
END_LABELED_STATE
BEGIN_LABELED_STATE
3.0
BEGIN_STATE
4 4
0 0 2
0 2 3
1 1
1 3
2 0
2 1
END_STATE
END_LABELED_STATE
BEGIN_LABELED_STATE
2.0
BEGIN_STATE
3
0 0 2
0 2 3
0 4 1
1 1
1 3
2 0
2 4
END_STATE
END_LABELED_STATE
BEGIN_LABELED_STATE
4.0
BEGIN_STATE
3
0 0 2
0 2 3
0 4 0
1 1
1 3
2 1
2 4
END_STATE
END_LABELED_STATE
BEGIN_LABELED_STATE
5.0
BEGIN_STATE
4 1
0 0 2
0 2 3
0 4 0
1 3
2 4
END_STATE
END_LABELED_STATE
BEGIN_LABELED_STATE
6.0
BEGIN_STATE
3
0 0 2
0 1 4
0 2 3
0 4 0
1 3
2 1
END_STATE
END_LABELED_STATE
BEGIN_LABELED_STATE
4.0
BEGIN_STATE
3
0 0 2
0 1 0
0 2 3
1 3
1 4
2 1
2 4
END_STATE
END_LABELED_STATE
BEGIN_LABELED_STATE
5.0
BEGIN_STATE
4 4
0 0 2
0 1 0
0 2 3
1 3
2 1
END_STATE
END_LABELED_STATE
BEGIN_LABELED_STATE
6.0
BEGIN_STATE
3
0 0 2
0 1 0
0 2 3
0 4 1
1 3
2 4
END_STATE
END_LABELED_STATE
BEGIN_LABELED_STATE
8.0
BEGIN_STATE
3
0 0 1
0 1 4
0 2 0
1 3
1 4
2 2
2 3
END_STATE
END_LABELED_STATE
BEGIN_LABELED_STATE
9.0
BEGIN_STATE
4 3
0 0 1
0 1 4
0 2 0
1 4
2 2
END_STATE
END_LABELED_STATE
BEGIN_LABELED_STATE
10.0
BEGIN_STATE
3
0 0 1
0 1 4
0 2 0
0 3 2
1 4
2 3
END_STATE
END_LABELED_STATE
BEGIN_LABELED_STATE
6.0
BEGIN_STATE
3
0 0 2
0 1 4
0 3 1
1 2
1 4
2 0
2 3
END_STATE
END_LABELED_STATE
BEGIN_LABELED_STATE
7.0
BEGIN_STATE
4 0
0 1 4
0 3 1
1 2
1 4
2 2
2 3
END_STATE
END_LABELED_STATE
BEGIN_LABELED_STATE
8.0
BEGIN_STATE
3
0 0 3
0 1 4
0 3 1
1 2
1 4
2 0
2 2
END_STATE
END_LABELED_STATE
BEGIN_LABELED_STATE
9.0
BEGIN_STATE
4 2
0 0 3
0 1 4
0 3 1
1 4
2 0
END_STATE
END_LABELED_STATE
BEGIN_LABELED_STATE
10.0
BEGIN_STATE
3
0 0 3
0 1 4
0 2 0
0 3 1
1 4
2 2
END_STATE
END_LABELED_STATE
BEGIN_LABELED_STATE
6.0
BEGIN_STATE
3
0 0 2
0 1 3
0 3 0
1 2
1 4
2 1
2 4
END_STATE
END_LABELED_STATE
BEGIN_LABELED_STATE
7.0
BEGIN_STATE
4 4
0 0 2
0 1 3
0 3 0
1 2
2 1
END_STATE
END_LABELED_STATE
BEGIN_LABELED_STATE
8.0
BEGIN_STATE
3
0 0 2
0 1 3
0 3 0
0 4 1
1 2
2 4
END_STATE
END_LABELED_STATE
BEGIN_LABELED_STATE
6.0
BEGIN_STATE
3
0 0 2
0 3 0
0 4 3
1 1
1 2
2 1
2 4
END_STATE
END_LABELED_STATE
BEGIN_LABELED_STATE
7.0
BEGIN_STATE
4 1
0 0 2
0 3 0
0 4 3
1 2
2 4
END_STATE
END_LABELED_STATE
BEGIN_LABELED_STATE
8.0
BEGIN_STATE
3
0 0 2
0 1 4
0 3 0
0 4 3
1 2
2 1
END_STATE
END_LABELED_STATE
BEGIN_LABELED_STATE
6.0
BEGIN_STATE
3
0 2 3
0 3 4
0 4 1
1 0
1 1
2 0
2 2
END_STATE
END_LABELED_STATE
BEGIN_LABELED_STATE
7.0
BEGIN_STATE
4 0
0 2 3
0 3 4
0 4 1
1 1
2 2
END_STATE
END_LABELED_STATE
BEGIN_LABELED_STATE
8.0
BEGIN_STATE
3
0 0 2
0 2 3
0 3 4
0 4 1
1 1
2 0
END_STATE
END_LABELED_STATE
BEGIN_LABELED_STATE
7.0
BEGIN_STATE
4 1
0 2 0
0 3 2
1 0
1 4
2 3
2 4
END_STATE
END_LABELED_STATE
BEGIN_LABELED_STATE
8.0
BEGIN_STATE
3
0 1 4
0 2 0
0 3 2
1 0
1 4
2 1
2 3
END_STATE
END_LABELED_STATE
BEGIN_LABELED_STATE
8.0
BEGIN_STATE
3
0 1 3
0 2 0
0 3 2
1 0
1 4
2 1
2 4
END_STATE
END_LABELED_STATE
BEGIN_LABELED_STATE
9.0
BEGIN_STATE
4 4
0 1 3
0 2 0
0 3 2
1 0
2 1
END_STATE
END_LABELED_STATE
BEGIN_LABELED_STATE
10.0
BEGIN_STATE
3
0 1 3
0 2 0
0 3 2
0 4 1
1 0
2 4
END_STATE
END_LABELED_STATE
BEGIN_LABELED_STATE
8.0
BEGIN_STATE
3
0 1 2
0 2 0
0 3 4
1 0
1 4
2 1
2 3
END_STATE
END_LABELED_STATE
BEGIN_LABELED_STATE
7.0
BEGIN_STATE
4 3
0 1 2
0 2 0
1 0
1 4
2 1
2 4
END_STATE
END_LABELED_STATE
BEGIN_LABELED_STATE
6.0
BEGIN_STATE
3
0 1 2
0 2 0
1 0
1 3
1 4
2 1
2 3
2 4
END_STATE
END_LABELED_STATE
BEGIN_LABELED_STATE
7.0
BEGIN_STATE
4 4
0 1 2
0 2 0
1 0
1 3
2 1
2 3
END_STATE
END_LABELED_STATE
BEGIN_LABELED_STATE
6.0
BEGIN_STATE
3
0 1 2
0 2 0
0 4 3
1 0
1 3
2 1
2 4
END_STATE
END_LABELED_STATE
BEGIN_LABELED_STATE
8.0
BEGIN_STATE
3
0 1 2
0 2 0
0 4 1
1 0
1 3
2 3
2 4
END_STATE
END_LABELED_STATE
BEGIN_LABELED_STATE
9.0
BEGIN_STATE
4 3
0 1 2
0 2 0
0 4 1
1 0
2 4
END_STATE
END_LABELED_STATE
BEGIN_LABELED_STATE
10.0
BEGIN_STATE
3
0 1 2
0 2 0
0 3 4
0 4 1
1 0
2 3
END_STATE
END_LABELED_STATE
BEGIN_LABELED_STATE
8.0
BEGIN_STATE
3
0 1 2
0 2 0
0 3 1
1 0
1 4
2 3
2 4
END_STATE
END_LABELED_STATE
BEGIN_LABELED_STATE
9.0
BEGIN_STATE
4 4
0 1 2
0 2 0
0 3 1
1 0
2 3
END_STATE
END_LABELED_STATE
BEGIN_LABELED_STATE
10.0
BEGIN_STATE
3
0 1 2
0 2 0
0 3 1
0 4 3
1 0
2 4
END_STATE
END_LABELED_STATE
BEGIN_LABELED_STATE
8.0
BEGIN_STATE
3
0 0 1
0 1 3
0 3 4
1 2
1 4
2 0
2 2
END_STATE
END_LABELED_STATE
BEGIN_LABELED_STATE
9.0
BEGIN_STATE
4 2
0 0 1
0 1 3
0 3 4
1 4
2 0
END_STATE
END_LABELED_STATE
BEGIN_LABELED_STATE
10.0
BEGIN_STATE
3
0 0 1
0 1 3
0 2 0
0 3 4
1 4
2 2
END_STATE
END_LABELED_STATE
BEGIN_LABELED_STATE
6.0
BEGIN_STATE
3
0 0 1
0 1 4
0 4 3
1 2
1 3
2 0
2 2
END_STATE
END_LABELED_STATE
BEGIN_LABELED_STATE
7.0
BEGIN_STATE
4 2
0 0 1
0 1 4
0 4 3
1 3
2 0
END_STATE
END_LABELED_STATE
BEGIN_LABELED_STATE
8.0
BEGIN_STATE
3
0 0 1
0 1 4
0 2 0
0 4 3
1 3
2 2
END_STATE
END_LABELED_STATE
BEGIN_LABELED_STATE
6.0
BEGIN_STATE
3
0 1 4
0 2 1
0 4 3
1 0
1 3
2 0
2 2
END_STATE
END_LABELED_STATE
BEGIN_LABELED_STATE
7.0
BEGIN_STATE
4 0
0 1 4
0 2 1
0 4 3
1 3
2 2
END_STATE
END_LABELED_STATE
BEGIN_LABELED_STATE
8.0
BEGIN_STATE
3
0 0 2
0 1 4
0 2 1
0 4 3
1 3
2 0
END_STATE
END_LABELED_STATE
BEGIN_LABELED_STATE
8.0
BEGIN_STATE
3
0 1 4
0 2 1
0 3 2
1 0
1 4
2 0
2 3
END_STATE
END_LABELED_STATE
BEGIN_LABELED_STATE
9.0
BEGIN_STATE
4 0
0 1 4
0 2 1
0 3 2
1 4
2 3
END_STATE
END_LABELED_STATE
BEGIN_LABELED_STATE
10.0
BEGIN_STATE
3
0 0 3
0 1 4
0 2 1
0 3 2
1 4
2 0
END_STATE
END_LABELED_STATE
BEGIN_LABELED_STATE
6.0
BEGIN_STATE
3
0 1 2
0 3 0
0 4 3
1 0
1 2
2 1
2 4
END_STATE
END_LABELED_STATE
BEGIN_LABELED_STATE
7.0
BEGIN_STATE
4 1
0 3 0
0 4 3
1 0
1 2
2 2
2 4
END_STATE
END_LABELED_STATE
BEGIN_LABELED_STATE
6.0
BEGIN_STATE
3
0 3 0
0 4 3
1 0
1 1
1 2
2 1
2 2
2 4
END_STATE
END_LABELED_STATE
BEGIN_LABELED_STATE
7.0
BEGIN_STATE
4 2
0 3 0
0 4 3
1 0
1 1
2 1
2 4
END_STATE
END_LABELED_STATE
BEGIN_LABELED_STATE
8.0
BEGIN_STATE
3
0 2 4
0 3 0
0 4 3
1 0
1 1
2 1
2 2
END_STATE
END_LABELED_STATE
BEGIN_LABELED_STATE
9.0
BEGIN_STATE
4 1
0 2 4
0 3 0
0 4 3
1 0
2 2
END_STATE
END_LABELED_STATE
BEGIN_LABELED_STATE
10.0
BEGIN_STATE
3
0 1 2
0 2 4
0 3 0
0 4 3
1 0
2 1
END_STATE
END_LABELED_STATE
BEGIN_LABELED_STATE
6.0
BEGIN_STATE
3
0 2 1
0 3 0
0 4 3
1 0
1 1
2 2
2 4
END_STATE
END_LABELED_STATE
BEGIN_LABELED_STATE
5.0
BEGIN_STATE
4 4
0 2 1
0 3 0
1 0
1 1
2 2
2 3
END_STATE
END_LABELED_STATE
BEGIN_LABELED_STATE
4.0
BEGIN_STATE
3
0 2 1
0 3 0
0 4 2
1 0
1 1
2 3
2 4
END_STATE
END_LABELED_STATE
BEGIN_LABELED_STATE
3.0
BEGIN_STATE
4 3
0 2 1
0 4 2
1 0
1 1
2 0
2 4
END_STATE
END_LABELED_STATE
BEGIN_LABELED_STATE
2.0
BEGIN_STATE
3
0 2 1
0 4 2
1 0
1 1
1 3
2 0
2 3
2 4
END_STATE
END_LABELED_STATE
BEGIN_LABELED_STATE
1.0
BEGIN_STATE
4 0
0 2 1
0 4 2
1 1
1 3
2 3
2 4
END_STATE
END_LABELED_STATE
BEGIN_LABELED_STATE
0.0
BEGIN_STATE
3
0 0 4
0 2 1
0 4 2
1 1
1 3
2 0
2 3
END_STATE
END_LABELED_STATE
BEGIN_LABELED_STATE
0.0
BEGIN_STATE
4 3
0 0 4
0 2 1
0 4 2
1 1
2 0
END_STATE
END_LABELED_STATE
BEGIN_LABELED_STATE
0.0
BEGIN_STATE
3
0 0 4
0 2 1
0 3 0
0 4 2
1 1
2 3
END_STATE
END_LABELED_STATE
BEGIN_LABELED_STATE
2.0
BEGIN_STATE
3
0 0 3
0 2 1
0 4 2
1 1
1 3
2 0
2 4
END_STATE
END_LABELED_STATE
BEGIN_LABELED_STATE
3.0
BEGIN_STATE
4 4
0 0 3
0 2 1
1 1
1 3
2 0
2 2
END_STATE
END_LABELED_STATE
BEGIN_LABELED_STATE
2.0
BEGIN_STATE
3
0 0 3
0 2 1
1 1
1 3
1 4
2 0
2 2
2 4
END_STATE
END_LABELED_STATE
BEGIN_LABELED_STATE
0.0
BEGIN_STATE
4 3
0 0 4
0 2 1
1 1
1 4
2 0
2 2
END_STATE
END_LABELED_STATE
BEGIN_LABELED_STATE
2.0
BEGIN_STATE
3
0 0 3
0 2 1
0 3 2
1 1
1 4
2 0
2 4
END_STATE
END_LABELED_STATE
BEGIN_LABELED_STATE
3.0
BEGIN_STATE
4 4
0 0 3
0 2 1
0 3 2
1 1
2 0
END_STATE
END_LABELED_STATE
BEGIN_LABELED_STATE
4.0
BEGIN_STATE
3
0 0 3
0 2 1
0 3 2
0 4 0
1 1
2 4
END_STATE
END_LABELED_STATE
BEGIN_LABELED_STATE
0.0
BEGIN_STATE
3
0 0 4
0 2 1
0 3 0
1 1
1 4
2 2
2 3
END_STATE
END_LABELED_STATE
BEGIN_LABELED_STATE
0.0
BEGIN_STATE
4 2
0 0 4
0 3 0
1 1
1 4
2 1
2 3
END_STATE
END_LABELED_STATE
BEGIN_LABELED_STATE
0.0
BEGIN_STATE
3
0 0 4
0 3 0
1 1
1 2
1 4
2 1
2 2
2 3
END_STATE
END_LABELED_STATE
BEGIN_LABELED_STATE
0.0
BEGIN_STATE
4 1
0 0 4
0 3 0
1 2
1 4
2 2
2 3
END_STATE
END_LABELED_STATE
BEGIN_LABELED_STATE
0.0
BEGIN_STATE
3
0 0 4
0 1 3
0 3 0
1 2
1 4
2 1
2 2
END_STATE
END_LABELED_STATE
BEGIN_LABELED_STATE
0.0
BEGIN_STATE
4 2
0 0 4
0 1 3
0 3 0
1 4
2 1
END_STATE
END_LABELED_STATE
BEGIN_LABELED_STATE
0.0
BEGIN_STATE
3
0 0 4
0 1 3
0 2 1
0 3 0
1 4
2 2
END_STATE
END_LABELED_STATE
BEGIN_LABELED_STATE
0.0
BEGIN_STATE
3
0 0 4
0 1 2
0 3 0
1 2
1 4
2 1
2 3
END_STATE
END_LABELED_STATE
BEGIN_LABELED_STATE
0.0
BEGIN_STATE
4 3
0 0 4
0 1 2
1 2
1 4
2 0
2 1
END_STATE
END_LABELED_STATE
BEGIN_LABELED_STATE
0.0
BEGIN_STATE
4 1
0 0 4
1 2
1 3
1 4
2 0
2 2
2 3
END_STATE
END_LABELED_STATE
BEGIN_LABELED_STATE
3.0
BEGIN_STATE
4 4
0 0 1
0 1 2
1 2
1 3
2 0
2 3
END_STATE
END_LABELED_STATE
BEGIN_LABELED_STATE
2.0
BEGIN_STATE
3
0 0 1
0 1 2
0 4 3
1 2
1 3
2 0
2 4
END_STATE
END_LABELED_STATE
BEGIN_LABELED_STATE
4.0
BEGIN_STATE
3
0 0 1
0 1 2
0 4 0
1 2
1 3
2 3
2 4
END_STATE
END_LABELED_STATE
BEGIN_LABELED_STATE
5.0
BEGIN_STATE
4 3
0 0 1
0 1 2
0 4 0
1 2
2 4
END_STATE
END_LABELED_STATE
BEGIN_LABELED_STATE
6.0
BEGIN_STATE
3
0 0 1
0 1 2
0 3 4
0 4 0
1 2
2 3
END_STATE
END_LABELED_STATE
BEGIN_LABELED_STATE
4.0
BEGIN_STATE
3
0 0 1
0 1 2
0 3 0
1 2
1 4
2 3
2 4
END_STATE
END_LABELED_STATE
BEGIN_LABELED_STATE
5.0
BEGIN_STATE
4 4
0 0 1
0 1 2
0 3 0
1 2
2 3
END_STATE
END_LABELED_STATE
BEGIN_LABELED_STATE
6.0
BEGIN_STATE
3
0 0 1
0 1 2
0 3 0
0 4 3
1 2
2 4
END_STATE
END_LABELED_STATE
BEGIN_LABELED_STATE
2.0
BEGIN_STATE
3
0 1 2
0 3 1
0 4 3
1 0
1 2
2 0
2 4
END_STATE
END_LABELED_STATE
BEGIN_LABELED_STATE
1.0
BEGIN_STATE
4 0
0 1 2
0 3 1
0 4 3
1 2
2 4
END_STATE
END_LABELED_STATE
BEGIN_LABELED_STATE
0.0
BEGIN_STATE
3
0 0 4
0 1 2
0 3 1
0 4 3
1 2
2 0
END_STATE
END_LABELED_STATE
BEGIN_LABELED_STATE
2.0
BEGIN_STATE
3
0 0 3
0 1 2
0 3 1
1 2
1 4
2 0
2 4
END_STATE
END_LABELED_STATE
BEGIN_LABELED_STATE
3.0
BEGIN_STATE
4 4
0 0 3
0 1 2
0 3 1
1 2
2 0
END_STATE
END_LABELED_STATE
BEGIN_LABELED_STATE
4.0
BEGIN_STATE
3
0 0 3
0 1 2
0 3 1
0 4 0
1 2
2 4
END_STATE
END_LABELED_STATE
BEGIN_LABELED_STATE
0.0
BEGIN_STATE
3
0 0 4
0 2 3
0 3 0
1 1
1 4
2 1
2 2
END_STATE
END_LABELED_STATE
BEGIN_LABELED_STATE
0.0
BEGIN_STATE
4 1
0 0 4
0 2 3
0 3 0
1 4
2 2
END_STATE
END_LABELED_STATE
BEGIN_LABELED_STATE
0.0
BEGIN_STATE
3
0 0 4
0 1 2
0 2 3
0 3 0
1 4
2 1
END_STATE
END_LABELED_STATE
BEGIN_LABELED_STATE
3.0
BEGIN_STATE
4 4
0 0 2
0 2 1
1 1
1 3
2 0
2 3
END_STATE
END_LABELED_STATE
BEGIN_LABELED_STATE
2.0
BEGIN_STATE
3
0 0 2
0 2 1
0 4 3
1 1
1 3
2 0
2 4
END_STATE
END_LABELED_STATE
BEGIN_LABELED_STATE
4.0
BEGIN_STATE
3
0 0 2
0 2 1
0 4 0
1 1
1 3
2 3
2 4
END_STATE
END_LABELED_STATE
BEGIN_LABELED_STATE
5.0
BEGIN_STATE
4 3
0 0 2
0 2 1
0 4 0
1 1
2 4
END_STATE
END_LABELED_STATE
BEGIN_LABELED_STATE
6.0
BEGIN_STATE
3
0 0 2
0 2 1
0 3 4
0 4 0
1 1
2 3
END_STATE
END_LABELED_STATE
BEGIN_LABELED_STATE
4.0
BEGIN_STATE
3
0 0 2
0 2 1
0 3 0
1 1
1 4
2 3
2 4
END_STATE
END_LABELED_STATE
BEGIN_LABELED_STATE
5.0
BEGIN_STATE
4 4
0 0 2
0 2 1
0 3 0
1 1
2 3
END_STATE
END_LABELED_STATE
BEGIN_LABELED_STATE
6.0
BEGIN_STATE
3
0 0 2
0 2 1
0 3 0
0 4 3
1 1
2 4
END_STATE
END_LABELED_STATE
BEGIN_LABELED_STATE
4.0
BEGIN_STATE
3
0 0 3
0 2 1
0 4 0
1 1
1 3
2 2
2 4
END_STATE
END_LABELED_STATE
BEGIN_LABELED_STATE
5.0
BEGIN_STATE
4 2
0 0 3
0 4 0
1 1
1 3
2 1
2 4
END_STATE
END_LABELED_STATE
BEGIN_LABELED_STATE
4.0
BEGIN_STATE
3
0 0 3
0 4 0
1 1
1 2
1 3
2 1
2 2
2 4
END_STATE
END_LABELED_STATE
BEGIN_LABELED_STATE
5.0
BEGIN_STATE
4 1
0 0 3
0 4 0
1 2
1 3
2 2
2 4
END_STATE
END_LABELED_STATE
BEGIN_LABELED_STATE
4.0
BEGIN_STATE
3
0 0 3
0 1 2
0 4 0
1 2
1 3
2 1
2 4
END_STATE
END_LABELED_STATE
BEGIN_LABELED_STATE
6.0
BEGIN_STATE
3
0 0 3
0 1 4
0 4 0
1 2
1 3
2 1
2 2
END_STATE
END_LABELED_STATE
BEGIN_LABELED_STATE
7.0
BEGIN_STATE
4 2
0 0 3
0 1 4
0 4 0
1 3
2 1
END_STATE
END_LABELED_STATE
BEGIN_LABELED_STATE
8.0
BEGIN_STATE
3
0 0 3
0 1 4
0 2 1
0 4 0
1 3
2 2
END_STATE
END_LABELED_STATE
BEGIN_LABELED_STATE
6.0
BEGIN_STATE
3
0 0 3
0 2 4
0 4 0
1 1
1 3
2 1
2 2
END_STATE
END_LABELED_STATE
BEGIN_LABELED_STATE
7.0
BEGIN_STATE
4 1
0 0 3
0 2 4
0 4 0
1 3
2 2
END_STATE
END_LABELED_STATE
BEGIN_LABELED_STATE
8.0
BEGIN_STATE
3
0 0 3
0 1 2
0 2 4
0 4 0
1 3
2 1
END_STATE
END_LABELED_STATE
BEGIN_LABELED_STATE
4.0
BEGIN_STATE
3
0 2 1
0 3 4
0 4 2
1 0
1 1
2 0
2 3
END_STATE
END_LABELED_STATE
BEGIN_LABELED_STATE
5.0
BEGIN_STATE
4 0
0 2 1
0 3 4
0 4 2
1 1
2 3
END_STATE
END_LABELED_STATE
BEGIN_LABELED_STATE
6.0
BEGIN_STATE
3
0 0 3
0 2 1
0 3 4
0 4 2
1 1
2 0
END_STATE
END_LABELED_STATE
BEGIN_LABELED_STATE
8.0
BEGIN_STATE
3
0 1 4
0 3 0
0 4 3
1 0
1 2
2 1
2 2
END_STATE
END_LABELED_STATE
BEGIN_LABELED_STATE
9.0
BEGIN_STATE
4 2
0 1 4
0 3 0
0 4 3
1 0
2 1
END_STATE
END_LABELED_STATE
BEGIN_LABELED_STATE
10.0
BEGIN_STATE
3
0 1 4
0 2 1
0 3 0
0 4 3
1 0
2 2
END_STATE
END_LABELED_STATE
BEGIN_LABELED_STATE
0.0
BEGIN_STATE
4 3
0 0 4
0 1 2
0 4 1
1 2
2 0
END_STATE
END_LABELED_STATE
BEGIN_LABELED_STATE
0.0
BEGIN_STATE
3
0 0 4
0 1 2
0 3 0
0 4 1
1 2
2 3
END_STATE
END_LABELED_STATE
BEGIN_LABELED_STATE
4.0
BEGIN_STATE
3
0 0 3
0 1 0
1 2
1 3
1 4
2 1
2 2
2 4
END_STATE
END_LABELED_STATE
BEGIN_LABELED_STATE
5.0
BEGIN_STATE
4 4
0 0 3
0 1 0
1 2
1 3
2 1
2 2
END_STATE
END_LABELED_STATE
BEGIN_LABELED_STATE
4.0
BEGIN_STATE
3
0 0 3
0 1 0
0 4 2
1 2
1 3
2 1
2 4
END_STATE
END_LABELED_STATE
BEGIN_LABELED_STATE
6.0
BEGIN_STATE
3
0 0 3
0 1 0
0 4 1
1 2
1 3
2 2
2 4
END_STATE
END_LABELED_STATE
BEGIN_LABELED_STATE
7.0
BEGIN_STATE
4 2
0 0 3
0 1 0
0 4 1
1 3
2 4
END_STATE
END_LABELED_STATE
BEGIN_LABELED_STATE
8.0
BEGIN_STATE
3
0 0 3
0 1 0
0 2 4
0 4 1
1 3
2 2
END_STATE
END_LABELED_STATE
BEGIN_LABELED_STATE
5.0
BEGIN_STATE
4 2
0 0 3
0 1 0
1 3
1 4
2 1
2 4
END_STATE
END_LABELED_STATE
BEGIN_LABELED_STATE
6.0
BEGIN_STATE
3
0 0 3
0 1 0
0 2 4
1 3
1 4
2 1
2 2
END_STATE
END_LABELED_STATE
BEGIN_LABELED_STATE
6.0
BEGIN_STATE
3
0 0 3
0 1 0
0 2 1
1 3
1 4
2 2
2 4
END_STATE
END_LABELED_STATE
BEGIN_LABELED_STATE
7.0
BEGIN_STATE
4 4
0 0 3
0 1 0
0 2 1
1 3
2 2
END_STATE
END_LABELED_STATE
BEGIN_LABELED_STATE
8.0
BEGIN_STATE
3
0 0 3
0 1 0
0 2 1
0 4 2
1 3
2 4
END_STATE
END_LABELED_STATE
BEGIN_LABELED_STATE
6.0
BEGIN_STATE
3
0 0 3
0 1 2
0 2 0
1 3
1 4
2 1
2 4
END_STATE
END_LABELED_STATE
BEGIN_LABELED_STATE
7.0
BEGIN_STATE
4 4
0 0 3
0 1 2
0 2 0
1 3
2 1
END_STATE
END_LABELED_STATE
BEGIN_LABELED_STATE
8.0
BEGIN_STATE
3
0 0 3
0 1 2
0 2 0
0 4 1
1 3
2 4
END_STATE
END_LABELED_STATE
BEGIN_LABELED_STATE
6.0
BEGIN_STATE
3
0 0 3
0 2 0
0 4 2
1 1
1 3
2 1
2 4
END_STATE
END_LABELED_STATE
BEGIN_LABELED_STATE
7.0
BEGIN_STATE
4 1
0 0 3
0 2 0
0 4 2
1 3
2 4
END_STATE
END_LABELED_STATE
BEGIN_LABELED_STATE
8.0
BEGIN_STATE
3
0 0 3
0 1 4
0 2 0
0 4 2
1 3
2 1
END_STATE
END_LABELED_STATE
BEGIN_LABELED_STATE
0.0
BEGIN_STATE
3
0 0 4
0 2 0
0 4 1
1 1
1 3
2 2
2 3
END_STATE
END_LABELED_STATE
BEGIN_LABELED_STATE
0.0
BEGIN_STATE
4 3
0 0 4
0 2 0
0 4 1
1 1
2 2
END_STATE
END_LABELED_STATE
BEGIN_LABELED_STATE
0.0
BEGIN_STATE
3
0 0 4
0 2 0
0 3 2
0 4 1
1 1
2 3
END_STATE
END_LABELED_STATE
BEGIN_LABELED_STATE
0.0
BEGIN_STATE
3
0 0 4
0 1 0
0 2 1
1 3
1 4
2 2
2 3
END_STATE
END_LABELED_STATE
BEGIN_LABELED_STATE
0.0
BEGIN_STATE
4 3
0 0 4
0 1 0
0 2 1
1 4
2 2
END_STATE
END_LABELED_STATE
BEGIN_LABELED_STATE
0.0
BEGIN_STATE
3
0 0 4
0 1 0
0 2 1
0 3 2
1 4
2 3
END_STATE
END_LABELED_STATE
BEGIN_LABELED_STATE
0.0
BEGIN_STATE
3
0 0 4
0 1 0
0 3 1
1 2
1 4
2 2
2 3
END_STATE
END_LABELED_STATE
BEGIN_LABELED_STATE
0.0
BEGIN_STATE
4 2
0 0 4
0 1 0
0 3 1
1 4
2 3
END_STATE
END_LABELED_STATE
BEGIN_LABELED_STATE
0.0
BEGIN_STATE
3
0 0 4
0 1 0
0 2 3
0 3 1
1 4
2 2
END_STATE
END_LABELED_STATE
BEGIN_LABELED_STATE
0.0
BEGIN_STATE
3
0 0 4
0 1 2
0 2 0
1 3
1 4
2 1
2 3
END_STATE
END_LABELED_STATE
BEGIN_LABELED_STATE
0.0
BEGIN_STATE
4 3
0 0 4
0 1 2
0 2 0
1 4
2 1
END_STATE
END_LABELED_STATE
BEGIN_LABELED_STATE
0.0
BEGIN_STATE
3
0 0 4
0 1 2
0 2 0
0 3 1
1 4
2 3
END_STATE
END_LABELED_STATE
BEGIN_LABELED_STATE
4.0
BEGIN_STATE
3
0 0 1
0 1 3
0 2 0
1 3
1 4
2 2
2 4
END_STATE
END_LABELED_STATE
BEGIN_LABELED_STATE
5.0
BEGIN_STATE
4 4
0 0 1
0 1 3
0 2 0
1 3
2 2
END_STATE
END_LABELED_STATE
BEGIN_LABELED_STATE
6.0
BEGIN_STATE
3
0 0 1
0 1 3
0 2 0
0 4 2
1 3
2 4
END_STATE
END_LABELED_STATE
BEGIN_LABELED_STATE
8.0
BEGIN_STATE
3
0 1 2
0 2 4
0 4 0
1 0
1 3
2 1
2 3
END_STATE
END_LABELED_STATE
BEGIN_LABELED_STATE
9.0
BEGIN_STATE
4 3
0 1 2
0 2 4
0 4 0
1 0
2 1
END_STATE
END_LABELED_STATE
BEGIN_LABELED_STATE
10.0
BEGIN_STATE
3
0 1 2
0 2 4
0 3 1
0 4 0
1 0
2 3
END_STATE
END_LABELED_STATE
BEGIN_LABELED_STATE
8.0
BEGIN_STATE
3
0 2 4
0 3 2
0 4 0
1 0
1 1
2 1
2 3
END_STATE
END_LABELED_STATE
BEGIN_LABELED_STATE
9.0
BEGIN_STATE
4 1
0 2 4
0 3 2
0 4 0
1 0
2 3
END_STATE
END_LABELED_STATE
BEGIN_LABELED_STATE
10.0
BEGIN_STATE
3
0 1 3
0 2 4
0 3 2
0 4 0
1 0
2 1
END_STATE
END_LABELED_STATE
BEGIN_LABELED_STATE
2.0
BEGIN_STATE
3
0 0 2
0 2 3
0 3 1
1 1
1 4
2 0
2 4
END_STATE
END_LABELED_STATE
BEGIN_LABELED_STATE
3.0
BEGIN_STATE
4 4
0 0 2
0 2 3
0 3 1
1 1
2 0
END_STATE
END_LABELED_STATE
BEGIN_LABELED_STATE
4.0
BEGIN_STATE
3
0 0 2
0 2 3
0 3 1
0 4 0
1 1
2 4
END_STATE
END_LABELED_STATE
BEGIN_LABELED_STATE
4.0
BEGIN_STATE
3
0 0 3
0 2 0
0 3 1
1 1
1 4
2 2
2 4
END_STATE
END_LABELED_STATE
BEGIN_LABELED_STATE
5.0
BEGIN_STATE
4 4
0 0 3
0 2 0
0 3 1
1 1
2 2
END_STATE
END_LABELED_STATE
BEGIN_LABELED_STATE
6.0
BEGIN_STATE
3
0 0 3
0 2 0
0 3 1
0 4 2
1 1
2 4
END_STATE
END_LABELED_STATE
BEGIN_LABELED_STATE
0.0
BEGIN_STATE
3
0 0 4
0 3 0
0 4 2
1 1
1 2
2 1
2 3
END_STATE
END_LABELED_STATE
BEGIN_LABELED_STATE
0.0
BEGIN_STATE
4 1
0 0 4
0 3 0
0 4 2
1 2
2 3
END_STATE
END_LABELED_STATE
BEGIN_LABELED_STATE
0.0
BEGIN_STATE
3
0 0 4
0 1 3
0 3 0
0 4 2
1 2
2 1
END_STATE
END_LABELED_STATE
BEGIN_LABELED_STATE
4.0
BEGIN_STATE
3
0 0 1
0 3 4
0 4 2
1 1
1 2
2 0
2 3
END_STATE
END_LABELED_STATE
BEGIN_LABELED_STATE
5.0
BEGIN_STATE
4 0
0 3 4
0 4 2
1 1
1 2
2 1
2 3
END_STATE
END_LABELED_STATE
BEGIN_LABELED_STATE
4.0
BEGIN_STATE
3
0 3 4
0 4 2
1 0
1 1
1 2
2 0
2 1
2 3
END_STATE
END_LABELED_STATE
BEGIN_LABELED_STATE
5.0
BEGIN_STATE
4 1
0 3 4
0 4 2
1 0
1 2
2 0
2 3
END_STATE
END_LABELED_STATE
BEGIN_LABELED_STATE
6.0
BEGIN_STATE
3
0 1 3
0 3 4
0 4 2
1 0
1 2
2 0
2 1
END_STATE
END_LABELED_STATE
BEGIN_LABELED_STATE
7.0
BEGIN_STATE
4 0
0 1 3
0 3 4
0 4 2
1 2
2 1
END_STATE
END_LABELED_STATE
BEGIN_LABELED_STATE
8.0
BEGIN_STATE
3
0 0 1
0 1 3
0 3 4
0 4 2
1 2
2 0
END_STATE
END_LABELED_STATE
BEGIN_LABELED_STATE
6.0
BEGIN_STATE
3
0 1 0
0 3 4
0 4 2
1 0
1 2
2 1
2 3
END_STATE
END_LABELED_STATE
BEGIN_LABELED_STATE
5.0
BEGIN_STATE
4 3
0 1 0
0 4 2
1 0
1 2
2 1
2 4
END_STATE
END_LABELED_STATE
BEGIN_LABELED_STATE
6.0
BEGIN_STATE
3
0 1 0
0 3 1
0 4 2
1 0
1 2
2 3
2 4
END_STATE
END_LABELED_STATE
BEGIN_LABELED_STATE
7.0
BEGIN_STATE
4 4
0 1 0
0 3 1
1 0
1 2
2 2
2 3
END_STATE
END_LABELED_STATE
BEGIN_LABELED_STATE
6.0
BEGIN_STATE
3
0 1 0
0 3 1
1 0
1 2
1 4
2 2
2 3
2 4
END_STATE
END_LABELED_STATE
BEGIN_LABELED_STATE
7.0
BEGIN_STATE
4 2
0 1 0
0 3 1
1 0
1 4
2 3
2 4
END_STATE
END_LABELED_STATE
BEGIN_LABELED_STATE
8.0
BEGIN_STATE
3
0 1 0
0 2 4
0 3 1
1 0
1 4
2 2
2 3
END_STATE
END_LABELED_STATE
BEGIN_LABELED_STATE
8.0
BEGIN_STATE
3
0 1 0
0 2 3
0 3 1
1 0
1 4
2 2
2 4
END_STATE
END_LABELED_STATE
BEGIN_LABELED_STATE
9.0
BEGIN_STATE
4 4
0 1 0
0 2 3
0 3 1
1 0
2 2
END_STATE
END_LABELED_STATE
BEGIN_LABELED_STATE
10.0
BEGIN_STATE
3
0 1 0
0 2 3
0 3 1
0 4 2
1 0
2 4
END_STATE
END_LABELED_STATE
BEGIN_LABELED_STATE
8.0
BEGIN_STATE
3
0 1 0
0 3 1
0 4 3
1 0
1 2
2 2
2 4
END_STATE
END_LABELED_STATE
BEGIN_LABELED_STATE
9.0
BEGIN_STATE
4 2
0 1 0
0 3 1
0 4 3
1 0
2 4
END_STATE
END_LABELED_STATE
BEGIN_LABELED_STATE
10.0
BEGIN_STATE
3
0 1 0
0 2 4
0 3 1
0 4 3
1 0
2 2
END_STATE
END_LABELED_STATE
BEGIN_LABELED_STATE
6.0
BEGIN_STATE
3
0 0 3
0 3 4
0 4 2
1 1
1 2
2 0
2 1
END_STATE
END_LABELED_STATE
BEGIN_LABELED_STATE
7.0
BEGIN_STATE
4 1
0 0 3
0 3 4
0 4 2
1 2
2 0
END_STATE
END_LABELED_STATE
BEGIN_LABELED_STATE
8.0
BEGIN_STATE
3
0 0 3
0 1 0
0 3 4
0 4 2
1 2
2 1
END_STATE
END_LABELED_STATE
BEGIN_LABELED_STATE
6.0
BEGIN_STATE
3
0 0 1
0 2 3
0 3 0
1 1
1 4
2 2
2 4
END_STATE
END_LABELED_STATE
BEGIN_LABELED_STATE
7.0
BEGIN_STATE
4 4
0 0 1
0 2 3
0 3 0
1 1
2 2
END_STATE
END_LABELED_STATE
BEGIN_LABELED_STATE
8.0
BEGIN_STATE
3
0 0 1
0 2 3
0 3 0
0 4 2
1 1
2 4
END_STATE
END_LABELED_STATE
BEGIN_LABELED_STATE
4.0
BEGIN_STATE
3
0 0 1
0 2 0
1 1
1 3
1 4
2 2
2 3
2 4
END_STATE
END_LABELED_STATE
BEGIN_LABELED_STATE
5.0
BEGIN_STATE
4 4
0 0 1
0 2 0
1 1
1 3
2 2
2 3
END_STATE
END_LABELED_STATE
BEGIN_LABELED_STATE
4.0
BEGIN_STATE
3
0 0 1
0 2 0
0 4 3
1 1
1 3
2 2
2 4
END_STATE
END_LABELED_STATE
BEGIN_LABELED_STATE
6.0
BEGIN_STATE
3
0 0 1
0 2 0
0 4 2
1 1
1 3
2 3
2 4
END_STATE
END_LABELED_STATE
BEGIN_LABELED_STATE
7.0
BEGIN_STATE
4 3
0 0 1
0 2 0
0 4 2
1 1
2 4
END_STATE
END_LABELED_STATE
BEGIN_LABELED_STATE
8.0
BEGIN_STATE
3
0 0 1
0 2 0
0 3 4
0 4 2
1 1
2 3
END_STATE
END_LABELED_STATE
BEGIN_LABELED_STATE
5.0
BEGIN_STATE
4 3
0 0 1
0 2 0
1 1
1 4
2 2
2 4
END_STATE
END_LABELED_STATE
BEGIN_LABELED_STATE
6.0
BEGIN_STATE
3
0 0 1
0 2 0
0 3 4
1 1
1 4
2 2
2 3
END_STATE
END_LABELED_STATE
BEGIN_LABELED_STATE
6.0
BEGIN_STATE
3
0 0 1
0 2 0
0 3 2
1 1
1 4
2 3
2 4
END_STATE
END_LABELED_STATE
BEGIN_LABELED_STATE
7.0
BEGIN_STATE
4 4
0 0 1
0 2 0
0 3 2
1 1
2 3
END_STATE
END_LABELED_STATE
BEGIN_LABELED_STATE
8.0
BEGIN_STATE
3
0 0 1
0 2 0
0 3 2
0 4 3
1 1
2 4
END_STATE
END_LABELED_STATE
BEGIN_LABELED_STATE
4.0
BEGIN_STATE
3
0 0 1
0 2 3
0 4 0
1 1
1 3
2 2
2 4
END_STATE
END_LABELED_STATE
BEGIN_LABELED_STATE
5.0
BEGIN_STATE
4 2
0 0 1
0 4 0
1 1
1 3
2 3
2 4
END_STATE
END_LABELED_STATE
BEGIN_LABELED_STATE
6.0
BEGIN_STATE
3
0 0 1
0 2 4
0 4 0
1 1
1 3
2 2
2 3
END_STATE
END_LABELED_STATE
BEGIN_LABELED_STATE
7.0
BEGIN_STATE
4 3
0 0 1
0 2 4
0 4 0
1 1
2 2
END_STATE
END_LABELED_STATE
BEGIN_LABELED_STATE
8.0
BEGIN_STATE
3
0 0 1
0 2 4
0 3 2
0 4 0
1 1
2 3
END_STATE
END_LABELED_STATE
BEGIN_LABELED_STATE
4.0
BEGIN_STATE
3
0 1 4
0 2 3
0 4 2
1 0
1 3
2 0
2 1
END_STATE
END_LABELED_STATE
BEGIN_LABELED_STATE
5.0
BEGIN_STATE
4 0
0 1 4
0 2 3
0 4 2
1 3
2 1
END_STATE
END_LABELED_STATE
BEGIN_LABELED_STATE
6.0
BEGIN_STATE
3
0 0 1
0 1 4
0 2 3
0 4 2
1 3
2 0
END_STATE
END_LABELED_STATE
BEGIN_LABELED_STATE
6.0
BEGIN_STATE
3
0 1 0
0 2 3
0 4 1
1 0
1 3
2 2
2 4
END_STATE
END_LABELED_STATE
BEGIN_LABELED_STATE
7.0
BEGIN_STATE
4 2
0 1 0
0 4 1
1 0
1 3
2 3
2 4
END_STATE
END_LABELED_STATE
BEGIN_LABELED_STATE
6.0
BEGIN_STATE
3
0 1 0
0 4 1
1 0
1 2
1 3
2 2
2 3
2 4
END_STATE
END_LABELED_STATE
BEGIN_LABELED_STATE
7.0
BEGIN_STATE
4 3
0 1 0
0 4 1
1 0
1 2
2 2
2 4
END_STATE
END_LABELED_STATE
BEGIN_LABELED_STATE
8.0
BEGIN_STATE
3
0 1 0
0 3 4
0 4 1
1 0
1 2
2 2
2 3
END_STATE
END_LABELED_STATE
BEGIN_LABELED_STATE
9.0
BEGIN_STATE
4 2
0 1 0
0 3 4
0 4 1
1 0
2 3
END_STATE
END_LABELED_STATE
BEGIN_LABELED_STATE
10.0
BEGIN_STATE
3
0 1 0
0 2 3
0 3 4
0 4 1
1 0
2 2
END_STATE
END_LABELED_STATE
BEGIN_LABELED_STATE
6.0
BEGIN_STATE
3
0 1 0
0 3 2
0 4 1
1 0
1 2
2 3
2 4
END_STATE
END_LABELED_STATE
BEGIN_LABELED_STATE
5.0
BEGIN_STATE
4 4
0 1 0
0 3 2
1 0
1 2
2 1
2 3
END_STATE
END_LABELED_STATE
BEGIN_LABELED_STATE
4.0
BEGIN_STATE
3
0 1 0
0 3 2
0 4 3
1 0
1 2
2 1
2 4
END_STATE
END_LABELED_STATE
BEGIN_LABELED_STATE
3.0
BEGIN_STATE
4 1
0 3 2
0 4 3
1 0
1 2
2 0
2 4
END_STATE
END_LABELED_STATE
BEGIN_LABELED_STATE
2.0
BEGIN_STATE
3
0 3 2
0 4 3
1 0
1 1
1 2
2 0
2 1
2 4
END_STATE
END_LABELED_STATE
BEGIN_LABELED_STATE
1.0
BEGIN_STATE
4 0
0 3 2
0 4 3
1 1
1 2
2 1
2 4
END_STATE
END_LABELED_STATE
BEGIN_LABELED_STATE
0.0
BEGIN_STATE
3
0 0 4
0 3 2
0 4 3
1 1
1 2
2 0
2 1
END_STATE
END_LABELED_STATE
BEGIN_LABELED_STATE
0.0
BEGIN_STATE
4 1
0 0 4
0 3 2
0 4 3
1 2
2 0
END_STATE
END_LABELED_STATE
BEGIN_LABELED_STATE
0.0
BEGIN_STATE
3
0 0 4
0 1 0
0 3 2
0 4 3
1 2
2 1
END_STATE
END_LABELED_STATE
BEGIN_LABELED_STATE
2.0
BEGIN_STATE
3
0 0 1
0 3 2
0 4 3
1 1
1 2
2 0
2 4
END_STATE
END_LABELED_STATE
BEGIN_LABELED_STATE
4.0
BEGIN_STATE
3
0 1 4
0 3 2
0 4 3
1 0
1 2
2 0
2 1
END_STATE
END_LABELED_STATE
BEGIN_LABELED_STATE
5.0
BEGIN_STATE
4 0
0 1 4
0 3 2
0 4 3
1 2
2 1
END_STATE
END_LABELED_STATE
BEGIN_LABELED_STATE
6.0
BEGIN_STATE
3
0 0 1
0 1 4
0 3 2
0 4 3
1 2
2 0
END_STATE
END_LABELED_STATE
BEGIN_LABELED_STATE
8.0
BEGIN_STATE
3
0 1 0
0 2 4
0 4 1
1 0
1 3
2 2
2 3
END_STATE
END_LABELED_STATE
BEGIN_LABELED_STATE
9.0
BEGIN_STATE
4 3
0 1 0
0 2 4
0 4 1
1 0
2 2
END_STATE
END_LABELED_STATE
BEGIN_LABELED_STATE
10.0
BEGIN_STATE
3
0 1 0
0 2 4
0 3 2
0 4 1
1 0
2 3
END_STATE
END_LABELED_STATE
BEGIN_LABELED_STATE
6.0
BEGIN_STATE
3
0 1 0
0 2 1
1 0
1 3
1 4
2 2
2 3
2 4
END_STATE
END_LABELED_STATE
BEGIN_LABELED_STATE
7.0
BEGIN_STATE
4 4
0 1 0
0 2 1
1 0
1 3
2 2
2 3
END_STATE
END_LABELED_STATE
BEGIN_LABELED_STATE
6.0
BEGIN_STATE
3
0 1 0
0 2 1
0 4 3
1 0
1 3
2 2
2 4
END_STATE
END_LABELED_STATE
BEGIN_LABELED_STATE
8.0
BEGIN_STATE
3
0 1 0
0 2 1
0 4 2
1 0
1 3
2 3
2 4
END_STATE
END_LABELED_STATE
BEGIN_LABELED_STATE
9.0
BEGIN_STATE
4 3
0 1 0
0 2 1
0 4 2
1 0
2 4
END_STATE
END_LABELED_STATE
BEGIN_LABELED_STATE
10.0
BEGIN_STATE
3
0 1 0
0 2 1
0 3 4
0 4 2
1 0
2 3
END_STATE
END_LABELED_STATE
BEGIN_LABELED_STATE
7.0
BEGIN_STATE
4 3
0 1 0
0 2 1
1 0
1 4
2 2
2 4
END_STATE
END_LABELED_STATE
BEGIN_LABELED_STATE
8.0
BEGIN_STATE
3
0 1 0
0 2 1
0 3 4
1 0
1 4
2 2
2 3
END_STATE
END_LABELED_STATE
BEGIN_LABELED_STATE
8.0
BEGIN_STATE
3
0 1 0
0 2 1
0 3 2
1 0
1 4
2 3
2 4
END_STATE
END_LABELED_STATE
BEGIN_LABELED_STATE
9.0
BEGIN_STATE
4 4
0 1 0
0 2 1
0 3 2
1 0
2 3
END_STATE
END_LABELED_STATE
BEGIN_LABELED_STATE
10.0
BEGIN_STATE
3
0 1 0
0 2 1
0 3 2
0 4 3
1 0
2 4
END_STATE
END_LABELED_STATE
BEGIN_LABELED_STATE
8.0
BEGIN_STATE
3
0 0 1
0 1 2
0 2 4
1 3
1 4
2 0
2 3
END_STATE
END_LABELED_STATE
BEGIN_LABELED_STATE
9.0
BEGIN_STATE
4 3
0 0 1
0 1 2
0 2 4
1 4
2 0
END_STATE
END_LABELED_STATE
BEGIN_LABELED_STATE
10.0
BEGIN_STATE
3
0 0 1
0 1 2
0 2 4
0 3 0
1 4
2 3
END_STATE
END_LABELED_STATE
BEGIN_LABELED_STATE
6.0
BEGIN_STATE
3
0 0 1
0 1 4
0 4 2
1 2
1 3
2 0
2 3
END_STATE
END_LABELED_STATE
BEGIN_LABELED_STATE
7.0
BEGIN_STATE
4 3
0 0 1
0 1 4
0 4 2
1 2
2 0
END_STATE
END_LABELED_STATE
BEGIN_LABELED_STATE
8.0
BEGIN_STATE
3
0 0 1
0 1 4
0 3 0
0 4 2
1 2
2 3
END_STATE
END_LABELED_STATE
BEGIN_LABELED_STATE
8.0
BEGIN_STATE
3
0 1 3
0 3 0
0 4 1
1 0
1 2
2 2
2 4
END_STATE
END_LABELED_STATE
BEGIN_LABELED_STATE
9.0
BEGIN_STATE
4 2
0 1 3
0 3 0
0 4 1
1 0
2 4
END_STATE
END_LABELED_STATE
BEGIN_LABELED_STATE
10.0
BEGIN_STATE
3
0 1 3
0 2 4
0 3 0
0 4 1
1 0
2 2
END_STATE
END_LABELED_STATE
BEGIN_LABELED_STATE
8.0
BEGIN_STATE
3
0 1 3
0 2 1
0 3 0
1 0
1 4
2 2
2 4
END_STATE
END_LABELED_STATE
BEGIN_LABELED_STATE
9.0
BEGIN_STATE
4 4
0 1 3
0 2 1
0 3 0
1 0
2 2
END_STATE
END_LABELED_STATE
BEGIN_LABELED_STATE
10.0
BEGIN_STATE
3
0 1 3
0 2 1
0 3 0
0 4 2
1 0
2 4
END_STATE
END_LABELED_STATE
BEGIN_LABELED_STATE
4.0
BEGIN_STATE
3
0 0 3
0 3 2
0 4 0
1 1
1 2
2 1
2 4
END_STATE
END_LABELED_STATE
BEGIN_LABELED_STATE
5.0
BEGIN_STATE
4 1
0 0 3
0 3 2
0 4 0
1 2
2 4
END_STATE
END_LABELED_STATE
BEGIN_LABELED_STATE
6.0
BEGIN_STATE
3
0 0 3
0 1 4
0 3 2
0 4 0
1 2
2 1
END_STATE
END_LABELED_STATE
BEGIN_LABELED_STATE
4.0
BEGIN_STATE
3
0 0 3
0 1 0
0 3 2
1 2
1 4
2 1
2 4
END_STATE
END_LABELED_STATE
BEGIN_LABELED_STATE
5.0
BEGIN_STATE
4 4
0 0 3
0 1 0
0 3 2
1 2
2 1
END_STATE
END_LABELED_STATE
BEGIN_LABELED_STATE
6.0
BEGIN_STATE
3
0 0 3
0 1 0
0 3 2
0 4 1
1 2
2 4
END_STATE
END_LABELED_STATE
BEGIN_LABELED_STATE
8.0
BEGIN_STATE
3
0 1 4
0 3 1
0 4 0
1 0
1 2
2 2
2 3
END_STATE
END_LABELED_STATE
BEGIN_LABELED_STATE
9.0
BEGIN_STATE
4 2
0 1 4
0 3 1
0 4 0
1 0
2 3
END_STATE
END_LABELED_STATE
BEGIN_LABELED_STATE
10.0
BEGIN_STATE
3
0 1 4
0 2 3
0 3 1
0 4 0
1 0
2 2
END_STATE
END_LABELED_STATE
BEGIN_LABELED_STATE
0.0
BEGIN_STATE
3
0 0 4
0 2 0
0 4 3
1 1
1 3
2 1
2 2
END_STATE
END_LABELED_STATE
BEGIN_LABELED_STATE
0.0
BEGIN_STATE
4 1
0 0 4
0 2 0
0 4 3
1 3
2 2
END_STATE
END_LABELED_STATE
BEGIN_LABELED_STATE
0.0
BEGIN_STATE
3
0 0 4
0 1 2
0 2 0
0 4 3
1 3
2 1
END_STATE
END_LABELED_STATE
BEGIN_LABELED_STATE
0.0
BEGIN_STATE
3
0 0 4
0 1 0
0 4 3
1 2
1 3
2 1
2 2
END_STATE
END_LABELED_STATE
BEGIN_LABELED_STATE
0.0
BEGIN_STATE
4 2
0 0 4
0 1 0
0 4 3
1 3
2 1
END_STATE
END_LABELED_STATE
BEGIN_LABELED_STATE
0.0
BEGIN_STATE
3
0 0 4
0 1 0
0 2 1
0 4 3
1 3
2 2
END_STATE
END_LABELED_STATE
BEGIN_LABELED_STATE
8.0
BEGIN_STATE
3
0 0 3
0 1 0
0 3 4
1 2
1 4
2 1
2 2
END_STATE
END_LABELED_STATE
BEGIN_LABELED_STATE
9.0
BEGIN_STATE
4 2
0 0 3
0 1 0
0 3 4
1 4
2 1
END_STATE
END_LABELED_STATE
BEGIN_LABELED_STATE
10.0
BEGIN_STATE
3
0 0 3
0 1 0
0 2 1
0 3 4
1 4
2 2
END_STATE
END_LABELED_STATE
BEGIN_LABELED_STATE
8.0
BEGIN_STATE
3
0 0 3
0 2 0
0 3 4
1 1
1 4
2 1
2 2
END_STATE
END_LABELED_STATE
BEGIN_LABELED_STATE
9.0
BEGIN_STATE
4 1
0 0 3
0 2 0
0 3 4
1 4
2 2
END_STATE
END_LABELED_STATE
BEGIN_LABELED_STATE
10.0
BEGIN_STATE
3
0 0 3
0 1 2
0 2 0
0 3 4
1 4
2 1
END_STATE
END_LABELED_STATE
BEGIN_LABELED_STATE
8.0
BEGIN_STATE
3
0 1 2
0 2 3
0 3 4
1 0
1 4
2 0
2 1
END_STATE
END_LABELED_STATE
BEGIN_LABELED_STATE
9.0
BEGIN_STATE
4 0
0 1 2
0 2 3
0 3 4
1 4
2 1
END_STATE
END_LABELED_STATE
BEGIN_LABELED_STATE
10.0
BEGIN_STATE
3
0 0 1
0 1 2
0 2 3
0 3 4
1 4
2 0
END_STATE
END_LABELED_STATE
BEGIN_LABELED_STATE
6.0
BEGIN_STATE
3
0 0 2
0 2 4
0 4 3
1 1
1 3
2 0
2 1
END_STATE
END_LABELED_STATE
BEGIN_LABELED_STATE
7.0
BEGIN_STATE
4 1
0 0 2
0 2 4
0 4 3
1 3
2 0
END_STATE
END_LABELED_STATE
BEGIN_LABELED_STATE
8.0
BEGIN_STATE
3
0 0 2
0 1 0
0 2 4
0 4 3
1 3
2 1
END_STATE
END_LABELED_STATE
END_STATE_LIST
