{
    "mode": "single", 
    "fastdownward_folder_path": "FastDownwardPlannerWindows", 
    "pddl_domain_file_path": "Data/Pddl/BlocksClear/Train/domain.pddl", 
    "pddl_domain_instance_file_path": "Data/Pddl/BlocksClear/Train/blocks_clear_2_0.pddl",
    "output_folder_path": "", 
    "output_file_name": "", 
    "fastdownward_pruning": false, 
    "timer": 10, 
    "count": 20000,
    "length": 100,
    "patience": 100,
    "info": true,
    "clean_up": true
}