BEGIN_OBJECTS
0 city-1-loc-1
1 city-2-loc-1
2 city-1-loc-2
3 city-2-loc-2
4 truck-1
5 truck-2
6 package-1
7 package-2
8 capacity-0
9 capacity-1
10 capacity-2
11 capacity-3
12 capacity-4
END_OBJECTS
BEGIN_PREDICATES
0 location
1 target
2 locatable
3 vehicle
4 package
5 capacity-number
6 road
7 at
8 in
9 capacity
10 capacity-predecessor
END_PREDICATES
BEGIN_PREDICATE_ARITY_TUPLES
0 1
1 1
2 1
3 1
4 1
5 1
6 2
7 2
8 2
9 2
10 2
END_PREDICATE_PREDICATE_ARITY_TUPLES
BEGIN_FACT_LIST
5 8
5 9
5 10
5 11
5 12
10 8 9
10 9 10
10 10 11
10 11 12
2 6
2 7
2 4
2 5
0 0
0 2
0 1
0 3
4 6
4 7
6 0 2
6 2 0
6 2 3
6 1 3
6 3 2
6 3 1
3 4
3 5
END_FACT_LIST
BEGIN_GOAL_LIST
7 6 1
END_GOAL_LIST
BEGIN_STATE_LIST
BEGIN_LABELED_STATE
7.0
BEGIN_STATE
7 5 3
7 4 3
9 4 11
7 7 0
9 5 11
7 6 0
END_STATE
END_LABELED_STATE
BEGIN_LABELED_STATE
6.0
BEGIN_STATE
7 5 2
7 4 3
9 4 11
7 7 0
9 5 11
7 6 0
END_STATE
END_LABELED_STATE
BEGIN_LABELED_STATE
5.0
BEGIN_STATE
7 5 0
7 4 3
9 4 11
7 7 0
9 5 11
7 6 0
END_STATE
END_LABELED_STATE
BEGIN_LABELED_STATE
4.0
BEGIN_STATE
7 5 0
7 4 3
9 4 11
7 7 0
9 5 10
8 6 5
END_STATE
END_LABELED_STATE
BEGIN_LABELED_STATE
3.0
BEGIN_STATE
7 5 2
7 4 3
9 4 11
7 7 0
9 5 10
8 6 5
END_STATE
END_LABELED_STATE
BEGIN_LABELED_STATE
2.0
BEGIN_STATE
7 5 3
7 4 3
9 4 11
7 7 0
9 5 10
8 6 5
END_STATE
END_LABELED_STATE
BEGIN_LABELED_STATE
1.0
BEGIN_STATE
7 5 1
7 4 3
9 4 11
7 7 0
9 5 10
8 6 5
END_STATE
END_LABELED_STATE
BEGIN_LABELED_STATE
0.0
BEGIN_STATE
7 5 1
7 4 3
9 4 11
7 7 0
9 5 11
7 6 1
END_STATE
END_LABELED_STATE
BEGIN_LABELED_STATE
1.0
BEGIN_STATE
7 5 0
7 4 1
9 4 9
8 7 4
9 5 11
8 6 4
END_STATE
END_LABELED_STATE
BEGIN_LABELED_STATE
0.0
BEGIN_STATE
7 5 0
7 4 1
9 4 10
8 7 4
9 5 11
7 6 1
END_STATE
END_LABELED_STATE
BEGIN_LABELED_STATE
0.0
BEGIN_STATE
7 5 3
7 4 3
9 4 11
8 7 5
9 5 10
7 6 1
END_STATE
END_LABELED_STATE
BEGIN_LABELED_STATE
7.0
BEGIN_STATE
7 5 3
7 4 1
9 4 11
8 7 5
9 5 10
7 6 0
END_STATE
END_LABELED_STATE
BEGIN_LABELED_STATE
6.0
BEGIN_STATE
7 5 2
7 4 1
9 4 11
8 7 5
9 5 10
7 6 0
END_STATE
END_LABELED_STATE
BEGIN_LABELED_STATE
5.0
BEGIN_STATE
7 5 0
7 4 1
9 4 11
8 7 5
9 5 10
7 6 0
END_STATE
END_LABELED_STATE
BEGIN_LABELED_STATE
4.0
BEGIN_STATE
7 5 0
7 4 1
9 4 11
8 7 5
9 5 9
8 6 5
END_STATE
END_LABELED_STATE
BEGIN_LABELED_STATE
3.0
BEGIN_STATE
7 5 2
7 4 1
9 4 11
8 7 5
9 5 9
8 6 5
END_STATE
END_LABELED_STATE
BEGIN_LABELED_STATE
2.0
BEGIN_STATE
7 5 3
7 4 1
9 4 11
8 7 5
9 5 9
8 6 5
END_STATE
END_LABELED_STATE
BEGIN_LABELED_STATE
1.0
BEGIN_STATE
7 5 1
7 4 1
9 4 11
8 7 5
9 5 9
8 6 5
END_STATE
END_LABELED_STATE
BEGIN_LABELED_STATE
0.0
BEGIN_STATE
7 5 1
7 4 1
9 4 11
8 7 5
9 5 10
7 6 1
END_STATE
END_LABELED_STATE
BEGIN_LABELED_STATE
3.0
BEGIN_STATE
7 5 2
7 4 2
9 4 10
7 7 2
9 5 11
8 6 4
END_STATE
END_LABELED_STATE
BEGIN_LABELED_STATE
2.0
BEGIN_STATE
7 5 2
7 4 3
9 4 10
7 7 2
9 5 11
8 6 4
END_STATE
END_LABELED_STATE
BEGIN_LABELED_STATE
1.0
BEGIN_STATE
7 5 2
7 4 1
9 4 10
7 7 2
9 5 11
8 6 4
END_STATE
END_LABELED_STATE
BEGIN_LABELED_STATE
0.0
BEGIN_STATE
7 5 2
7 4 1
9 4 11
7 7 2
9 5 11
7 6 1
END_STATE
END_LABELED_STATE
BEGIN_LABELED_STATE
2.0
BEGIN_STATE
7 5 2
7 4 3
9 4 10
7 7 3
9 5 11
8 6 4
END_STATE
END_LABELED_STATE
BEGIN_LABELED_STATE
1.0
BEGIN_STATE
7 5 2
7 4 1
9 4 10
7 7 3
9 5 11
8 6 4
END_STATE
END_LABELED_STATE
BEGIN_LABELED_STATE
0.0
BEGIN_STATE
7 5 2
7 4 1
9 4 11
7 7 3
9 5 11
7 6 1
END_STATE
END_LABELED_STATE
BEGIN_LABELED_STATE
4.0
BEGIN_STATE
7 5 2
7 4 0
9 4 10
7 7 0
9 5 11
8 6 4
END_STATE
END_LABELED_STATE
BEGIN_LABELED_STATE
3.0
BEGIN_STATE
7 5 2
7 4 2
9 4 10
7 7 0
9 5 11
8 6 4
END_STATE
END_LABELED_STATE
BEGIN_LABELED_STATE
2.0
BEGIN_STATE
7 5 2
7 4 3
9 4 10
7 7 0
9 5 11
8 6 4
END_STATE
END_LABELED_STATE
BEGIN_LABELED_STATE
1.0
BEGIN_STATE
7 5 2
7 4 1
9 4 10
7 7 0
9 5 11
8 6 4
END_STATE
END_LABELED_STATE
BEGIN_LABELED_STATE
0.0
BEGIN_STATE
7 5 2
7 4 1
9 4 11
7 7 0
9 5 11
7 6 1
END_STATE
END_LABELED_STATE
BEGIN_LABELED_STATE
0.0
BEGIN_STATE
7 5 2
7 4 1
9 4 10
8 7 4
9 5 11
7 6 1
END_STATE
END_LABELED_STATE
BEGIN_LABELED_STATE
5.0
BEGIN_STATE
7 5 0
7 4 2
9 4 11
7 7 1
9 5 11
7 6 0
END_STATE
END_LABELED_STATE
BEGIN_LABELED_STATE
4.0
BEGIN_STATE
7 5 0
7 4 2
9 4 11
7 7 1
9 5 10
8 6 5
END_STATE
END_LABELED_STATE
BEGIN_LABELED_STATE
3.0
BEGIN_STATE
7 5 2
7 4 2
9 4 11
7 7 1
9 5 10
8 6 5
END_STATE
END_LABELED_STATE
BEGIN_LABELED_STATE
2.0
BEGIN_STATE
7 5 3
7 4 2
9 4 11
7 7 1
9 5 10
8 6 5
END_STATE
END_LABELED_STATE
BEGIN_LABELED_STATE
1.0
BEGIN_STATE
7 5 1
7 4 2
9 4 11
7 7 1
9 5 10
8 6 5
END_STATE
END_LABELED_STATE
BEGIN_LABELED_STATE
0.0
BEGIN_STATE
7 5 1
7 4 2
9 4 11
7 7 1
9 5 11
7 6 1
END_STATE
END_LABELED_STATE
BEGIN_LABELED_STATE
2.0
BEGIN_STATE
7 5 3
7 4 0
9 4 11
7 7 0
9 5 10
8 6 5
END_STATE
END_LABELED_STATE
BEGIN_LABELED_STATE
1.0
BEGIN_STATE
7 5 1
7 4 0
9 4 11
7 7 0
9 5 10
8 6 5
END_STATE
END_LABELED_STATE
BEGIN_LABELED_STATE
0.0
BEGIN_STATE
7 5 1
7 4 0
9 4 11
7 7 0
9 5 11
7 6 1
END_STATE
END_LABELED_STATE
BEGIN_LABELED_STATE
3.0
BEGIN_STATE
7 5 3
7 4 2
9 4 9
8 7 4
9 5 11
8 6 4
END_STATE
END_LABELED_STATE
BEGIN_LABELED_STATE
2.0
BEGIN_STATE
7 5 3
7 4 3
9 4 9
8 7 4
9 5 11
8 6 4
END_STATE
END_LABELED_STATE
BEGIN_LABELED_STATE
1.0
BEGIN_STATE
7 5 3
7 4 1
9 4 9
8 7 4
9 5 11
8 6 4
END_STATE
END_LABELED_STATE
BEGIN_LABELED_STATE
0.0
BEGIN_STATE
7 5 3
7 4 1
9 4 10
8 7 4
9 5 11
7 6 1
END_STATE
END_LABELED_STATE
BEGIN_LABELED_STATE
4.0
BEGIN_STATE
7 5 2
7 4 0
9 4 11
7 7 0
9 5 11
7 6 3
END_STATE
END_LABELED_STATE
BEGIN_LABELED_STATE
3.0
BEGIN_STATE
7 5 3
7 4 0
9 4 11
7 7 0
9 5 11
7 6 3
END_STATE
END_LABELED_STATE
BEGIN_LABELED_STATE
3.0
BEGIN_STATE
7 5 3
7 4 2
9 4 10
8 7 4
9 5 11
7 6 3
END_STATE
END_LABELED_STATE
BEGIN_LABELED_STATE
2.0
BEGIN_STATE
7 5 3
7 4 2
9 4 10
8 7 4
9 5 10
8 6 5
END_STATE
END_LABELED_STATE
BEGIN_LABELED_STATE
1.0
BEGIN_STATE
7 5 1
7 4 2
9 4 10
8 7 4
9 5 10
8 6 5
END_STATE
END_LABELED_STATE
BEGIN_LABELED_STATE
0.0
BEGIN_STATE
7 5 1
7 4 2
9 4 10
8 7 4
9 5 11
7 6 1
END_STATE
END_LABELED_STATE
BEGIN_LABELED_STATE
4.0
BEGIN_STATE
7 5 1
7 4 0
9 4 9
8 7 4
9 5 11
8 6 4
END_STATE
END_LABELED_STATE
BEGIN_LABELED_STATE
3.0
BEGIN_STATE
7 5 1
7 4 2
9 4 9
8 7 4
9 5 11
8 6 4
END_STATE
END_LABELED_STATE
BEGIN_LABELED_STATE
2.0
BEGIN_STATE
7 5 1
7 4 3
9 4 9
8 7 4
9 5 11
8 6 4
END_STATE
END_LABELED_STATE
BEGIN_LABELED_STATE
1.0
BEGIN_STATE
7 5 1
7 4 1
9 4 9
8 7 4
9 5 11
8 6 4
END_STATE
END_LABELED_STATE
BEGIN_LABELED_STATE
0.0
BEGIN_STATE
7 5 1
7 4 1
9 4 10
8 7 4
9 5 11
7 6 1
END_STATE
END_LABELED_STATE
BEGIN_LABELED_STATE
4.0
BEGIN_STATE
7 5 2
7 4 2
9 4 10
8 7 4
9 5 11
7 6 2
END_STATE
END_LABELED_STATE
BEGIN_LABELED_STATE
3.0
BEGIN_STATE
7 5 2
7 4 2
9 4 10
8 7 4
9 5 10
8 6 5
END_STATE
END_LABELED_STATE
BEGIN_LABELED_STATE
0.0
BEGIN_STATE
7 5 1
7 4 3
9 4 10
8 7 4
9 5 11
7 6 1
END_STATE
END_LABELED_STATE
BEGIN_LABELED_STATE
3.0
BEGIN_STATE
7 5 2
7 4 0
9 4 11
7 7 2
9 5 10
8 6 5
END_STATE
END_LABELED_STATE
BEGIN_LABELED_STATE
2.0
BEGIN_STATE
7 5 3
7 4 0
9 4 11
7 7 2
9 5 10
8 6 5
END_STATE
END_LABELED_STATE
BEGIN_LABELED_STATE
1.0
BEGIN_STATE
7 5 1
7 4 0
9 4 11
7 7 2
9 5 10
8 6 5
END_STATE
END_LABELED_STATE
BEGIN_LABELED_STATE
0.0
BEGIN_STATE
7 5 1
7 4 0
9 4 11
7 7 2
9 5 11
7 6 1
END_STATE
END_LABELED_STATE
BEGIN_LABELED_STATE
3.0
BEGIN_STATE
7 5 3
7 4 2
9 4 11
8 7 5
9 5 10
7 6 3
END_STATE
END_LABELED_STATE
BEGIN_LABELED_STATE
2.0
BEGIN_STATE
7 5 3
7 4 2
9 4 11
8 7 5
9 5 9
8 6 5
END_STATE
END_LABELED_STATE
BEGIN_LABELED_STATE
1.0
BEGIN_STATE
7 5 1
7 4 2
9 4 11
8 7 5
9 5 9
8 6 5
END_STATE
END_LABELED_STATE
BEGIN_LABELED_STATE
0.0
BEGIN_STATE
7 5 1
7 4 2
9 4 11
8 7 5
9 5 10
7 6 1
END_STATE
END_LABELED_STATE
BEGIN_LABELED_STATE
0.0
BEGIN_STATE
7 5 0
7 4 1
9 4 11
7 7 3
9 5 11
7 6 1
END_STATE
END_LABELED_STATE
BEGIN_LABELED_STATE
4.0
BEGIN_STATE
7 5 2
7 4 3
9 4 11
7 7 1
9 5 11
7 6 2
END_STATE
END_LABELED_STATE
BEGIN_LABELED_STATE
3.0
BEGIN_STATE
7 5 2
7 4 3
9 4 11
7 7 1
9 5 10
8 6 5
END_STATE
END_LABELED_STATE
BEGIN_LABELED_STATE
2.0
BEGIN_STATE
7 5 3
7 4 3
9 4 11
7 7 1
9 5 10
8 6 5
END_STATE
END_LABELED_STATE
BEGIN_LABELED_STATE
1.0
BEGIN_STATE
7 5 1
7 4 3
9 4 11
7 7 1
9 5 10
8 6 5
END_STATE
END_LABELED_STATE
BEGIN_LABELED_STATE
0.0
BEGIN_STATE
7 5 1
7 4 3
9 4 11
7 7 1
9 5 11
7 6 1
END_STATE
END_LABELED_STATE
BEGIN_LABELED_STATE
3.0
BEGIN_STATE
7 5 1
7 4 2
9 4 10
7 7 3
9 5 11
8 6 4
END_STATE
END_LABELED_STATE
BEGIN_LABELED_STATE
2.0
BEGIN_STATE
7 5 1
7 4 3
9 4 10
7 7 3
9 5 11
8 6 4
END_STATE
END_LABELED_STATE
BEGIN_LABELED_STATE
1.0
BEGIN_STATE
7 5 1
7 4 1
9 4 10
7 7 3
9 5 11
8 6 4
END_STATE
END_LABELED_STATE
BEGIN_LABELED_STATE
0.0
BEGIN_STATE
7 5 1
7 4 1
9 4 11
7 7 3
9 5 11
7 6 1
END_STATE
END_LABELED_STATE
BEGIN_LABELED_STATE
0.0
BEGIN_STATE
7 5 0
7 4 0
9 4 10
8 7 4
9 5 11
7 6 1
END_STATE
END_LABELED_STATE
BEGIN_LABELED_STATE
5.0
BEGIN_STATE
7 5 1
7 4 0
9 4 11
7 7 2
9 5 11
7 6 0
END_STATE
END_LABELED_STATE
BEGIN_LABELED_STATE
4.0
BEGIN_STATE
7 5 1
7 4 0
9 4 10
7 7 2
9 5 11
8 6 4
END_STATE
END_LABELED_STATE
BEGIN_LABELED_STATE
3.0
BEGIN_STATE
7 5 1
7 4 2
9 4 10
7 7 2
9 5 11
8 6 4
END_STATE
END_LABELED_STATE
BEGIN_LABELED_STATE
2.0
BEGIN_STATE
7 5 1
7 4 3
9 4 10
7 7 2
9 5 11
8 6 4
END_STATE
END_LABELED_STATE
BEGIN_LABELED_STATE
1.0
BEGIN_STATE
7 5 1
7 4 1
9 4 10
7 7 2
9 5 11
8 6 4
END_STATE
END_LABELED_STATE
BEGIN_LABELED_STATE
0.0
BEGIN_STATE
7 5 1
7 4 1
9 4 11
7 7 2
9 5 11
7 6 1
END_STATE
END_LABELED_STATE
BEGIN_LABELED_STATE
1.0
BEGIN_STATE
7 5 3
7 4 1
9 4 10
7 7 2
9 5 11
8 6 4
END_STATE
END_LABELED_STATE
BEGIN_LABELED_STATE
0.0
BEGIN_STATE
7 5 3
7 4 1
9 4 11
7 7 2
9 5 11
7 6 1
END_STATE
END_LABELED_STATE
BEGIN_LABELED_STATE
5.0
BEGIN_STATE
7 5 2
7 4 0
9 4 11
7 7 0
9 5 11
7 6 0
END_STATE
END_LABELED_STATE
BEGIN_LABELED_STATE
4.0
BEGIN_STATE
7 5 2
7 4 1
9 4 10
8 7 4
9 5 11
7 6 3
END_STATE
END_LABELED_STATE
BEGIN_LABELED_STATE
3.0
BEGIN_STATE
7 5 3
7 4 1
9 4 10
8 7 4
9 5 11
7 6 3
END_STATE
END_LABELED_STATE
BEGIN_LABELED_STATE
2.0
BEGIN_STATE
7 5 3
7 4 1
9 4 10
8 7 4
9 5 10
8 6 5
END_STATE
END_LABELED_STATE
BEGIN_LABELED_STATE
1.0
BEGIN_STATE
7 5 1
7 4 1
9 4 10
8 7 4
9 5 10
8 6 5
END_STATE
END_LABELED_STATE
BEGIN_LABELED_STATE
5.0
BEGIN_STATE
7 5 3
7 4 0
9 4 11
7 7 1
9 5 11
7 6 2
END_STATE
END_LABELED_STATE
BEGIN_LABELED_STATE
4.0
BEGIN_STATE
7 5 2
7 4 0
9 4 11
7 7 1
9 5 11
7 6 2
END_STATE
END_LABELED_STATE
BEGIN_LABELED_STATE
3.0
BEGIN_STATE
7 5 2
7 4 0
9 4 11
7 7 1
9 5 10
8 6 5
END_STATE
END_LABELED_STATE
BEGIN_LABELED_STATE
2.0
BEGIN_STATE
7 5 3
7 4 0
9 4 11
7 7 1
9 5 10
8 6 5
END_STATE
END_LABELED_STATE
BEGIN_LABELED_STATE
1.0
BEGIN_STATE
7 5 1
7 4 0
9 4 11
7 7 1
9 5 10
8 6 5
END_STATE
END_LABELED_STATE
BEGIN_LABELED_STATE
0.0
BEGIN_STATE
7 5 1
7 4 0
9 4 11
7 7 1
9 5 11
7 6 1
END_STATE
END_LABELED_STATE
BEGIN_LABELED_STATE
5.0
BEGIN_STATE
7 5 3
7 4 0
9 4 11
7 7 2
9 5 11
7 6 0
END_STATE
END_LABELED_STATE
BEGIN_LABELED_STATE
4.0
BEGIN_STATE
7 5 3
7 4 0
9 4 10
7 7 2
9 5 11
8 6 4
END_STATE
END_LABELED_STATE
BEGIN_LABELED_STATE
3.0
BEGIN_STATE
7 5 3
7 4 2
9 4 10
7 7 2
9 5 11
8 6 4
END_STATE
END_LABELED_STATE
BEGIN_LABELED_STATE
2.0
BEGIN_STATE
7 5 3
7 4 3
9 4 10
7 7 2
9 5 11
8 6 4
END_STATE
END_LABELED_STATE
BEGIN_LABELED_STATE
4.0
BEGIN_STATE
7 5 0
7 4 0
9 4 10
8 7 5
9 5 10
8 6 4
END_STATE
END_LABELED_STATE
BEGIN_LABELED_STATE
3.0
BEGIN_STATE
7 5 0
7 4 2
9 4 10
8 7 5
9 5 10
8 6 4
END_STATE
END_LABELED_STATE
BEGIN_LABELED_STATE
2.0
BEGIN_STATE
7 5 0
7 4 3
9 4 10
8 7 5
9 5 10
8 6 4
END_STATE
END_LABELED_STATE
BEGIN_LABELED_STATE
1.0
BEGIN_STATE
7 5 0
7 4 1
9 4 10
8 7 5
9 5 10
8 6 4
END_STATE
END_LABELED_STATE
BEGIN_LABELED_STATE
0.0
BEGIN_STATE
7 5 0
7 4 1
9 4 11
8 7 5
9 5 10
7 6 1
END_STATE
END_LABELED_STATE
BEGIN_LABELED_STATE
0.0
BEGIN_STATE
7 5 2
7 4 0
9 4 11
7 7 2
9 5 11
7 6 1
END_STATE
END_LABELED_STATE
BEGIN_LABELED_STATE
4.0
BEGIN_STATE
7 5 3
7 4 2
9 4 11
7 7 0
9 5 11
7 6 2
END_STATE
END_LABELED_STATE
BEGIN_LABELED_STATE
3.0
BEGIN_STATE
7 5 3
7 4 2
9 4 10
7 7 0
9 5 11
8 6 4
END_STATE
END_LABELED_STATE
BEGIN_LABELED_STATE
2.0
BEGIN_STATE
7 5 3
7 4 3
9 4 10
7 7 0
9 5 11
8 6 4
END_STATE
END_LABELED_STATE
BEGIN_LABELED_STATE
1.0
BEGIN_STATE
7 5 3
7 4 1
9 4 10
7 7 0
9 5 11
8 6 4
END_STATE
END_LABELED_STATE
BEGIN_LABELED_STATE
0.0
BEGIN_STATE
7 5 3
7 4 1
9 4 11
7 7 0
9 5 11
7 6 1
END_STATE
END_LABELED_STATE
BEGIN_LABELED_STATE
2.0
BEGIN_STATE
7 5 3
7 4 0
9 4 10
8 7 4
9 5 10
8 6 5
END_STATE
END_LABELED_STATE
BEGIN_LABELED_STATE
1.0
BEGIN_STATE
7 5 1
7 4 0
9 4 10
8 7 4
9 5 10
8 6 5
END_STATE
END_LABELED_STATE
BEGIN_LABELED_STATE
0.0
BEGIN_STATE
7 5 1
7 4 0
9 4 10
8 7 4
9 5 11
7 6 1
END_STATE
END_LABELED_STATE
BEGIN_LABELED_STATE
3.0
BEGIN_STATE
7 5 3
7 4 3
9 4 11
7 7 3
9 5 11
7 6 3
END_STATE
END_LABELED_STATE
BEGIN_LABELED_STATE
2.0
BEGIN_STATE
7 5 3
7 4 3
9 4 11
7 7 3
9 5 10
8 6 5
END_STATE
END_LABELED_STATE
BEGIN_LABELED_STATE
1.0
BEGIN_STATE
7 5 1
7 4 3
9 4 11
7 7 3
9 5 10
8 6 5
END_STATE
END_LABELED_STATE
BEGIN_LABELED_STATE
0.0
BEGIN_STATE
7 5 1
7 4 3
9 4 11
7 7 3
9 5 11
7 6 1
END_STATE
END_LABELED_STATE
BEGIN_LABELED_STATE
2.0
BEGIN_STATE
7 5 3
7 4 3
9 4 10
8 7 4
9 5 10
8 6 5
END_STATE
END_LABELED_STATE
BEGIN_LABELED_STATE
1.0
BEGIN_STATE
7 5 1
7 4 3
9 4 10
8 7 4
9 5 10
8 6 5
END_STATE
END_LABELED_STATE
BEGIN_LABELED_STATE
3.0
BEGIN_STATE
7 5 0
7 4 3
9 4 10
8 7 4
9 5 11
7 6 3
END_STATE
END_LABELED_STATE
BEGIN_LABELED_STATE
2.0
BEGIN_STATE
7 5 0
7 4 3
9 4 9
8 7 4
9 5 11
8 6 4
END_STATE
END_LABELED_STATE
BEGIN_LABELED_STATE
2.0
BEGIN_STATE
7 5 2
7 4 3
9 4 9
8 7 4
9 5 11
8 6 4
END_STATE
END_LABELED_STATE
BEGIN_LABELED_STATE
1.0
BEGIN_STATE
7 5 2
7 4 1
9 4 9
8 7 4
9 5 11
8 6 4
END_STATE
END_LABELED_STATE
BEGIN_LABELED_STATE
2.0
BEGIN_STATE
7 5 3
7 4 2
9 4 11
7 7 0
9 5 10
8 6 5
END_STATE
END_LABELED_STATE
BEGIN_LABELED_STATE
1.0
BEGIN_STATE
7 5 1
7 4 2
9 4 11
7 7 0
9 5 10
8 6 5
END_STATE
END_LABELED_STATE
BEGIN_LABELED_STATE
0.0
BEGIN_STATE
7 5 1
7 4 2
9 4 11
7 7 0
9 5 11
7 6 1
END_STATE
END_LABELED_STATE
BEGIN_LABELED_STATE
0.0
BEGIN_STATE
7 5 3
7 4 3
9 4 11
7 7 2
9 5 11
7 6 1
END_STATE
END_LABELED_STATE
BEGIN_LABELED_STATE
4.0
BEGIN_STATE
7 5 1
7 4 2
9 4 11
7 7 1
9 5 11
7 6 2
END_STATE
END_LABELED_STATE
BEGIN_LABELED_STATE
3.0
BEGIN_STATE
7 5 1
7 4 2
9 4 10
7 7 1
9 5 11
8 6 4
END_STATE
END_LABELED_STATE
BEGIN_LABELED_STATE
2.0
BEGIN_STATE
7 5 1
7 4 3
9 4 10
7 7 1
9 5 11
8 6 4
END_STATE
END_LABELED_STATE
BEGIN_LABELED_STATE
1.0
BEGIN_STATE
7 5 1
7 4 1
9 4 10
7 7 1
9 5 11
8 6 4
END_STATE
END_LABELED_STATE
BEGIN_LABELED_STATE
0.0
BEGIN_STATE
7 5 1
7 4 1
9 4 11
7 7 1
9 5 11
7 6 1
END_STATE
END_LABELED_STATE
BEGIN_LABELED_STATE
0.0
BEGIN_STATE
7 5 1
7 4 1
9 4 11
7 7 0
9 5 11
7 6 1
END_STATE
END_LABELED_STATE
BEGIN_LABELED_STATE
0.0
BEGIN_STATE
7 5 3
7 4 1
9 4 11
7 7 3
9 5 11
7 6 1
END_STATE
END_LABELED_STATE
BEGIN_LABELED_STATE
5.0
BEGIN_STATE
7 5 3
7 4 3
9 4 11
7 7 0
9 5 11
7 6 2
END_STATE
END_LABELED_STATE
BEGIN_LABELED_STATE
4.0
BEGIN_STATE
7 5 2
7 4 3
9 4 11
7 7 0
9 5 11
7 6 2
END_STATE
END_LABELED_STATE
BEGIN_LABELED_STATE
4.0
BEGIN_STATE
7 5 0
7 4 3
9 4 11
7 7 1
9 5 10
8 6 5
END_STATE
END_LABELED_STATE
BEGIN_LABELED_STATE
3.0
BEGIN_STATE
7 5 2
7 4 3
9 4 10
8 7 4
9 5 11
7 6 3
END_STATE
END_LABELED_STATE
BEGIN_LABELED_STATE
4.0
BEGIN_STATE
7 5 0
7 4 2
9 4 11
7 7 2
9 5 11
7 6 2
END_STATE
END_LABELED_STATE
BEGIN_LABELED_STATE
3.0
BEGIN_STATE
7 5 0
7 4 2
9 4 10
7 7 2
9 5 11
8 6 4
END_STATE
END_LABELED_STATE
BEGIN_LABELED_STATE
2.0
BEGIN_STATE
7 5 0
7 4 3
9 4 10
7 7 2
9 5 11
8 6 4
END_STATE
END_LABELED_STATE
BEGIN_LABELED_STATE
1.0
BEGIN_STATE
7 5 0
7 4 1
9 4 10
7 7 2
9 5 11
8 6 4
END_STATE
END_LABELED_STATE
BEGIN_LABELED_STATE
0.0
BEGIN_STATE
7 5 0
7 4 1
9 4 11
7 7 2
9 5 11
7 6 1
END_STATE
END_LABELED_STATE
BEGIN_LABELED_STATE
3.0
BEGIN_STATE
7 5 3
7 4 1
9 4 11
8 7 5
9 5 10
7 6 3
END_STATE
END_LABELED_STATE
BEGIN_LABELED_STATE
0.0
BEGIN_STATE
7 5 3
7 4 1
9 4 11
7 7 1
9 5 11
7 6 1
END_STATE
END_LABELED_STATE
BEGIN_LABELED_STATE
4.0
BEGIN_STATE
7 5 0
7 4 1
9 4 11
8 7 5
9 5 10
7 6 3
END_STATE
END_LABELED_STATE
BEGIN_LABELED_STATE
3.0
BEGIN_STATE
7 5 0
7 4 3
9 4 11
8 7 5
9 5 10
7 6 3
END_STATE
END_LABELED_STATE
BEGIN_LABELED_STATE
0.0
BEGIN_STATE
7 5 0
7 4 3
9 4 11
7 7 0
9 5 11
7 6 1
END_STATE
END_LABELED_STATE
BEGIN_LABELED_STATE
3.0
BEGIN_STATE
7 5 3
7 4 3
9 4 11
7 7 1
9 5 11
7 6 3
END_STATE
END_LABELED_STATE
BEGIN_LABELED_STATE
0.0
BEGIN_STATE
7 5 2
7 4 0
9 4 11
8 7 5
9 5 10
7 6 1
END_STATE
END_LABELED_STATE
BEGIN_LABELED_STATE
0.0
BEGIN_STATE
7 5 2
7 4 2
9 4 11
7 7 3
9 5 11
7 6 1
END_STATE
END_LABELED_STATE
BEGIN_LABELED_STATE
3.0
BEGIN_STATE
7 5 3
7 4 3
9 4 11
7 7 2
9 5 11
7 6 3
END_STATE
END_LABELED_STATE
BEGIN_LABELED_STATE
2.0
BEGIN_STATE
7 5 3
7 4 3
9 4 11
7 7 2
9 5 10
8 6 5
END_STATE
END_LABELED_STATE
BEGIN_LABELED_STATE
1.0
BEGIN_STATE
7 5 1
7 4 3
9 4 11
7 7 2
9 5 10
8 6 5
END_STATE
END_LABELED_STATE
BEGIN_LABELED_STATE
0.0
BEGIN_STATE
7 5 1
7 4 3
9 4 11
7 7 2
9 5 11
7 6 1
END_STATE
END_LABELED_STATE
BEGIN_LABELED_STATE
5.0
BEGIN_STATE
7 5 0
7 4 1
9 4 11
7 7 1
9 5 11
7 6 2
END_STATE
END_LABELED_STATE
BEGIN_LABELED_STATE
4.0
BEGIN_STATE
7 5 2
7 4 1
9 4 11
7 7 1
9 5 11
7 6 2
END_STATE
END_LABELED_STATE
BEGIN_LABELED_STATE
3.0
BEGIN_STATE
7 5 2
7 4 1
9 4 11
7 7 1
9 5 10
8 6 5
END_STATE
END_LABELED_STATE
BEGIN_LABELED_STATE
2.0
BEGIN_STATE
7 5 3
7 4 1
9 4 11
7 7 1
9 5 10
8 6 5
END_STATE
END_LABELED_STATE
BEGIN_LABELED_STATE
1.0
BEGIN_STATE
7 5 1
7 4 1
9 4 11
7 7 1
9 5 10
8 6 5
END_STATE
END_LABELED_STATE
BEGIN_LABELED_STATE
4.0
BEGIN_STATE
7 5 2
7 4 3
9 4 11
7 7 3
9 5 11
7 6 2
END_STATE
END_LABELED_STATE
BEGIN_LABELED_STATE
3.0
BEGIN_STATE
7 5 2
7 4 3
9 4 11
7 7 3
9 5 10
8 6 5
END_STATE
END_LABELED_STATE
BEGIN_LABELED_STATE
4.0
BEGIN_STATE
7 5 0
7 4 1
9 4 11
7 7 0
9 5 11
7 6 3
END_STATE
END_LABELED_STATE
BEGIN_LABELED_STATE
3.0
BEGIN_STATE
7 5 0
7 4 3
9 4 11
7 7 0
9 5 11
7 6 3
END_STATE
END_LABELED_STATE
BEGIN_LABELED_STATE
2.0
BEGIN_STATE
7 5 0
7 4 3
9 4 10
7 7 0
9 5 11
8 6 4
END_STATE
END_LABELED_STATE
BEGIN_LABELED_STATE
1.0
BEGIN_STATE
7 5 0
7 4 1
9 4 10
7 7 0
9 5 11
8 6 4
END_STATE
END_LABELED_STATE
BEGIN_LABELED_STATE
0.0
BEGIN_STATE
7 5 0
7 4 1
9 4 11
7 7 0
9 5 11
7 6 1
END_STATE
END_LABELED_STATE
BEGIN_LABELED_STATE
5.0
BEGIN_STATE
7 5 3
7 4 1
9 4 11
7 7 3
9 5 11
7 6 2
END_STATE
END_LABELED_STATE
BEGIN_LABELED_STATE
4.0
BEGIN_STATE
7 5 2
7 4 1
9 4 11
7 7 3
9 5 11
7 6 2
END_STATE
END_LABELED_STATE
BEGIN_LABELED_STATE
3.0
BEGIN_STATE
7 5 2
7 4 1
9 4 11
7 7 3
9 5 10
8 6 5
END_STATE
END_LABELED_STATE
BEGIN_LABELED_STATE
2.0
BEGIN_STATE
7 5 3
7 4 1
9 4 11
7 7 3
9 5 10
8 6 5
END_STATE
END_LABELED_STATE
BEGIN_LABELED_STATE
1.0
BEGIN_STATE
7 5 1
7 4 1
9 4 11
7 7 3
9 5 10
8 6 5
END_STATE
END_LABELED_STATE
BEGIN_LABELED_STATE
0.0
BEGIN_STATE
7 5 2
7 4 3
9 4 11
7 7 2
9 5 11
7 6 1
END_STATE
END_LABELED_STATE
BEGIN_LABELED_STATE
3.0
BEGIN_STATE
7 5 3
7 4 0
9 4 11
7 7 3
9 5 11
7 6 3
END_STATE
END_LABELED_STATE
BEGIN_LABELED_STATE
2.0
BEGIN_STATE
7 5 3
7 4 0
9 4 11
7 7 3
9 5 10
8 6 5
END_STATE
END_LABELED_STATE
BEGIN_LABELED_STATE
1.0
BEGIN_STATE
7 5 1
7 4 0
9 4 11
7 7 3
9 5 10
8 6 5
END_STATE
END_LABELED_STATE
BEGIN_LABELED_STATE
0.0
BEGIN_STATE
7 5 1
7 4 0
9 4 11
7 7 3
9 5 11
7 6 1
END_STATE
END_LABELED_STATE
BEGIN_LABELED_STATE
7.0
BEGIN_STATE
7 5 3
7 4 3
9 4 11
7 7 2
9 5 11
7 6 0
END_STATE
END_LABELED_STATE
BEGIN_LABELED_STATE
6.0
BEGIN_STATE
7 5 2
7 4 3
9 4 11
7 7 2
9 5 11
7 6 0
END_STATE
END_LABELED_STATE
BEGIN_LABELED_STATE
5.0
BEGIN_STATE
7 5 0
7 4 3
9 4 11
7 7 2
9 5 11
7 6 0
END_STATE
END_LABELED_STATE
BEGIN_LABELED_STATE
4.0
BEGIN_STATE
7 5 0
7 4 3
9 4 11
7 7 2
9 5 10
8 6 5
END_STATE
END_LABELED_STATE
BEGIN_LABELED_STATE
3.0
BEGIN_STATE
7 5 2
7 4 3
9 4 11
7 7 2
9 5 10
8 6 5
END_STATE
END_LABELED_STATE
BEGIN_LABELED_STATE
7.0
BEGIN_STATE
7 5 3
7 4 1
9 4 10
8 7 4
9 5 11
7 6 0
END_STATE
END_LABELED_STATE
BEGIN_LABELED_STATE
6.0
BEGIN_STATE
7 5 2
7 4 1
9 4 10
8 7 4
9 5 11
7 6 0
END_STATE
END_LABELED_STATE
BEGIN_LABELED_STATE
5.0
BEGIN_STATE
7 5 0
7 4 1
9 4 10
8 7 4
9 5 11
7 6 0
END_STATE
END_LABELED_STATE
BEGIN_LABELED_STATE
4.0
BEGIN_STATE
7 5 0
7 4 1
9 4 10
8 7 4
9 5 10
8 6 5
END_STATE
END_LABELED_STATE
BEGIN_LABELED_STATE
3.0
BEGIN_STATE
7 5 2
7 4 1
9 4 10
8 7 4
9 5 10
8 6 5
END_STATE
END_LABELED_STATE
BEGIN_LABELED_STATE
5.0
BEGIN_STATE
7 5 0
7 4 1
9 4 11
7 7 2
9 5 11
7 6 2
END_STATE
END_LABELED_STATE
BEGIN_LABELED_STATE
4.0
BEGIN_STATE
7 5 2
7 4 1
9 4 11
7 7 2
9 5 11
7 6 2
END_STATE
END_LABELED_STATE
BEGIN_LABELED_STATE
3.0
BEGIN_STATE
7 5 2
7 4 1
9 4 11
7 7 2
9 5 10
8 6 5
END_STATE
END_LABELED_STATE
BEGIN_LABELED_STATE
2.0
BEGIN_STATE
7 5 3
7 4 1
9 4 11
7 7 2
9 5 10
8 6 5
END_STATE
END_LABELED_STATE
BEGIN_LABELED_STATE
1.0
BEGIN_STATE
7 5 1
7 4 1
9 4 11
7 7 2
9 5 10
8 6 5
END_STATE
END_LABELED_STATE
BEGIN_LABELED_STATE
3.0
BEGIN_STATE
7 5 2
7 4 3
9 4 10
8 7 4
9 5 10
8 6 5
END_STATE
END_LABELED_STATE
BEGIN_LABELED_STATE
5.0
BEGIN_STATE
7 5 1
7 4 0
9 4 10
8 7 4
9 5 11
7 6 0
END_STATE
END_LABELED_STATE
BEGIN_LABELED_STATE
4.0
BEGIN_STATE
7 5 1
7 4 1
9 4 10
8 7 4
9 5 11
7 6 3
END_STATE
END_LABELED_STATE
BEGIN_LABELED_STATE
3.0
BEGIN_STATE
7 5 2
7 4 3
9 4 11
7 7 2
9 5 11
7 6 3
END_STATE
END_LABELED_STATE
BEGIN_LABELED_STATE
2.0
BEGIN_STATE
7 5 2
7 4 3
9 4 10
7 7 1
9 5 11
8 6 4
END_STATE
END_LABELED_STATE
BEGIN_LABELED_STATE
1.0
BEGIN_STATE
7 5 2
7 4 1
9 4 10
7 7 1
9 5 11
8 6 4
END_STATE
END_LABELED_STATE
BEGIN_LABELED_STATE
0.0
BEGIN_STATE
7 5 2
7 4 1
9 4 11
7 7 1
9 5 11
7 6 1
END_STATE
END_LABELED_STATE
BEGIN_LABELED_STATE
3.0
BEGIN_STATE
7 5 3
7 4 2
9 4 10
7 7 1
9 5 11
8 6 4
END_STATE
END_LABELED_STATE
BEGIN_LABELED_STATE
2.0
BEGIN_STATE
7 5 3
7 4 3
9 4 10
7 7 1
9 5 11
8 6 4
END_STATE
END_LABELED_STATE
BEGIN_LABELED_STATE
1.0
BEGIN_STATE
7 5 3
7 4 1
9 4 10
7 7 1
9 5 11
8 6 4
END_STATE
END_LABELED_STATE
BEGIN_LABELED_STATE
0.0
BEGIN_STATE
7 5 2
7 4 2
9 4 11
7 7 2
9 5 11
7 6 1
END_STATE
END_LABELED_STATE
BEGIN_LABELED_STATE
5.0
BEGIN_STATE
7 5 3
7 4 0
9 4 10
8 7 4
9 5 11
7 6 0
END_STATE
END_LABELED_STATE
BEGIN_LABELED_STATE
4.0
BEGIN_STATE
7 5 3
7 4 0
9 4 9
8 7 4
9 5 11
8 6 4
END_STATE
END_LABELED_STATE
BEGIN_LABELED_STATE
0.0
BEGIN_STATE
7 5 1
7 4 2
9 4 11
7 7 3
9 5 11
7 6 1
END_STATE
END_LABELED_STATE
BEGIN_LABELED_STATE
0.0
BEGIN_STATE
7 5 3
7 4 3
9 4 10
8 7 4
9 5 11
7 6 1
END_STATE
END_LABELED_STATE
BEGIN_LABELED_STATE
4.0
BEGIN_STATE
7 5 0
7 4 0
9 4 10
8 7 4
9 5 10
8 6 5
END_STATE
END_LABELED_STATE
BEGIN_LABELED_STATE
3.0
BEGIN_STATE
7 5 2
7 4 0
9 4 10
8 7 4
9 5 10
8 6 5
END_STATE
END_LABELED_STATE
BEGIN_LABELED_STATE
5.0
BEGIN_STATE
7 5 0
7 4 0
9 4 11
7 7 0
9 5 11
7 6 2
END_STATE
END_LABELED_STATE
BEGIN_LABELED_STATE
4.0
BEGIN_STATE
7 5 2
7 4 0
9 4 11
7 7 0
9 5 11
7 6 2
END_STATE
END_LABELED_STATE
BEGIN_LABELED_STATE
3.0
BEGIN_STATE
7 5 2
7 4 0
9 4 11
7 7 0
9 5 10
8 6 5
END_STATE
END_LABELED_STATE
BEGIN_LABELED_STATE
5.0
BEGIN_STATE
7 5 3
7 4 0
9 4 11
7 7 1
9 5 11
7 6 0
END_STATE
END_LABELED_STATE
BEGIN_LABELED_STATE
4.0
BEGIN_STATE
7 5 3
7 4 0
9 4 10
7 7 1
9 5 11
8 6 4
END_STATE
END_LABELED_STATE
BEGIN_LABELED_STATE
6.0
BEGIN_STATE
7 5 1
7 4 2
9 4 11
7 7 2
9 5 11
7 6 0
END_STATE
END_LABELED_STATE
BEGIN_LABELED_STATE
5.0
BEGIN_STATE
7 5 1
7 4 0
9 4 11
7 7 1
9 5 11
7 6 2
END_STATE
END_LABELED_STATE
BEGIN_LABELED_STATE
7.0
BEGIN_STATE
7 5 3
7 4 1
9 4 11
7 7 1
9 5 11
7 6 0
END_STATE
END_LABELED_STATE
BEGIN_LABELED_STATE
6.0
BEGIN_STATE
7 5 2
7 4 1
9 4 11
7 7 1
9 5 11
7 6 0
END_STATE
END_LABELED_STATE
BEGIN_LABELED_STATE
5.0
BEGIN_STATE
7 5 0
7 4 1
9 4 11
7 7 1
9 5 11
7 6 0
END_STATE
END_LABELED_STATE
BEGIN_LABELED_STATE
4.0
BEGIN_STATE
7 5 0
7 4 1
9 4 11
7 7 1
9 5 10
8 6 5
END_STATE
END_LABELED_STATE
BEGIN_LABELED_STATE
5.0
BEGIN_STATE
7 5 3
7 4 0
9 4 11
7 7 2
9 5 11
7 6 2
END_STATE
END_LABELED_STATE
BEGIN_LABELED_STATE
4.0
BEGIN_STATE
7 5 2
7 4 0
9 4 11
7 7 2
9 5 11
7 6 2
END_STATE
END_LABELED_STATE
BEGIN_LABELED_STATE
3.0
BEGIN_STATE
7 5 0
7 4 2
9 4 10
7 7 3
9 5 11
8 6 4
END_STATE
END_LABELED_STATE
BEGIN_LABELED_STATE
2.0
BEGIN_STATE
7 5 0
7 4 3
9 4 10
7 7 3
9 5 11
8 6 4
END_STATE
END_LABELED_STATE
BEGIN_LABELED_STATE
1.0
BEGIN_STATE
7 5 0
7 4 1
9 4 10
7 7 3
9 5 11
8 6 4
END_STATE
END_LABELED_STATE
BEGIN_LABELED_STATE
5.0
BEGIN_STATE
7 5 0
7 4 3
9 4 11
7 7 2
9 5 11
7 6 2
END_STATE
END_LABELED_STATE
BEGIN_LABELED_STATE
4.0
BEGIN_STATE
7 5 2
7 4 3
9 4 11
7 7 2
9 5 11
7 6 2
END_STATE
END_LABELED_STATE
BEGIN_LABELED_STATE
5.0
BEGIN_STATE
7 5 0
7 4 3
9 4 10
8 7 4
9 5 11
7 6 2
END_STATE
END_LABELED_STATE
BEGIN_LABELED_STATE
4.0
BEGIN_STATE
7 5 2
7 4 3
9 4 10
8 7 4
9 5 11
7 6 2
END_STATE
END_LABELED_STATE
BEGIN_LABELED_STATE
4.0
BEGIN_STATE
7 5 2
7 4 2
9 4 11
7 7 2
9 5 11
7 6 3
END_STATE
END_LABELED_STATE
BEGIN_LABELED_STATE
3.0
BEGIN_STATE
7 5 3
7 4 2
9 4 11
7 7 2
9 5 11
7 6 3
END_STATE
END_LABELED_STATE
BEGIN_LABELED_STATE
2.0
BEGIN_STATE
7 5 3
7 4 2
9 4 11
7 7 2
9 5 10
8 6 5
END_STATE
END_LABELED_STATE
BEGIN_LABELED_STATE
1.0
BEGIN_STATE
7 5 1
7 4 2
9 4 11
7 7 2
9 5 10
8 6 5
END_STATE
END_LABELED_STATE
BEGIN_LABELED_STATE
0.0
BEGIN_STATE
7 5 1
7 4 2
9 4 11
7 7 2
9 5 11
7 6 1
END_STATE
END_LABELED_STATE
BEGIN_LABELED_STATE
6.0
BEGIN_STATE
7 5 2
7 4 3
9 4 11
7 7 3
9 5 11
7 6 0
END_STATE
END_LABELED_STATE
BEGIN_LABELED_STATE
5.0
BEGIN_STATE
7 5 0
7 4 3
9 4 11
7 7 3
9 5 11
7 6 0
END_STATE
END_LABELED_STATE
BEGIN_LABELED_STATE
4.0
BEGIN_STATE
7 5 0
7 4 3
9 4 11
7 7 3
9 5 10
8 6 5
END_STATE
END_LABELED_STATE
BEGIN_LABELED_STATE
5.0
BEGIN_STATE
7 5 3
7 4 1
9 4 10
8 7 4
9 5 11
7 6 2
END_STATE
END_LABELED_STATE
BEGIN_LABELED_STATE
4.0
BEGIN_STATE
7 5 2
7 4 1
9 4 10
8 7 4
9 5 11
7 6 2
END_STATE
END_LABELED_STATE
BEGIN_LABELED_STATE
1.0
BEGIN_STATE
7 5 0
7 4 1
9 4 10
7 7 1
9 5 11
8 6 4
END_STATE
END_LABELED_STATE
BEGIN_LABELED_STATE
0.0
BEGIN_STATE
7 5 0
7 4 1
9 4 11
7 7 1
9 5 11
7 6 1
END_STATE
END_LABELED_STATE
BEGIN_LABELED_STATE
6.0
BEGIN_STATE
7 5 2
7 4 1
9 4 11
7 7 2
9 5 11
7 6 0
END_STATE
END_LABELED_STATE
BEGIN_LABELED_STATE
5.0
BEGIN_STATE
7 5 0
7 4 1
9 4 11
7 7 2
9 5 11
7 6 0
END_STATE
END_LABELED_STATE
BEGIN_LABELED_STATE
4.0
BEGIN_STATE
7 5 0
7 4 1
9 4 11
7 7 2
9 5 10
8 6 5
END_STATE
END_LABELED_STATE
BEGIN_LABELED_STATE
4.0
BEGIN_STATE
7 5 0
7 4 2
9 4 11
7 7 3
9 5 11
7 6 2
END_STATE
END_LABELED_STATE
BEGIN_LABELED_STATE
4.0
BEGIN_STATE
7 5 1
7 4 2
9 4 11
7 7 2
9 5 11
7 6 2
END_STATE
END_LABELED_STATE
BEGIN_LABELED_STATE
5.0
BEGIN_STATE
7 5 3
7 4 3
9 4 11
7 7 2
9 5 11
7 6 2
END_STATE
END_LABELED_STATE
BEGIN_LABELED_STATE
2.0
BEGIN_STATE
7 5 3
7 4 3
9 4 10
7 7 3
9 5 11
8 6 4
END_STATE
END_LABELED_STATE
BEGIN_LABELED_STATE
1.0
BEGIN_STATE
7 5 3
7 4 1
9 4 10
7 7 3
9 5 11
8 6 4
END_STATE
END_LABELED_STATE
BEGIN_LABELED_STATE
6.0
BEGIN_STATE
7 5 1
7 4 1
9 4 11
8 7 5
9 5 10
7 6 2
END_STATE
END_LABELED_STATE
BEGIN_LABELED_STATE
5.0
BEGIN_STATE
7 5 1
7 4 3
9 4 11
8 7 5
9 5 10
7 6 2
END_STATE
END_LABELED_STATE
BEGIN_LABELED_STATE
4.0
BEGIN_STATE
7 5 1
7 4 2
9 4 11
8 7 5
9 5 10
7 6 2
END_STATE
END_LABELED_STATE
BEGIN_LABELED_STATE
3.0
BEGIN_STATE
7 5 1
7 4 2
9 4 10
8 7 5
9 5 10
8 6 4
END_STATE
END_LABELED_STATE
BEGIN_LABELED_STATE
2.0
BEGIN_STATE
7 5 1
7 4 3
9 4 10
8 7 5
9 5 10
8 6 4
END_STATE
END_LABELED_STATE
BEGIN_LABELED_STATE
1.0
BEGIN_STATE
7 5 1
7 4 1
9 4 10
8 7 5
9 5 10
8 6 4
END_STATE
END_LABELED_STATE
BEGIN_LABELED_STATE
5.0
BEGIN_STATE
7 5 2
7 4 0
9 4 11
7 7 3
9 5 11
7 6 0
END_STATE
END_LABELED_STATE
BEGIN_LABELED_STATE
4.0
BEGIN_STATE
7 5 2
7 4 0
9 4 10
7 7 3
9 5 11
8 6 4
END_STATE
END_LABELED_STATE
BEGIN_LABELED_STATE
3.0
BEGIN_STATE
7 5 2
7 4 2
9 4 10
7 7 3
9 5 11
8 6 4
END_STATE
END_LABELED_STATE
BEGIN_LABELED_STATE
5.0
BEGIN_STATE
7 5 0
7 4 0
9 4 11
7 7 1
9 5 11
7 6 3
END_STATE
END_LABELED_STATE
BEGIN_LABELED_STATE
4.0
BEGIN_STATE
7 5 2
7 4 0
9 4 11
7 7 1
9 5 11
7 6 3
END_STATE
END_LABELED_STATE
BEGIN_LABELED_STATE
3.0
BEGIN_STATE
7 5 3
7 4 0
9 4 11
7 7 1
9 5 11
7 6 3
END_STATE
END_LABELED_STATE
BEGIN_LABELED_STATE
4.0
BEGIN_STATE
7 5 2
7 4 1
9 4 11
7 7 2
9 5 11
7 6 3
END_STATE
END_LABELED_STATE
BEGIN_LABELED_STATE
3.0
BEGIN_STATE
7 5 3
7 4 1
9 4 11
7 7 2
9 5 11
7 6 3
END_STATE
END_LABELED_STATE
BEGIN_LABELED_STATE
2.0
BEGIN_STATE
7 5 1
7 4 3
9 4 10
7 7 0
9 5 11
8 6 4
END_STATE
END_LABELED_STATE
BEGIN_LABELED_STATE
1.0
BEGIN_STATE
7 5 1
7 4 1
9 4 10
7 7 0
9 5 11
8 6 4
END_STATE
END_LABELED_STATE
BEGIN_LABELED_STATE
5.0
BEGIN_STATE
7 5 3
7 4 3
9 4 11
7 7 1
9 5 11
7 6 2
END_STATE
END_LABELED_STATE
BEGIN_LABELED_STATE
0.0
BEGIN_STATE
7 5 2
7 4 3
9 4 11
7 7 0
9 5 11
7 6 1
END_STATE
END_LABELED_STATE
BEGIN_LABELED_STATE
4.0
BEGIN_STATE
7 5 2
7 4 2
9 4 11
7 7 3
9 5 11
7 6 2
END_STATE
END_LABELED_STATE
BEGIN_LABELED_STATE
3.0
BEGIN_STATE
7 5 2
7 4 2
9 4 11
7 7 3
9 5 10
8 6 5
END_STATE
END_LABELED_STATE
BEGIN_LABELED_STATE
2.0
BEGIN_STATE
7 5 3
7 4 2
9 4 11
7 7 3
9 5 10
8 6 5
END_STATE
END_LABELED_STATE
BEGIN_LABELED_STATE
1.0
BEGIN_STATE
7 5 1
7 4 2
9 4 11
7 7 3
9 5 10
8 6 5
END_STATE
END_LABELED_STATE
BEGIN_LABELED_STATE
3.0
BEGIN_STATE
7 5 2
7 4 2
9 4 11
7 7 0
9 5 10
8 6 5
END_STATE
END_LABELED_STATE
BEGIN_LABELED_STATE
3.0
BEGIN_STATE
7 5 3
7 4 2
9 4 10
7 7 3
9 5 11
8 6 4
END_STATE
END_LABELED_STATE
BEGIN_LABELED_STATE
3.0
BEGIN_STATE
7 5 2
7 4 2
9 4 10
8 7 5
9 5 10
8 6 4
END_STATE
END_LABELED_STATE
BEGIN_LABELED_STATE
2.0
BEGIN_STATE
7 5 2
7 4 3
9 4 10
8 7 5
9 5 10
8 6 4
END_STATE
END_LABELED_STATE
BEGIN_LABELED_STATE
1.0
BEGIN_STATE
7 5 2
7 4 1
9 4 10
8 7 5
9 5 10
8 6 4
END_STATE
END_LABELED_STATE
BEGIN_LABELED_STATE
0.0
BEGIN_STATE
7 5 2
7 4 1
9 4 11
8 7 5
9 5 10
7 6 1
END_STATE
END_LABELED_STATE
BEGIN_LABELED_STATE
0.0
BEGIN_STATE
7 5 2
7 4 2
9 4 11
7 7 0
9 5 11
7 6 1
END_STATE
END_LABELED_STATE
BEGIN_LABELED_STATE
3.0
BEGIN_STATE
7 5 0
7 4 3
9 4 11
7 7 3
9 5 11
7 6 3
END_STATE
END_LABELED_STATE
BEGIN_LABELED_STATE
4.0
BEGIN_STATE
7 5 0
7 4 0
9 4 10
7 7 3
9 5 11
8 6 4
END_STATE
END_LABELED_STATE
BEGIN_LABELED_STATE
5.0
BEGIN_STATE
7 5 0
7 4 0
9 4 11
7 7 2
9 5 11
7 6 2
END_STATE
END_LABELED_STATE
BEGIN_LABELED_STATE
4.0
BEGIN_STATE
7 5 0
7 4 2
9 4 11
7 7 1
9 5 11
7 6 3
END_STATE
END_LABELED_STATE
BEGIN_LABELED_STATE
3.0
BEGIN_STATE
7 5 0
7 4 3
9 4 11
7 7 1
9 5 11
7 6 3
END_STATE
END_LABELED_STATE
BEGIN_LABELED_STATE
2.0
BEGIN_STATE
7 5 0
7 4 3
9 4 10
7 7 1
9 5 11
8 6 4
END_STATE
END_LABELED_STATE
BEGIN_LABELED_STATE
4.0
BEGIN_STATE
7 5 2
7 4 0
9 4 11
8 7 5
9 5 10
7 6 3
END_STATE
END_LABELED_STATE
BEGIN_LABELED_STATE
3.0
BEGIN_STATE
7 5 3
7 4 0
9 4 11
8 7 5
9 5 10
7 6 3
END_STATE
END_LABELED_STATE
BEGIN_LABELED_STATE
2.0
BEGIN_STATE
7 5 3
7 4 0
9 4 11
8 7 5
9 5 9
8 6 5
END_STATE
END_LABELED_STATE
BEGIN_LABELED_STATE
1.0
BEGIN_STATE
7 5 1
7 4 0
9 4 11
8 7 5
9 5 9
8 6 5
END_STATE
END_LABELED_STATE
BEGIN_LABELED_STATE
0.0
BEGIN_STATE
7 5 1
7 4 0
9 4 11
8 7 5
9 5 10
7 6 1
END_STATE
END_LABELED_STATE
BEGIN_LABELED_STATE
5.0
BEGIN_STATE
7 5 0
7 4 3
9 4 11
8 7 5
9 5 10
7 6 2
END_STATE
END_LABELED_STATE
BEGIN_LABELED_STATE
4.0
BEGIN_STATE
7 5 2
7 4 3
9 4 11
8 7 5
9 5 10
7 6 2
END_STATE
END_LABELED_STATE
BEGIN_LABELED_STATE
3.0
BEGIN_STATE
7 5 2
7 4 3
9 4 11
8 7 5
9 5 9
8 6 5
END_STATE
END_LABELED_STATE
BEGIN_LABELED_STATE
2.0
BEGIN_STATE
7 5 3
7 4 3
9 4 11
8 7 5
9 5 9
8 6 5
END_STATE
END_LABELED_STATE
BEGIN_LABELED_STATE
1.0
BEGIN_STATE
7 5 1
7 4 3
9 4 11
8 7 5
9 5 9
8 6 5
END_STATE
END_LABELED_STATE
BEGIN_LABELED_STATE
0.0
BEGIN_STATE
7 5 1
7 4 3
9 4 11
8 7 5
9 5 10
7 6 1
END_STATE
END_LABELED_STATE
BEGIN_LABELED_STATE
5.0
BEGIN_STATE
7 5 3
7 4 0
9 4 11
7 7 0
9 5 11
7 6 0
END_STATE
END_LABELED_STATE
BEGIN_LABELED_STATE
4.0
BEGIN_STATE
7 5 3
7 4 0
9 4 10
7 7 0
9 5 11
8 6 4
END_STATE
END_LABELED_STATE
BEGIN_LABELED_STATE
4.0
BEGIN_STATE
7 5 2
7 4 0
9 4 11
8 7 5
9 5 10
7 6 2
END_STATE
END_LABELED_STATE
BEGIN_LABELED_STATE
3.0
BEGIN_STATE
7 5 2
7 4 0
9 4 11
8 7 5
9 5 9
8 6 5
END_STATE
END_LABELED_STATE
BEGIN_LABELED_STATE
3.0
BEGIN_STATE
7 5 2
7 4 2
9 4 10
7 7 1
9 5 11
8 6 4
END_STATE
END_LABELED_STATE
BEGIN_LABELED_STATE
6.0
BEGIN_STATE
7 5 3
7 4 2
9 4 10
8 7 4
9 5 11
7 6 0
END_STATE
END_LABELED_STATE
BEGIN_LABELED_STATE
3.0
BEGIN_STATE
7 5 3
7 4 0
9 4 11
7 7 2
9 5 11
7 6 3
END_STATE
END_LABELED_STATE
BEGIN_LABELED_STATE
4.0
BEGIN_STATE
7 5 1
7 4 2
9 4 11
7 7 3
9 5 11
7 6 2
END_STATE
END_LABELED_STATE
BEGIN_LABELED_STATE
5.0
BEGIN_STATE
7 5 0
7 4 0
9 4 11
8 7 5
9 5 10
7 6 3
END_STATE
END_LABELED_STATE
BEGIN_LABELED_STATE
7.0
BEGIN_STATE
7 5 1
7 4 3
9 4 11
7 7 1
9 5 11
7 6 0
END_STATE
END_LABELED_STATE
BEGIN_LABELED_STATE
6.0
BEGIN_STATE
7 5 1
7 4 2
9 4 11
7 7 1
9 5 11
7 6 0
END_STATE
END_LABELED_STATE
BEGIN_LABELED_STATE
5.0
BEGIN_STATE
7 5 1
7 4 0
9 4 11
7 7 1
9 5 11
7 6 0
END_STATE
END_LABELED_STATE
BEGIN_LABELED_STATE
4.0
BEGIN_STATE
7 5 1
7 4 0
9 4 10
7 7 1
9 5 11
8 6 4
END_STATE
END_LABELED_STATE
BEGIN_LABELED_STATE
6.0
BEGIN_STATE
7 5 3
7 4 2
9 4 11
7 7 0
9 5 11
7 6 0
END_STATE
END_LABELED_STATE
BEGIN_LABELED_STATE
6.0
BEGIN_STATE
7 5 2
7 4 2
9 4 11
7 7 1
9 5 11
7 6 0
END_STATE
END_LABELED_STATE
BEGIN_LABELED_STATE
4.0
BEGIN_STATE
7 5 2
7 4 2
9 4 11
8 7 5
9 5 10
7 6 3
END_STATE
END_LABELED_STATE
BEGIN_LABELED_STATE
5.0
BEGIN_STATE
7 5 1
7 4 3
9 4 11
7 7 0
9 5 11
7 6 2
END_STATE
END_LABELED_STATE
BEGIN_LABELED_STATE
4.0
BEGIN_STATE
7 5 1
7 4 2
9 4 11
7 7 0
9 5 11
7 6 2
END_STATE
END_LABELED_STATE
BEGIN_LABELED_STATE
3.0
BEGIN_STATE
7 5 1
7 4 2
9 4 10
7 7 0
9 5 11
8 6 4
END_STATE
END_LABELED_STATE
BEGIN_LABELED_STATE
5.0
BEGIN_STATE
7 5 1
7 4 3
9 4 11
7 7 2
9 5 11
7 6 2
END_STATE
END_LABELED_STATE
BEGIN_LABELED_STATE
4.0
BEGIN_STATE
7 5 3
7 4 2
9 4 11
7 7 2
9 5 11
7 6 2
END_STATE
END_LABELED_STATE
BEGIN_LABELED_STATE
3.0
BEGIN_STATE
7 5 1
7 4 3
9 4 11
8 7 5
9 5 10
7 6 3
END_STATE
END_LABELED_STATE
BEGIN_LABELED_STATE
5.0
BEGIN_STATE
7 5 0
7 4 3
9 4 11
7 7 0
9 5 11
7 6 2
END_STATE
END_LABELED_STATE
BEGIN_LABELED_STATE
0.0
BEGIN_STATE
7 5 3
7 4 2
9 4 10
8 7 4
9 5 11
7 6 1
END_STATE
END_LABELED_STATE
BEGIN_LABELED_STATE
5.0
BEGIN_STATE
7 5 0
7 4 3
9 4 10
8 7 4
9 5 11
7 6 0
END_STATE
END_LABELED_STATE
BEGIN_LABELED_STATE
4.0
BEGIN_STATE
7 5 0
7 4 3
9 4 10
8 7 4
9 5 10
8 6 5
END_STATE
END_LABELED_STATE
BEGIN_LABELED_STATE
4.0
BEGIN_STATE
7 5 2
7 4 0
9 4 10
8 7 4
9 5 11
7 6 3
END_STATE
END_LABELED_STATE
BEGIN_LABELED_STATE
3.0
BEGIN_STATE
7 5 3
7 4 0
9 4 10
8 7 4
9 5 11
7 6 3
END_STATE
END_LABELED_STATE
BEGIN_LABELED_STATE
0.0
BEGIN_STATE
7 5 3
7 4 0
9 4 11
8 7 5
9 5 10
7 6 1
END_STATE
END_LABELED_STATE
BEGIN_LABELED_STATE
5.0
BEGIN_STATE
7 5 3
7 4 3
9 4 11
7 7 3
9 5 11
7 6 2
END_STATE
END_LABELED_STATE
BEGIN_LABELED_STATE
0.0
BEGIN_STATE
7 5 3
7 4 3
9 4 11
7 7 3
9 5 11
7 6 1
END_STATE
END_LABELED_STATE
BEGIN_LABELED_STATE
4.0
BEGIN_STATE
7 5 1
7 4 0
9 4 11
8 7 5
9 5 10
7 6 3
END_STATE
END_LABELED_STATE
BEGIN_LABELED_STATE
4.0
BEGIN_STATE
7 5 2
7 4 2
9 4 11
7 7 1
9 5 11
7 6 3
END_STATE
END_LABELED_STATE
BEGIN_LABELED_STATE
3.0
BEGIN_STATE
7 5 3
7 4 2
9 4 11
7 7 1
9 5 11
7 6 3
END_STATE
END_LABELED_STATE
BEGIN_LABELED_STATE
6.0
BEGIN_STATE
7 5 3
7 4 2
9 4 11
7 7 2
9 5 11
7 6 0
END_STATE
END_LABELED_STATE
BEGIN_LABELED_STATE
0.0
BEGIN_STATE
7 5 2
7 4 2
9 4 10
8 7 4
9 5 11
7 6 1
END_STATE
END_LABELED_STATE
BEGIN_LABELED_STATE
3.0
BEGIN_STATE
7 5 3
7 4 1
9 4 11
7 7 3
9 5 11
7 6 3
END_STATE
END_LABELED_STATE
BEGIN_LABELED_STATE
3.0
BEGIN_STATE
7 5 3
7 4 3
9 4 11
8 7 5
9 5 10
7 6 3
END_STATE
END_LABELED_STATE
BEGIN_LABELED_STATE
4.0
BEGIN_STATE
7 5 2
7 4 2
9 4 11
7 7 0
9 5 11
7 6 2
END_STATE
END_LABELED_STATE
BEGIN_LABELED_STATE
4.0
BEGIN_STATE
7 5 2
7 4 0
9 4 10
7 7 1
9 5 11
8 6 4
END_STATE
END_LABELED_STATE
BEGIN_LABELED_STATE
5.0
BEGIN_STATE
7 5 1
7 4 0
9 4 11
8 7 5
9 5 10
7 6 0
END_STATE
END_LABELED_STATE
BEGIN_LABELED_STATE
4.0
BEGIN_STATE
7 5 1
7 4 0
9 4 10
8 7 5
9 5 10
8 6 4
END_STATE
END_LABELED_STATE
BEGIN_LABELED_STATE
3.0
BEGIN_STATE
7 5 0
7 4 2
9 4 10
7 7 1
9 5 11
8 6 4
END_STATE
END_LABELED_STATE
BEGIN_LABELED_STATE
3.0
BEGIN_STATE
7 5 3
7 4 2
9 4 11
7 7 3
9 5 11
7 6 3
END_STATE
END_LABELED_STATE
BEGIN_LABELED_STATE
8.0
BEGIN_STATE
7 5 1
7 4 1
9 4 11
7 7 3
9 5 11
7 6 0
END_STATE
END_LABELED_STATE
BEGIN_LABELED_STATE
7.0
BEGIN_STATE
7 5 3
7 4 1
9 4 11
7 7 3
9 5 11
7 6 0
END_STATE
END_LABELED_STATE
BEGIN_LABELED_STATE
6.0
BEGIN_STATE
7 5 2
7 4 1
9 4 11
7 7 3
9 5 11
7 6 0
END_STATE
END_LABELED_STATE
BEGIN_LABELED_STATE
5.0
BEGIN_STATE
7 5 0
7 4 1
9 4 11
7 7 3
9 5 11
7 6 0
END_STATE
END_LABELED_STATE
BEGIN_LABELED_STATE
4.0
BEGIN_STATE
7 5 0
7 4 1
9 4 11
7 7 3
9 5 10
8 6 5
END_STATE
END_LABELED_STATE
BEGIN_LABELED_STATE
3.0
BEGIN_STATE
7 5 2
7 4 1
9 4 11
7 7 0
9 5 10
8 6 5
END_STATE
END_LABELED_STATE
BEGIN_LABELED_STATE
2.0
BEGIN_STATE
7 5 3
7 4 1
9 4 11
7 7 0
9 5 10
8 6 5
END_STATE
END_LABELED_STATE
BEGIN_LABELED_STATE
1.0
BEGIN_STATE
7 5 1
7 4 1
9 4 11
7 7 0
9 5 10
8 6 5
END_STATE
END_LABELED_STATE
BEGIN_LABELED_STATE
5.0
BEGIN_STATE
7 5 3
7 4 0
9 4 11
8 7 5
9 5 10
7 6 0
END_STATE
END_LABELED_STATE
BEGIN_LABELED_STATE
4.0
BEGIN_STATE
7 5 3
7 4 0
9 4 10
8 7 5
9 5 10
8 6 4
END_STATE
END_LABELED_STATE
BEGIN_LABELED_STATE
3.0
BEGIN_STATE
7 5 3
7 4 2
9 4 10
8 7 5
9 5 10
8 6 4
END_STATE
END_LABELED_STATE
BEGIN_LABELED_STATE
2.0
BEGIN_STATE
7 5 3
7 4 3
9 4 10
8 7 5
9 5 10
8 6 4
END_STATE
END_LABELED_STATE
BEGIN_LABELED_STATE
1.0
BEGIN_STATE
7 5 3
7 4 1
9 4 10
8 7 5
9 5 10
8 6 4
END_STATE
END_LABELED_STATE
BEGIN_LABELED_STATE
0.0
BEGIN_STATE
7 5 3
7 4 1
9 4 11
8 7 5
9 5 10
7 6 1
END_STATE
END_LABELED_STATE
BEGIN_LABELED_STATE
4.0
BEGIN_STATE
7 5 2
7 4 2
9 4 11
7 7 1
9 5 11
7 6 2
END_STATE
END_LABELED_STATE
BEGIN_LABELED_STATE
4.0
BEGIN_STATE
7 5 3
7 4 2
9 4 11
8 7 5
9 5 10
7 6 2
END_STATE
END_LABELED_STATE
BEGIN_LABELED_STATE
5.0
BEGIN_STATE
7 5 3
7 4 0
9 4 11
7 7 0
9 5 11
7 6 2
END_STATE
END_LABELED_STATE
BEGIN_LABELED_STATE
6.0
BEGIN_STATE
7 5 3
7 4 2
9 4 11
7 7 1
9 5 11
7 6 0
END_STATE
END_LABELED_STATE
BEGIN_LABELED_STATE
4.0
BEGIN_STATE
7 5 2
7 4 0
9 4 10
8 7 5
9 5 10
8 6 4
END_STATE
END_LABELED_STATE
BEGIN_LABELED_STATE
3.0
BEGIN_STATE
7 5 2
7 4 2
9 4 11
7 7 2
9 5 10
8 6 5
END_STATE
END_LABELED_STATE
BEGIN_LABELED_STATE
0.0
BEGIN_STATE
7 5 2
7 4 3
9 4 11
7 7 3
9 5 11
7 6 1
END_STATE
END_LABELED_STATE
BEGIN_LABELED_STATE
5.0
BEGIN_STATE
7 5 0
7 4 1
9 4 11
7 7 0
9 5 11
7 6 0
END_STATE
END_LABELED_STATE
BEGIN_LABELED_STATE
4.0
BEGIN_STATE
7 5 0
7 4 1
9 4 11
7 7 0
9 5 10
8 6 5
END_STATE
END_LABELED_STATE
BEGIN_LABELED_STATE
6.0
BEGIN_STATE
7 5 2
7 4 2
9 4 11
7 7 2
9 5 11
7 6 0
END_STATE
END_LABELED_STATE
BEGIN_LABELED_STATE
5.0
BEGIN_STATE
7 5 0
7 4 2
9 4 11
7 7 2
9 5 11
7 6 0
END_STATE
END_LABELED_STATE
BEGIN_LABELED_STATE
4.0
BEGIN_STATE
7 5 0
7 4 2
9 4 11
7 7 2
9 5 10
8 6 5
END_STATE
END_LABELED_STATE
BEGIN_LABELED_STATE
5.0
BEGIN_STATE
7 5 2
7 4 0
9 4 11
7 7 1
9 5 11
7 6 0
END_STATE
END_LABELED_STATE
BEGIN_LABELED_STATE
7.0
BEGIN_STATE
7 5 3
7 4 3
9 4 11
8 7 5
9 5 10
7 6 0
END_STATE
END_LABELED_STATE
BEGIN_LABELED_STATE
6.0
BEGIN_STATE
7 5 3
7 4 2
9 4 11
8 7 5
9 5 10
7 6 0
END_STATE
END_LABELED_STATE
BEGIN_LABELED_STATE
3.0
BEGIN_STATE
7 5 2
7 4 3
9 4 11
7 7 0
9 5 11
7 6 3
END_STATE
END_LABELED_STATE
BEGIN_LABELED_STATE
6.0
BEGIN_STATE
7 5 2
7 4 2
9 4 11
8 7 5
9 5 10
7 6 0
END_STATE
END_LABELED_STATE
BEGIN_LABELED_STATE
5.0
BEGIN_STATE
7 5 2
7 4 0
9 4 11
8 7 5
9 5 10
7 6 0
END_STATE
END_LABELED_STATE
BEGIN_LABELED_STATE
4.0
BEGIN_STATE
7 5 2
7 4 2
9 4 11
7 7 2
9 5 11
7 6 2
END_STATE
END_LABELED_STATE
BEGIN_LABELED_STATE
0.0
BEGIN_STATE
7 5 0
7 4 3
9 4 11
7 7 1
9 5 11
7 6 1
END_STATE
END_LABELED_STATE
BEGIN_LABELED_STATE
5.0
BEGIN_STATE
7 5 0
7 4 0
9 4 10
8 7 4
9 5 11
7 6 0
END_STATE
END_LABELED_STATE
BEGIN_LABELED_STATE
6.0
BEGIN_STATE
7 5 1
7 4 1
9 4 10
8 7 4
9 5 11
7 6 2
END_STATE
END_LABELED_STATE
BEGIN_LABELED_STATE
6.0
BEGIN_STATE
7 5 1
7 4 1
9 4 11
7 7 1
9 5 11
7 6 2
END_STATE
END_LABELED_STATE
BEGIN_LABELED_STATE
5.0
BEGIN_STATE
7 5 3
7 4 1
9 4 11
7 7 1
9 5 11
7 6 2
END_STATE
END_LABELED_STATE
BEGIN_LABELED_STATE
5.0
BEGIN_STATE
7 5 0
7 4 0
9 4 11
7 7 1
9 5 11
7 6 0
END_STATE
END_LABELED_STATE
BEGIN_LABELED_STATE
4.0
BEGIN_STATE
7 5 0
7 4 0
9 4 11
7 7 1
9 5 10
8 6 5
END_STATE
END_LABELED_STATE
BEGIN_LABELED_STATE
3.0
BEGIN_STATE
7 5 0
7 4 2
9 4 10
7 7 0
9 5 11
8 6 4
END_STATE
END_LABELED_STATE
BEGIN_LABELED_STATE
5.0
BEGIN_STATE
7 5 3
7 4 0
9 4 11
7 7 3
9 5 11
7 6 0
END_STATE
END_LABELED_STATE
BEGIN_LABELED_STATE
4.0
BEGIN_STATE
7 5 3
7 4 0
9 4 10
7 7 3
9 5 11
8 6 4
END_STATE
END_LABELED_STATE
BEGIN_LABELED_STATE
6.0
BEGIN_STATE
7 5 1
7 4 2
9 4 11
7 7 3
9 5 11
7 6 0
END_STATE
END_LABELED_STATE
BEGIN_LABELED_STATE
5.0
BEGIN_STATE
7 5 1
7 4 0
9 4 11
7 7 3
9 5 11
7 6 0
END_STATE
END_LABELED_STATE
BEGIN_LABELED_STATE
4.0
BEGIN_STATE
7 5 1
7 4 0
9 4 10
7 7 3
9 5 11
8 6 4
END_STATE
END_LABELED_STATE
BEGIN_LABELED_STATE
7.0
BEGIN_STATE
7 5 3
7 4 1
9 4 11
7 7 2
9 5 11
7 6 0
END_STATE
END_LABELED_STATE
BEGIN_LABELED_STATE
3.0
BEGIN_STATE
7 5 1
7 4 3
9 4 11
7 7 1
9 5 11
7 6 3
END_STATE
END_LABELED_STATE
BEGIN_LABELED_STATE
3.0
BEGIN_STATE
7 5 1
7 4 3
9 4 11
7 7 3
9 5 11
7 6 3
END_STATE
END_LABELED_STATE
BEGIN_LABELED_STATE
4.0
BEGIN_STATE
7 5 2
7 4 1
9 4 11
7 7 1
9 5 11
7 6 3
END_STATE
END_LABELED_STATE
BEGIN_LABELED_STATE
3.0
BEGIN_STATE
7 5 3
7 4 1
9 4 11
7 7 1
9 5 11
7 6 3
END_STATE
END_LABELED_STATE
BEGIN_LABELED_STATE
0.0
BEGIN_STATE
7 5 3
7 4 2
9 4 11
8 7 5
9 5 10
7 6 1
END_STATE
END_LABELED_STATE
BEGIN_LABELED_STATE
4.0
BEGIN_STATE
7 5 0
7 4 0
9 4 10
7 7 0
9 5 11
8 6 4
END_STATE
END_LABELED_STATE
BEGIN_LABELED_STATE
0.0
BEGIN_STATE
7 5 0
7 4 3
9 4 11
8 7 5
9 5 10
7 6 1
END_STATE
END_LABELED_STATE
BEGIN_LABELED_STATE
5.0
BEGIN_STATE
7 5 0
7 4 0
9 4 11
7 7 0
9 5 11
7 6 0
END_STATE
END_LABELED_STATE
BEGIN_LABELED_STATE
4.0
BEGIN_STATE
7 5 0
7 4 0
9 4 11
7 7 0
9 5 10
8 6 5
END_STATE
END_LABELED_STATE
BEGIN_LABELED_STATE
5.0
BEGIN_STATE
7 5 0
7 4 2
9 4 11
8 7 5
9 5 10
7 6 0
END_STATE
END_LABELED_STATE
BEGIN_LABELED_STATE
4.0
BEGIN_STATE
7 5 0
7 4 2
9 4 11
8 7 5
9 5 9
8 6 5
END_STATE
END_LABELED_STATE
BEGIN_LABELED_STATE
3.0
BEGIN_STATE
7 5 2
7 4 2
9 4 11
8 7 5
9 5 9
8 6 5
END_STATE
END_LABELED_STATE
BEGIN_LABELED_STATE
4.0
BEGIN_STATE
7 5 0
7 4 3
9 4 11
8 7 5
9 5 9
8 6 5
END_STATE
END_LABELED_STATE
BEGIN_LABELED_STATE
7.0
BEGIN_STATE
7 5 1
7 4 3
9 4 11
8 7 5
9 5 10
7 6 0
END_STATE
END_LABELED_STATE
BEGIN_LABELED_STATE
6.0
BEGIN_STATE
7 5 1
7 4 2
9 4 11
8 7 5
9 5 10
7 6 0
END_STATE
END_LABELED_STATE
BEGIN_LABELED_STATE
4.0
BEGIN_STATE
7 5 1
7 4 0
9 4 10
8 7 4
9 5 11
7 6 3
END_STATE
END_LABELED_STATE
BEGIN_LABELED_STATE
5.0
BEGIN_STATE
7 5 3
7 4 3
9 4 11
8 7 5
9 5 10
7 6 2
END_STATE
END_LABELED_STATE
BEGIN_LABELED_STATE
6.0
BEGIN_STATE
7 5 2
7 4 2
9 4 10
8 7 4
9 5 11
7 6 0
END_STATE
END_LABELED_STATE
BEGIN_LABELED_STATE
5.0
BEGIN_STATE
7 5 0
7 4 2
9 4 10
8 7 4
9 5 11
7 6 0
END_STATE
END_LABELED_STATE
BEGIN_LABELED_STATE
4.0
BEGIN_STATE
7 5 0
7 4 2
9 4 10
8 7 4
9 5 10
8 6 5
END_STATE
END_LABELED_STATE
BEGIN_LABELED_STATE
4.0
BEGIN_STATE
7 5 0
7 4 2
9 4 11
7 7 1
9 5 11
7 6 2
END_STATE
END_LABELED_STATE
BEGIN_LABELED_STATE
5.0
BEGIN_STATE
7 5 0
7 4 0
9 4 11
7 7 0
9 5 11
7 6 3
END_STATE
END_LABELED_STATE
BEGIN_LABELED_STATE
5.0
BEGIN_STATE
7 5 0
7 4 0
9 4 11
7 7 3
9 5 11
7 6 2
END_STATE
END_LABELED_STATE
BEGIN_LABELED_STATE
4.0
BEGIN_STATE
7 5 2
7 4 0
9 4 11
7 7 3
9 5 11
7 6 2
END_STATE
END_LABELED_STATE
BEGIN_LABELED_STATE
3.0
BEGIN_STATE
7 5 2
7 4 0
9 4 11
7 7 3
9 5 10
8 6 5
END_STATE
END_LABELED_STATE
BEGIN_LABELED_STATE
3.0
BEGIN_STATE
7 5 3
7 4 2
9 4 11
7 7 0
9 5 11
7 6 3
END_STATE
END_LABELED_STATE
BEGIN_LABELED_STATE
4.0
BEGIN_STATE
7 5 2
7 4 1
9 4 11
8 7 5
9 5 10
7 6 3
END_STATE
END_LABELED_STATE
BEGIN_LABELED_STATE
3.0
BEGIN_STATE
7 5 3
7 4 3
9 4 10
8 7 4
9 5 11
7 6 3
END_STATE
END_LABELED_STATE
BEGIN_LABELED_STATE
6.0
BEGIN_STATE
7 5 2
7 4 3
9 4 11
7 7 1
9 5 11
7 6 0
END_STATE
END_LABELED_STATE
BEGIN_LABELED_STATE
5.0
BEGIN_STATE
7 5 0
7 4 3
9 4 11
7 7 1
9 5 11
7 6 0
END_STATE
END_LABELED_STATE
BEGIN_LABELED_STATE
0.0
BEGIN_STATE
7 5 3
7 4 0
9 4 10
8 7 4
9 5 11
7 6 1
END_STATE
END_LABELED_STATE
BEGIN_LABELED_STATE
3.0
BEGIN_STATE
7 5 2
7 4 2
9 4 9
8 7 4
9 5 11
8 6 4
END_STATE
END_LABELED_STATE
BEGIN_LABELED_STATE
4.0
BEGIN_STATE
7 5 1
7 4 2
9 4 11
8 7 5
9 5 10
7 6 3
END_STATE
END_LABELED_STATE
BEGIN_LABELED_STATE
3.0
BEGIN_STATE
7 5 1
7 4 3
9 4 10
8 7 4
9 5 11
7 6 3
END_STATE
END_LABELED_STATE
BEGIN_LABELED_STATE
6.0
BEGIN_STATE
7 5 2
7 4 3
9 4 10
8 7 4
9 5 11
7 6 0
END_STATE
END_LABELED_STATE
BEGIN_LABELED_STATE
0.0
BEGIN_STATE
7 5 0
7 4 2
9 4 11
8 7 5
9 5 10
7 6 1
END_STATE
END_LABELED_STATE
BEGIN_LABELED_STATE
5.0
BEGIN_STATE
7 5 3
7 4 0
9 4 11
7 7 3
9 5 11
7 6 2
END_STATE
END_LABELED_STATE
BEGIN_LABELED_STATE
5.0
BEGIN_STATE
7 5 0
7 4 0
9 4 11
7 7 2
9 5 11
7 6 0
END_STATE
END_LABELED_STATE
BEGIN_LABELED_STATE
4.0
BEGIN_STATE
7 5 0
7 4 0
9 4 11
7 7 2
9 5 10
8 6 5
END_STATE
END_LABELED_STATE
BEGIN_LABELED_STATE
4.0
BEGIN_STATE
7 5 1
7 4 2
9 4 10
8 7 4
9 5 11
7 6 2
END_STATE
END_LABELED_STATE
BEGIN_LABELED_STATE
4.0
BEGIN_STATE
7 5 1
7 4 2
9 4 11
7 7 1
9 5 11
7 6 3
END_STATE
END_LABELED_STATE
BEGIN_LABELED_STATE
4.0
BEGIN_STATE
7 5 0
7 4 2
9 4 10
8 7 4
9 5 11
7 6 3
END_STATE
END_LABELED_STATE
BEGIN_LABELED_STATE
5.0
BEGIN_STATE
7 5 0
7 4 1
9 4 11
7 7 0
9 5 11
7 6 2
END_STATE
END_LABELED_STATE
BEGIN_LABELED_STATE
4.0
BEGIN_STATE
7 5 2
7 4 1
9 4 11
7 7 0
9 5 11
7 6 2
END_STATE
END_LABELED_STATE
BEGIN_LABELED_STATE
4.0
BEGIN_STATE
7 5 2
7 4 1
9 4 11
7 7 0
9 5 11
7 6 3
END_STATE
END_LABELED_STATE
BEGIN_LABELED_STATE
3.0
BEGIN_STATE
7 5 3
7 4 1
9 4 11
7 7 0
9 5 11
7 6 3
END_STATE
END_LABELED_STATE
BEGIN_LABELED_STATE
6.0
BEGIN_STATE
7 5 3
7 4 2
9 4 11
7 7 3
9 5 11
7 6 0
END_STATE
END_LABELED_STATE
BEGIN_LABELED_STATE
4.0
BEGIN_STATE
7 5 1
7 4 2
9 4 11
7 7 2
9 5 11
7 6 3
END_STATE
END_LABELED_STATE
BEGIN_LABELED_STATE
3.0
BEGIN_STATE
7 5 2
7 4 3
9 4 11
7 7 1
9 5 11
7 6 3
END_STATE
END_LABELED_STATE
BEGIN_LABELED_STATE
0.0
BEGIN_STATE
7 5 2
7 4 0
9 4 11
7 7 0
9 5 11
7 6 1
END_STATE
END_LABELED_STATE
BEGIN_LABELED_STATE
4.0
BEGIN_STATE
7 5 2
7 4 0
9 4 9
8 7 4
9 5 11
8 6 4
END_STATE
END_LABELED_STATE
BEGIN_LABELED_STATE
4.0
BEGIN_STATE
7 5 1
7 4 1
9 4 11
7 7 2
9 5 11
7 6 3
END_STATE
END_LABELED_STATE
BEGIN_LABELED_STATE
5.0
BEGIN_STATE
7 5 1
7 4 0
9 4 11
7 7 0
9 5 11
7 6 0
END_STATE
END_LABELED_STATE
BEGIN_LABELED_STATE
4.0
BEGIN_STATE
7 5 1
7 4 0
9 4 10
7 7 0
9 5 11
8 6 4
END_STATE
END_LABELED_STATE
BEGIN_LABELED_STATE
0.0
BEGIN_STATE
7 5 3
7 4 2
9 4 11
7 7 1
9 5 11
7 6 1
END_STATE
END_LABELED_STATE
BEGIN_LABELED_STATE
7.0
BEGIN_STATE
7 5 1
7 4 3
9 4 11
7 7 3
9 5 11
7 6 0
END_STATE
END_LABELED_STATE
BEGIN_LABELED_STATE
4.0
BEGIN_STATE
7 5 2
7 4 2
9 4 11
8 7 5
9 5 10
7 6 2
END_STATE
END_LABELED_STATE
BEGIN_LABELED_STATE
7.0
BEGIN_STATE
7 5 1
7 4 3
9 4 10
8 7 4
9 5 11
7 6 0
END_STATE
END_LABELED_STATE
BEGIN_LABELED_STATE
6.0
BEGIN_STATE
7 5 1
7 4 2
9 4 10
8 7 4
9 5 11
7 6 0
END_STATE
END_LABELED_STATE
BEGIN_LABELED_STATE
4.0
BEGIN_STATE
7 5 1
7 4 0
9 4 11
7 7 2
9 5 11
7 6 3
END_STATE
END_LABELED_STATE
BEGIN_LABELED_STATE
0.0
BEGIN_STATE
7 5 0
7 4 2
9 4 11
7 7 1
9 5 11
7 6 1
END_STATE
END_LABELED_STATE
BEGIN_LABELED_STATE
4.0
BEGIN_STATE
7 5 3
7 4 2
9 4 10
8 7 4
9 5 11
7 6 2
END_STATE
END_LABELED_STATE
BEGIN_LABELED_STATE
4.0
BEGIN_STATE
7 5 2
7 4 0
9 4 10
7 7 2
9 5 11
8 6 4
END_STATE
END_LABELED_STATE
BEGIN_LABELED_STATE
4.0
BEGIN_STATE
7 5 0
7 4 1
9 4 11
7 7 2
9 5 11
7 6 3
END_STATE
END_LABELED_STATE
BEGIN_LABELED_STATE
3.0
BEGIN_STATE
7 5 0
7 4 3
9 4 11
7 7 2
9 5 11
7 6 3
END_STATE
END_LABELED_STATE
BEGIN_LABELED_STATE
3.0
BEGIN_STATE
7 5 2
7 4 3
9 4 11
8 7 5
9 5 10
7 6 3
END_STATE
END_LABELED_STATE
BEGIN_LABELED_STATE
0.0
BEGIN_STATE
7 5 3
7 4 0
9 4 11
7 7 1
9 5 11
7 6 1
END_STATE
END_LABELED_STATE
BEGIN_LABELED_STATE
3.0
BEGIN_STATE
7 5 1
7 4 3
9 4 11
7 7 2
9 5 11
7 6 3
END_STATE
END_LABELED_STATE
BEGIN_LABELED_STATE
8.0
BEGIN_STATE
7 5 1
7 4 1
9 4 11
7 7 0
9 5 11
7 6 0
END_STATE
END_LABELED_STATE
BEGIN_LABELED_STATE
7.0
BEGIN_STATE
7 5 3
7 4 1
9 4 11
7 7 0
9 5 11
7 6 0
END_STATE
END_LABELED_STATE
BEGIN_LABELED_STATE
6.0
BEGIN_STATE
7 5 2
7 4 1
9 4 11
7 7 0
9 5 11
7 6 0
END_STATE
END_LABELED_STATE
BEGIN_LABELED_STATE
8.0
BEGIN_STATE
7 5 1
7 4 1
9 4 10
8 7 4
9 5 11
7 6 0
END_STATE
END_LABELED_STATE
BEGIN_LABELED_STATE
5.0
BEGIN_STATE
7 5 1
7 4 3
9 4 10
8 7 4
9 5 11
7 6 2
END_STATE
END_LABELED_STATE
BEGIN_LABELED_STATE
0.0
BEGIN_STATE
7 5 3
7 4 0
9 4 11
7 7 0
9 5 11
7 6 1
END_STATE
END_LABELED_STATE
BEGIN_LABELED_STATE
0.0
BEGIN_STATE
7 5 2
7 4 2
9 4 11
7 7 1
9 5 11
7 6 1
END_STATE
END_LABELED_STATE
BEGIN_LABELED_STATE
0.0
BEGIN_STATE
7 5 0
7 4 2
9 4 10
8 7 4
9 5 11
7 6 1
END_STATE
END_LABELED_STATE
BEGIN_LABELED_STATE
5.0
BEGIN_STATE
7 5 0
7 4 0
9 4 11
7 7 1
9 5 11
7 6 2
END_STATE
END_LABELED_STATE
BEGIN_LABELED_STATE
4.0
BEGIN_STATE
7 5 2
7 4 1
9 4 11
7 7 3
9 5 11
7 6 3
END_STATE
END_LABELED_STATE
BEGIN_LABELED_STATE
4.0
BEGIN_STATE
7 5 1
7 4 1
9 4 11
8 7 5
9 5 10
7 6 3
END_STATE
END_LABELED_STATE
BEGIN_LABELED_STATE
3.0
BEGIN_STATE
7 5 0
7 4 2
9 4 9
8 7 4
9 5 11
8 6 4
END_STATE
END_LABELED_STATE
BEGIN_LABELED_STATE
4.0
BEGIN_STATE
7 5 2
7 4 0
9 4 11
7 7 3
9 5 11
7 6 3
END_STATE
END_LABELED_STATE
BEGIN_LABELED_STATE
0.0
BEGIN_STATE
7 5 0
7 4 3
9 4 10
8 7 4
9 5 11
7 6 1
END_STATE
END_LABELED_STATE
BEGIN_LABELED_STATE
5.0
BEGIN_STATE
7 5 1
7 4 0
9 4 11
7 7 0
9 5 11
7 6 2
END_STATE
END_LABELED_STATE
BEGIN_LABELED_STATE
5.0
BEGIN_STATE
7 5 1
7 4 0
9 4 11
7 7 3
9 5 11
7 6 2
END_STATE
END_LABELED_STATE
BEGIN_LABELED_STATE
0.0
BEGIN_STATE
7 5 3
7 4 2
9 4 11
7 7 3
9 5 11
7 6 1
END_STATE
END_LABELED_STATE
BEGIN_LABELED_STATE
5.0
BEGIN_STATE
7 5 1
7 4 3
9 4 11
7 7 1
9 5 11
7 6 2
END_STATE
END_LABELED_STATE
BEGIN_LABELED_STATE
5.0
BEGIN_STATE
7 5 1
7 4 0
9 4 10
8 7 4
9 5 11
7 6 2
END_STATE
END_LABELED_STATE
BEGIN_LABELED_STATE
4.0
BEGIN_STATE
7 5 0
7 4 0
9 4 11
7 7 3
9 5 10
8 6 5
END_STATE
END_LABELED_STATE
BEGIN_LABELED_STATE
4.0
BEGIN_STATE
7 5 2
7 4 2
9 4 10
8 7 4
9 5 11
7 6 3
END_STATE
END_LABELED_STATE
BEGIN_LABELED_STATE
4.0
BEGIN_STATE
7 5 0
7 4 1
9 4 11
7 7 3
9 5 11
7 6 3
END_STATE
END_LABELED_STATE
BEGIN_LABELED_STATE
6.0
BEGIN_STATE
7 5 2
7 4 3
9 4 11
8 7 5
9 5 10
7 6 0
END_STATE
END_LABELED_STATE
BEGIN_LABELED_STATE
5.0
BEGIN_STATE
7 5 0
7 4 3
9 4 11
8 7 5
9 5 10
7 6 0
END_STATE
END_LABELED_STATE
BEGIN_LABELED_STATE
0.0
BEGIN_STATE
7 5 2
7 4 2
9 4 11
8 7 5
9 5 10
7 6 1
END_STATE
END_LABELED_STATE
BEGIN_LABELED_STATE
4.0
BEGIN_STATE
7 5 3
7 4 2
9 4 11
7 7 3
9 5 11
7 6 2
END_STATE
END_LABELED_STATE
BEGIN_LABELED_STATE
5.0
BEGIN_STATE
7 5 0
7 4 2
9 4 11
7 7 3
9 5 11
7 6 0
END_STATE
END_LABELED_STATE
BEGIN_LABELED_STATE
4.0
BEGIN_STATE
7 5 0
7 4 2
9 4 11
7 7 3
9 5 10
8 6 5
END_STATE
END_LABELED_STATE
BEGIN_LABELED_STATE
4.0
BEGIN_STATE
7 5 0
7 4 1
9 4 10
8 7 4
9 5 11
7 6 3
END_STATE
END_LABELED_STATE
BEGIN_LABELED_STATE
0.0
BEGIN_STATE
7 5 0
7 4 3
9 4 11
7 7 3
9 5 11
7 6 1
END_STATE
END_LABELED_STATE
BEGIN_LABELED_STATE
4.0
BEGIN_STATE
7 5 3
7 4 2
9 4 11
7 7 1
9 5 11
7 6 2
END_STATE
END_LABELED_STATE
BEGIN_LABELED_STATE
8.0
BEGIN_STATE
7 5 1
7 4 1
9 4 11
8 7 5
9 5 10
7 6 0
END_STATE
END_LABELED_STATE
BEGIN_LABELED_STATE
0.0
BEGIN_STATE
7 5 2
7 4 3
9 4 10
8 7 4
9 5 11
7 6 1
END_STATE
END_LABELED_STATE
BEGIN_LABELED_STATE
0.0
BEGIN_STATE
7 5 2
7 4 3
9 4 11
7 7 1
9 5 11
7 6 1
END_STATE
END_LABELED_STATE
BEGIN_LABELED_STATE
6.0
BEGIN_STATE
7 5 2
7 4 2
9 4 11
7 7 3
9 5 11
7 6 0
END_STATE
END_LABELED_STATE
BEGIN_LABELED_STATE
5.0
BEGIN_STATE
7 5 3
7 4 1
9 4 11
7 7 0
9 5 11
7 6 2
END_STATE
END_LABELED_STATE
BEGIN_LABELED_STATE
7.0
BEGIN_STATE
7 5 3
7 4 3
9 4 10
8 7 4
9 5 11
7 6 0
END_STATE
END_LABELED_STATE
BEGIN_LABELED_STATE
5.0
BEGIN_STATE
7 5 2
7 4 0
9 4 10
8 7 4
9 5 11
7 6 0
END_STATE
END_LABELED_STATE
BEGIN_LABELED_STATE
5.0
BEGIN_STATE
7 5 1
7 4 0
9 4 11
8 7 5
9 5 10
7 6 2
END_STATE
END_LABELED_STATE
BEGIN_LABELED_STATE
4.0
BEGIN_STATE
7 5 1
7 4 1
9 4 11
7 7 0
9 5 11
7 6 3
END_STATE
END_LABELED_STATE
BEGIN_LABELED_STATE
0.0
BEGIN_STATE
7 5 3
7 4 0
9 4 11
7 7 2
9 5 11
7 6 1
END_STATE
END_LABELED_STATE
BEGIN_LABELED_STATE
5.0
BEGIN_STATE
7 5 3
7 4 1
9 4 11
8 7 5
9 5 10
7 6 2
END_STATE
END_LABELED_STATE
BEGIN_LABELED_STATE
4.0
BEGIN_STATE
7 5 2
7 4 1
9 4 11
8 7 5
9 5 10
7 6 2
END_STATE
END_LABELED_STATE
BEGIN_LABELED_STATE
0.0
BEGIN_STATE
7 5 3
7 4 3
9 4 11
7 7 1
9 5 11
7 6 1
END_STATE
END_LABELED_STATE
BEGIN_LABELED_STATE
4.0
BEGIN_STATE
7 5 0
7 4 1
9 4 11
7 7 1
9 5 11
7 6 3
END_STATE
END_LABELED_STATE
BEGIN_LABELED_STATE
5.0
BEGIN_STATE
7 5 0
7 4 3
9 4 11
7 7 1
9 5 11
7 6 2
END_STATE
END_LABELED_STATE
BEGIN_LABELED_STATE
7.0
BEGIN_STATE
7 5 1
7 4 3
9 4 11
7 7 2
9 5 11
7 6 0
END_STATE
END_LABELED_STATE
BEGIN_LABELED_STATE
0.0
BEGIN_STATE
7 5 3
7 4 0
9 4 11
7 7 3
9 5 11
7 6 1
END_STATE
END_LABELED_STATE
BEGIN_LABELED_STATE
4.0
BEGIN_STATE
7 5 0
7 4 0
9 4 10
7 7 2
9 5 11
8 6 4
END_STATE
END_LABELED_STATE
BEGIN_LABELED_STATE
5.0
BEGIN_STATE
7 5 0
7 4 0
9 4 11
7 7 3
9 5 11
7 6 0
END_STATE
END_LABELED_STATE
BEGIN_LABELED_STATE
4.0
BEGIN_STATE
7 5 2
7 4 0
9 4 11
7 7 2
9 5 11
7 6 3
END_STATE
END_LABELED_STATE
BEGIN_LABELED_STATE
5.0
BEGIN_STATE
7 5 3
7 4 3
9 4 10
8 7 4
9 5 11
7 6 2
END_STATE
END_LABELED_STATE
BEGIN_LABELED_STATE
0.0
BEGIN_STATE
7 5 0
7 4 0
9 4 11
7 7 3
9 5 11
7 6 1
END_STATE
END_LABELED_STATE
BEGIN_LABELED_STATE
4.0
BEGIN_STATE
7 5 0
7 4 2
9 4 11
7 7 3
9 5 11
7 6 3
END_STATE
END_LABELED_STATE
BEGIN_LABELED_STATE
8.0
BEGIN_STATE
7 5 1
7 4 1
9 4 11
7 7 1
9 5 11
7 6 0
END_STATE
END_LABELED_STATE
BEGIN_LABELED_STATE
7.0
BEGIN_STATE
7 5 3
7 4 3
9 4 11
7 7 3
9 5 11
7 6 0
END_STATE
END_LABELED_STATE
BEGIN_LABELED_STATE
0.0
BEGIN_STATE
7 5 0
7 4 0
9 4 11
7 7 2
9 5 11
7 6 1
END_STATE
END_LABELED_STATE
BEGIN_LABELED_STATE
0.0
BEGIN_STATE
7 5 0
7 4 0
9 4 11
7 7 0
9 5 11
7 6 1
END_STATE
END_LABELED_STATE
BEGIN_LABELED_STATE
0.0
BEGIN_STATE
7 5 2
7 4 0
9 4 10
8 7 4
9 5 11
7 6 1
END_STATE
END_LABELED_STATE
BEGIN_LABELED_STATE
6.0
BEGIN_STATE
7 5 1
7 4 2
9 4 11
7 7 0
9 5 11
7 6 0
END_STATE
END_LABELED_STATE
BEGIN_LABELED_STATE
4.0
BEGIN_STATE
7 5 0
7 4 2
9 4 11
7 7 2
9 5 11
7 6 3
END_STATE
END_LABELED_STATE
BEGIN_LABELED_STATE
5.0
BEGIN_STATE
7 5 3
7 4 0
9 4 11
8 7 5
9 5 10
7 6 2
END_STATE
END_LABELED_STATE
BEGIN_LABELED_STATE
5.0
BEGIN_STATE
7 5 1
7 4 3
9 4 11
7 7 3
9 5 11
7 6 2
END_STATE
END_LABELED_STATE
BEGIN_LABELED_STATE
4.0
BEGIN_STATE
7 5 1
7 4 2
9 4 11
7 7 0
9 5 11
7 6 3
END_STATE
END_LABELED_STATE
BEGIN_LABELED_STATE
6.0
BEGIN_STATE
7 5 1
7 4 1
9 4 11
7 7 2
9 5 11
7 6 2
END_STATE
END_LABELED_STATE
BEGIN_LABELED_STATE
5.0
BEGIN_STATE
7 5 3
7 4 1
9 4 11
7 7 2
9 5 11
7 6 2
END_STATE
END_LABELED_STATE
BEGIN_LABELED_STATE
0.0
BEGIN_STATE
7 5 3
7 4 2
9 4 11
7 7 0
9 5 11
7 6 1
END_STATE
END_LABELED_STATE
BEGIN_LABELED_STATE
5.0
BEGIN_STATE
7 5 0
7 4 0
9 4 10
8 7 4
9 5 11
7 6 2
END_STATE
END_LABELED_STATE
BEGIN_LABELED_STATE
4.0
BEGIN_STATE
7 5 2
7 4 0
9 4 10
8 7 4
9 5 11
7 6 2
END_STATE
END_LABELED_STATE
BEGIN_LABELED_STATE
0.0
BEGIN_STATE
7 5 2
7 4 0
9 4 11
7 7 1
9 5 11
7 6 1
END_STATE
END_LABELED_STATE
BEGIN_LABELED_STATE
4.0
BEGIN_STATE
7 5 0
7 4 2
9 4 11
7 7 0
9 5 11
7 6 2
END_STATE
END_LABELED_STATE
BEGIN_LABELED_STATE
5.0
BEGIN_STATE
7 5 2
7 4 0
9 4 11
7 7 2
9 5 11
7 6 0
END_STATE
END_LABELED_STATE
BEGIN_LABELED_STATE
0.0
BEGIN_STATE
7 5 2
7 4 0
9 4 11
7 7 3
9 5 11
7 6 1
END_STATE
END_LABELED_STATE
BEGIN_LABELED_STATE
3.0
BEGIN_STATE
7 5 2
7 4 3
9 4 11
7 7 3
9 5 11
7 6 3
END_STATE
END_LABELED_STATE
BEGIN_LABELED_STATE
5.0
BEGIN_STATE
7 5 0
7 4 3
9 4 11
7 7 3
9 5 11
7 6 2
END_STATE
END_LABELED_STATE
BEGIN_LABELED_STATE
5.0
BEGIN_STATE
7 5 0
7 4 2
9 4 11
7 7 0
9 5 11
7 6 0
END_STATE
END_LABELED_STATE
BEGIN_LABELED_STATE
4.0
BEGIN_STATE
7 5 0
7 4 2
9 4 11
7 7 0
9 5 10
8 6 5
END_STATE
END_LABELED_STATE
BEGIN_LABELED_STATE
0.0
BEGIN_STATE
7 5 0
7 4 2
9 4 11
7 7 0
9 5 11
7 6 1
END_STATE
END_LABELED_STATE
BEGIN_LABELED_STATE
6.0
BEGIN_STATE
7 5 1
7 4 1
9 4 11
7 7 3
9 5 11
7 6 2
END_STATE
END_LABELED_STATE
BEGIN_LABELED_STATE
4.0
BEGIN_STATE
7 5 2
7 4 2
9 4 11
7 7 3
9 5 11
7 6 3
END_STATE
END_LABELED_STATE
BEGIN_LABELED_STATE
4.0
BEGIN_STATE
7 5 0
7 4 2
9 4 11
7 7 0
9 5 11
7 6 3
END_STATE
END_LABELED_STATE
BEGIN_LABELED_STATE
5.0
BEGIN_STATE
7 5 1
7 4 0
9 4 11
7 7 2
9 5 11
7 6 2
END_STATE
END_LABELED_STATE
BEGIN_LABELED_STATE
4.0
BEGIN_STATE
7 5 1
7 4 0
9 4 11
7 7 0
9 5 11
7 6 3
END_STATE
END_LABELED_STATE
BEGIN_LABELED_STATE
3.0
BEGIN_STATE
7 5 3
7 4 3
9 4 11
7 7 0
9 5 11
7 6 3
END_STATE
END_LABELED_STATE
BEGIN_LABELED_STATE
0.0
BEGIN_STATE
7 5 2
7 4 3
9 4 11
8 7 5
9 5 10
7 6 1
END_STATE
END_LABELED_STATE
BEGIN_LABELED_STATE
4.0
BEGIN_STATE
7 5 0
7 4 0
9 4 10
7 7 1
9 5 11
8 6 4
END_STATE
END_LABELED_STATE
BEGIN_LABELED_STATE
4.0
BEGIN_STATE
7 5 2
7 4 2
9 4 11
7 7 0
9 5 11
7 6 3
END_STATE
END_LABELED_STATE
BEGIN_LABELED_STATE
4.0
BEGIN_STATE
7 5 1
7 4 2
9 4 10
8 7 4
9 5 11
7 6 3
END_STATE
END_LABELED_STATE
BEGIN_LABELED_STATE
4.0
BEGIN_STATE
7 5 0
7 4 2
9 4 11
8 7 5
9 5 10
7 6 2
END_STATE
END_LABELED_STATE
BEGIN_LABELED_STATE
4.0
BEGIN_STATE
7 5 1
7 4 0
9 4 11
7 7 1
9 5 11
7 6 3
END_STATE
END_LABELED_STATE
BEGIN_LABELED_STATE
4.0
BEGIN_STATE
7 5 1
7 4 1
9 4 11
7 7 1
9 5 11
7 6 3
END_STATE
END_LABELED_STATE
BEGIN_LABELED_STATE
3.0
BEGIN_STATE
7 5 1
7 4 3
9 4 11
7 7 0
9 5 11
7 6 3
END_STATE
END_LABELED_STATE
BEGIN_LABELED_STATE
4.0
BEGIN_STATE
7 5 0
7 4 2
9 4 10
8 7 4
9 5 11
7 6 2
END_STATE
END_LABELED_STATE
BEGIN_LABELED_STATE
0.0
BEGIN_STATE
7 5 3
7 4 3
9 4 11
7 7 0
9 5 11
7 6 1
END_STATE
END_LABELED_STATE
BEGIN_LABELED_STATE
0.0
BEGIN_STATE
7 5 0
7 4 0
9 4 11
7 7 1
9 5 11
7 6 1
END_STATE
END_LABELED_STATE
BEGIN_LABELED_STATE
5.0
BEGIN_STATE
7 5 3
7 4 0
9 4 10
8 7 4
9 5 11
7 6 2
END_STATE
END_LABELED_STATE
BEGIN_LABELED_STATE
5.0
BEGIN_STATE
7 5 0
7 4 0
9 4 11
8 7 5
9 5 10
7 6 2
END_STATE
END_LABELED_STATE
BEGIN_LABELED_STATE
6.0
BEGIN_STATE
7 5 1
7 4 1
9 4 11
7 7 0
9 5 11
7 6 2
END_STATE
END_LABELED_STATE
BEGIN_LABELED_STATE
0.0
BEGIN_STATE
7 5 0
7 4 3
9 4 11
7 7 2
9 5 11
7 6 1
END_STATE
END_LABELED_STATE
BEGIN_LABELED_STATE
7.0
BEGIN_STATE
7 5 1
7 4 3
9 4 11
7 7 0
9 5 11
7 6 0
END_STATE
END_LABELED_STATE
BEGIN_LABELED_STATE
4.0
BEGIN_STATE
7 5 1
7 4 2
9 4 11
7 7 3
9 5 11
7 6 3
END_STATE
END_LABELED_STATE
BEGIN_LABELED_STATE
5.0
BEGIN_STATE
7 5 0
7 4 1
9 4 11
8 7 5
9 5 10
7 6 2
END_STATE
END_LABELED_STATE
BEGIN_LABELED_STATE
7.0
BEGIN_STATE
7 5 3
7 4 3
9 4 11
7 7 1
9 5 11
7 6 0
END_STATE
END_LABELED_STATE
BEGIN_LABELED_STATE
5.0
BEGIN_STATE
7 5 0
7 4 0
9 4 11
7 7 3
9 5 11
7 6 3
END_STATE
END_LABELED_STATE
END_STATE_LIST
