BEGIN_OBJECTS
0 car_00
1 car_01
2 car_02
3 car_03
4 car_04
5 car_05
6 car_06
7 car_07
8 car_08
9 car_09
10 car_10
11 car_11
12 car_12
13 car_13
14 curb_0
15 curb_1
16 curb_2
17 curb_3
18 curb_4
19 curb_5
20 curb_6
21 curb_7
END_OBJECTS
BEGIN_PREDICATES
0 car
1 curb
2 at-curb
3 at-curb-num
4 behind-car
5 car-clear
6 curb-clear
END_PREDICATES
BEGIN_PREDICATE_ARITY_TUPLES
0 1
1 1
2 1
3 2
4 2
5 1
6 1
END_PREDICATE_PREDICATE_ARITY_TUPLES
BEGIN_FACT_LIST
0 0
0 1
0 2
0 3
0 4
0 5
0 6
0 7
0 8
0 9
0 10
0 11
0 12
0 13
1 14
1 15
1 16
1 17
1 18
1 19
1 20
1 21
END_FACT_LIST
BEGIN_GOAL_LIST
3 6 20
END_GOAL_LIST
BEGIN_STATE_LIST
BEGIN_LABELED_STATE
2.0
BEGIN_STATE
4 7 11
3 2 21
3 5 14
3 10 15
3 11 17
3 4 16
3 13 20
3 1 19
3 0 18
4 9 0
4 3 1
4 8 5
2 0
2 1
2 2
2 4
2 5
2 10
2 11
2 13
4 6 10
4 12 4
5 2
5 3
5 6
5 7
5 8
5 9
5 12
5 13
END_STATE
END_LABELED_STATE
BEGIN_LABELED_STATE
1.0
BEGIN_STATE
4 7 11
3 2 21
3 5 14
3 10 15
3 11 17
3 4 16
6 20
3 1 19
3 0 18
4 9 0
4 3 1
4 8 5
2 0
2 1
2 2
2 4
2 5
2 10
2 11
4 6 10
4 12 4
4 13 13
5 2
5 3
5 6
5 7
5 8
5 9
5 12
END_STATE
END_LABELED_STATE
BEGIN_LABELED_STATE
0.0
BEGIN_STATE
4 7 11
3 2 21
3 5 14
3 10 15
3 11 17
3 4 16
3 6 20
3 1 19
3 0 18
4 9 0
4 3 1
4 8 5
2 0
2 1
2 2
2 4
2 5
2 6
2 10
2 11
4 12 4
4 13 13
5 2
5 3
5 6
5 7
5 8
5 9
5 10
5 12
END_STATE
END_LABELED_STATE
BEGIN_LABELED_STATE
3.0
BEGIN_STATE
4 7 11
3 2 21
3 5 14
3 10 15
3 11 17
3 4 16
3 13 20
3 1 19
3 0 18
4 9 0
4 3 1
4 8 5
4 12 13
2 0
2 1
2 2
2 4
2 5
2 10
2 11
2 13
4 6 10
5 2
5 3
5 4
5 6
5 7
5 8
5 9
5 12
END_STATE
END_LABELED_STATE
BEGIN_LABELED_STATE
3.0
BEGIN_STATE
4 7 11
3 2 21
3 5 14
3 10 15
3 11 17
3 4 16
3 13 20
3 1 19
3 0 18
4 9 0
4 3 1
4 6 4
4 8 5
4 12 13
2 0
2 1
2 2
2 4
2 5
2 10
2 11
2 13
5 2
5 3
5 6
5 7
5 8
5 9
5 10
5 12
END_STATE
END_LABELED_STATE
BEGIN_LABELED_STATE
2.0
BEGIN_STATE
4 7 11
3 2 21
3 5 14
3 10 15
3 11 17
3 4 16
3 13 20
3 1 19
3 0 18
4 9 0
4 3 1
4 6 4
4 8 5
4 12 10
2 0
2 1
2 2
2 4
2 5
2 10
2 11
2 13
5 2
5 3
5 6
5 7
5 8
5 9
5 12
5 13
END_STATE
END_LABELED_STATE
BEGIN_LABELED_STATE
1.0
BEGIN_STATE
4 7 11
3 2 21
3 5 14
3 10 15
3 11 17
3 4 16
6 20
3 1 19
3 0 18
4 9 0
4 3 1
4 6 4
4 8 5
4 12 10
2 0
2 1
2 2
2 4
2 5
2 10
2 11
4 13 13
5 2
5 3
5 6
5 7
5 8
5 9
5 12
END_STATE
END_LABELED_STATE
BEGIN_LABELED_STATE
0.0
BEGIN_STATE
4 7 11
3 2 21
3 5 14
3 10 15
3 11 17
3 4 16
3 6 20
3 1 19
3 0 18
4 9 0
4 3 1
4 8 5
4 12 10
2 0
2 1
2 2
2 4
2 5
2 6
2 10
2 11
4 13 13
5 2
5 3
5 4
5 6
5 7
5 8
5 9
5 12
END_STATE
END_LABELED_STATE
BEGIN_LABELED_STATE
2.0
BEGIN_STATE
4 7 11
3 2 21
3 5 14
3 10 15
3 11 17
3 4 16
3 13 20
3 1 19
3 0 18
4 9 0
4 3 1
4 6 4
4 8 5
2 0
2 1
2 2
2 4
2 5
2 10
2 11
2 13
4 12 2
5 3
5 6
5 7
5 8
5 9
5 10
5 12
5 13
END_STATE
END_LABELED_STATE
BEGIN_LABELED_STATE
1.0
BEGIN_STATE
4 7 11
3 2 21
3 5 14
3 10 15
3 11 17
3 4 16
6 20
3 1 19
3 0 18
4 9 0
4 3 1
4 6 4
4 8 5
2 0
2 1
2 2
2 4
2 5
2 10
2 11
4 12 2
4 13 13
5 3
5 6
5 7
5 8
5 9
5 10
5 12
END_STATE
END_LABELED_STATE
BEGIN_LABELED_STATE
0.0
BEGIN_STATE
4 7 11
3 2 21
3 5 14
3 10 15
3 11 17
3 4 16
3 6 20
3 1 19
3 0 18
4 9 0
4 3 1
4 8 5
2 0
2 1
2 2
2 4
2 5
2 6
2 10
2 11
4 12 2
4 13 13
5 3
5 4
5 6
5 7
5 8
5 9
5 10
5 12
END_STATE
END_LABELED_STATE
BEGIN_LABELED_STATE
3.0
BEGIN_STATE
4 7 11
3 2 21
3 5 14
3 10 15
3 11 17
3 4 16
3 13 20
3 1 19
3 0 18
4 9 0
4 3 1
4 6 4
2 0
2 1
2 2
2 4
2 5
2 10
2 11
2 13
4 8 13
4 12 2
5 3
5 5
5 6
5 7
5 8
5 9
5 10
5 12
END_STATE
END_LABELED_STATE
BEGIN_LABELED_STATE
2.0
BEGIN_STATE
4 7 11
3 2 21
3 5 14
3 10 15
3 11 17
3 4 16
3 13 20
3 1 19
3 0 18
4 9 0
4 8 10
4 3 1
4 6 4
2 0
2 1
2 2
2 4
2 5
2 10
2 11
2 13
4 12 2
5 3
5 5
5 6
5 7
5 8
5 9
5 12
5 13
END_STATE
END_LABELED_STATE
BEGIN_LABELED_STATE
1.0
BEGIN_STATE
4 7 11
3 2 21
3 5 14
3 10 15
3 11 17
3 4 16
6 20
3 1 19
3 0 18
4 9 0
4 8 10
4 3 1
4 6 4
2 0
2 1
2 2
2 4
2 5
2 10
2 11
4 12 2
4 13 13
5 3
5 5
5 6
5 7
5 8
5 9
5 12
END_STATE
END_LABELED_STATE
BEGIN_LABELED_STATE
0.0
BEGIN_STATE
4 7 11
3 2 21
3 5 14
3 10 15
3 11 17
3 4 16
3 6 20
3 1 19
3 0 18
4 9 0
4 8 10
4 3 1
2 0
2 1
2 2
2 4
2 5
2 6
2 10
2 11
4 12 2
4 13 13
5 3
5 4
5 5
5 6
5 7
5 8
5 9
5 12
END_STATE
END_LABELED_STATE
BEGIN_LABELED_STATE
3.0
BEGIN_STATE
4 7 11
3 2 21
3 5 14
3 10 15
3 11 17
3 4 16
3 13 20
3 1 19
3 0 18
4 9 0
4 3 1
4 6 4
4 12 10
2 0
2 1
2 2
2 4
2 5
2 10
2 11
2 13
4 8 13
5 2
5 3
5 5
5 6
5 7
5 8
5 9
5 12
END_STATE
END_LABELED_STATE
BEGIN_LABELED_STATE
2.0
BEGIN_STATE
4 7 11
3 2 21
3 5 14
3 10 15
3 11 17
3 4 16
3 13 20
3 1 19
3 0 18
4 9 0
4 3 1
4 6 4
4 8 2
4 12 10
2 0
2 1
2 2
2 4
2 5
2 10
2 11
2 13
5 3
5 5
5 6
5 7
5 8
5 9
5 12
5 13
END_STATE
END_LABELED_STATE
BEGIN_LABELED_STATE
1.0
BEGIN_STATE
4 7 11
3 2 21
3 5 14
3 10 15
3 11 17
3 4 16
6 20
3 1 19
3 0 18
4 9 0
4 3 1
4 6 4
4 8 2
4 12 10
2 0
2 1
2 2
2 4
2 5
2 10
2 11
4 13 13
5 3
5 5
5 6
5 7
5 8
5 9
5 12
END_STATE
END_LABELED_STATE
BEGIN_LABELED_STATE
0.0
BEGIN_STATE
4 7 11
3 2 21
3 5 14
3 10 15
3 11 17
3 4 16
3 6 20
3 1 19
3 0 18
4 9 0
4 3 1
4 8 2
4 12 10
2 0
2 1
2 2
2 4
2 5
2 6
2 10
2 11
4 13 13
5 3
5 4
5 5
5 6
5 7
5 8
5 9
5 12
END_STATE
END_LABELED_STATE
BEGIN_LABELED_STATE
3.0
BEGIN_STATE
4 7 11
3 2 21
3 5 14
3 10 15
3 11 17
3 4 16
3 13 20
3 1 19
3 0 18
4 9 0
4 3 1
4 6 4
4 8 2
4 12 13
2 0
2 1
2 2
2 4
2 5
2 10
2 11
2 13
5 3
5 5
5 6
5 7
5 8
5 9
5 10
5 12
END_STATE
END_LABELED_STATE
BEGIN_LABELED_STATE
2.0
BEGIN_STATE
4 7 11
3 2 21
3 5 14
3 10 15
3 11 17
3 4 16
3 13 20
3 1 19
3 0 18
4 9 0
4 3 1
4 6 4
4 8 2
4 12 5
2 0
2 1
2 2
2 4
2 5
2 10
2 11
2 13
5 3
5 6
5 7
5 8
5 9
5 10
5 12
5 13
END_STATE
END_LABELED_STATE
BEGIN_LABELED_STATE
1.0
BEGIN_STATE
4 7 11
3 2 21
3 5 14
3 10 15
3 11 17
3 4 16
6 20
3 1 19
3 0 18
4 9 0
4 3 1
4 6 4
4 8 2
4 12 5
2 0
2 1
2 2
2 4
2 5
2 10
2 11
4 13 13
5 3
5 6
5 7
5 8
5 9
5 10
5 12
END_STATE
END_LABELED_STATE
BEGIN_LABELED_STATE
0.0
BEGIN_STATE
4 7 11
3 2 21
3 5 14
3 10 15
3 11 17
3 4 16
3 6 20
3 1 19
3 0 18
4 9 0
4 3 1
4 8 2
4 12 5
2 0
2 1
2 2
2 4
2 5
2 6
2 10
2 11
4 13 13
5 3
5 4
5 6
5 7
5 8
5 9
5 10
5 12
END_STATE
END_LABELED_STATE
BEGIN_LABELED_STATE
3.0
BEGIN_STATE
4 7 11
3 2 21
3 5 14
3 10 15
3 11 17
3 4 16
3 13 20
3 1 19
3 0 18
4 9 0
4 3 1
4 6 4
4 12 5
2 0
2 1
2 2
2 4
2 5
2 10
2 11
2 13
4 8 13
5 2
5 3
5 6
5 7
5 8
5 9
5 10
5 12
END_STATE
END_LABELED_STATE
BEGIN_LABELED_STATE
2.0
BEGIN_STATE
4 7 11
3 2 21
3 5 14
3 10 15
3 11 17
3 4 16
3 13 20
3 1 19
3 0 18
4 9 0
4 8 10
4 3 1
4 6 4
4 12 5
2 0
2 1
2 2
2 4
2 5
2 10
2 11
2 13
5 2
5 3
5 6
5 7
5 8
5 9
5 12
5 13
END_STATE
END_LABELED_STATE
BEGIN_LABELED_STATE
1.0
BEGIN_STATE
4 7 11
3 2 21
3 5 14
3 10 15
3 11 17
3 4 16
6 20
3 1 19
3 0 18
4 9 0
4 8 10
4 3 1
4 6 4
4 12 5
2 0
2 1
2 2
2 4
2 5
2 10
2 11
4 13 13
5 2
5 3
5 6
5 7
5 8
5 9
5 12
END_STATE
END_LABELED_STATE
BEGIN_LABELED_STATE
0.0
BEGIN_STATE
4 7 11
3 2 21
3 5 14
3 10 15
3 11 17
3 4 16
3 6 20
3 1 19
3 0 18
4 9 0
4 8 10
4 3 1
4 12 5
2 0
2 1
2 2
2 4
2 5
2 6
2 10
2 11
4 13 13
5 2
5 3
5 4
5 6
5 7
5 8
5 9
5 12
END_STATE
END_LABELED_STATE
BEGIN_LABELED_STATE
3.0
BEGIN_STATE
4 7 11
3 2 21
3 5 14
3 10 15
3 11 17
3 4 16
3 13 20
3 1 19
3 0 18
4 9 0
4 8 10
4 3 1
4 6 4
4 12 13
2 0
2 1
2 2
2 4
2 5
2 10
2 11
2 13
5 2
5 3
5 5
5 6
5 7
5 8
5 9
5 12
END_STATE
END_LABELED_STATE
BEGIN_LABELED_STATE
3.0
BEGIN_STATE
4 7 11
3 2 21
3 5 14
3 10 15
3 11 17
3 4 16
3 13 20
3 1 19
3 0 18
4 9 0
4 8 10
4 3 1
2 0
2 1
2 2
2 4
2 5
2 10
2 11
2 13
4 6 13
4 12 2
5 3
5 4
5 5
5 6
5 7
5 8
5 9
5 12
END_STATE
END_LABELED_STATE
BEGIN_LABELED_STATE
2.0
BEGIN_STATE
4 7 11
3 2 21
3 5 14
3 10 15
3 11 17
3 4 16
3 13 20
3 1 19
3 0 18
4 9 0
4 8 10
4 3 1
4 6 5
2 0
2 1
2 2
2 4
2 5
2 10
2 11
2 13
4 12 2
5 3
5 4
5 6
5 7
5 8
5 9
5 12
5 13
END_STATE
END_LABELED_STATE
BEGIN_LABELED_STATE
1.0
BEGIN_STATE
4 7 11
3 2 21
3 5 14
3 10 15
3 11 17
3 4 16
6 20
3 1 19
3 0 18
4 9 0
4 8 10
4 3 1
4 6 5
2 0
2 1
2 2
2 4
2 5
2 10
2 11
4 12 2
4 13 13
5 3
5 4
5 6
5 7
5 8
5 9
5 12
END_STATE
END_LABELED_STATE
BEGIN_LABELED_STATE
3.0
BEGIN_STATE
4 7 11
3 2 21
3 5 14
3 10 15
3 11 17
3 4 16
3 13 20
3 1 19
3 0 18
4 9 0
4 8 10
4 3 1
4 12 5
2 0
2 1
2 2
2 4
2 5
2 10
2 11
2 13
4 6 13
5 2
5 3
5 4
5 6
5 7
5 8
5 9
5 12
END_STATE
END_LABELED_STATE
BEGIN_LABELED_STATE
2.0
BEGIN_STATE
4 7 11
3 2 21
3 5 14
3 10 15
3 11 17
3 4 16
3 13 20
3 1 19
3 0 18
4 9 0
4 8 10
4 3 1
4 6 2
4 12 5
2 0
2 1
2 2
2 4
2 5
2 10
2 11
2 13
5 3
5 4
5 6
5 7
5 8
5 9
5 12
5 13
END_STATE
END_LABELED_STATE
BEGIN_LABELED_STATE
1.0
BEGIN_STATE
4 7 11
3 2 21
3 5 14
3 10 15
3 11 17
3 4 16
6 20
3 1 19
3 0 18
4 9 0
4 8 10
4 3 1
4 6 2
4 12 5
2 0
2 1
2 2
2 4
2 5
2 10
2 11
4 13 13
5 3
5 4
5 6
5 7
5 8
5 9
5 12
END_STATE
END_LABELED_STATE
BEGIN_LABELED_STATE
3.0
BEGIN_STATE
4 7 11
3 2 21
3 5 14
3 10 15
3 11 17
3 4 16
3 13 20
3 1 19
3 0 18
4 9 0
4 8 10
4 3 1
4 6 2
4 12 13
2 0
2 1
2 2
2 4
2 5
2 10
2 11
2 13
5 3
5 4
5 5
5 6
5 7
5 8
5 9
5 12
END_STATE
END_LABELED_STATE
BEGIN_LABELED_STATE
2.0
BEGIN_STATE
4 7 11
3 2 21
3 5 14
3 10 15
3 11 17
3 4 16
3 13 20
3 1 19
3 0 18
4 9 0
4 8 10
4 3 1
4 6 2
2 0
2 1
2 2
2 4
2 5
2 10
2 11
2 13
4 12 4
5 3
5 5
5 6
5 7
5 8
5 9
5 12
5 13
END_STATE
END_LABELED_STATE
BEGIN_LABELED_STATE
1.0
BEGIN_STATE
4 7 11
3 2 21
3 5 14
3 10 15
3 11 17
3 4 16
6 20
3 1 19
3 0 18
4 9 0
4 8 10
4 3 1
4 6 2
2 0
2 1
2 2
2 4
2 5
2 10
2 11
4 12 4
4 13 13
5 3
5 5
5 6
5 7
5 8
5 9
5 12
END_STATE
END_LABELED_STATE
BEGIN_LABELED_STATE
0.0
BEGIN_STATE
4 7 11
3 2 21
3 5 14
3 10 15
3 11 17
3 4 16
3 6 20
3 1 19
3 0 18
4 9 0
4 8 10
4 3 1
2 0
2 1
2 2
2 4
2 5
2 6
2 10
2 11
4 12 4
4 13 13
5 2
5 3
5 5
5 6
5 7
5 8
5 9
5 12
END_STATE
END_LABELED_STATE
BEGIN_LABELED_STATE
3.0
BEGIN_STATE
4 7 11
3 2 21
3 5 14
3 10 15
3 11 17
3 4 16
3 13 20
3 1 19
3 0 18
4 9 0
4 8 10
4 3 1
2 0
2 1
2 2
2 4
2 5
2 10
2 11
2 13
4 6 13
4 12 4
5 2
5 3
5 5
5 6
5 7
5 8
5 9
5 12
END_STATE
END_LABELED_STATE
BEGIN_LABELED_STATE
2.0
BEGIN_STATE
4 7 11
3 2 21
3 5 14
3 10 15
3 11 17
3 4 16
3 13 20
3 1 19
3 0 18
4 9 0
4 8 10
4 3 1
4 6 5
2 0
2 1
2 2
2 4
2 5
2 10
2 11
2 13
4 12 4
5 2
5 3
5 6
5 7
5 8
5 9
5 12
5 13
END_STATE
END_LABELED_STATE
BEGIN_LABELED_STATE
1.0
BEGIN_STATE
4 7 11
3 2 21
3 5 14
3 10 15
3 11 17
3 4 16
6 20
3 1 19
3 0 18
4 9 0
4 8 10
4 3 1
4 6 5
2 0
2 1
2 2
2 4
2 5
2 10
2 11
4 12 4
4 13 13
5 2
5 3
5 6
5 7
5 8
5 9
5 12
END_STATE
END_LABELED_STATE
BEGIN_LABELED_STATE
3.0
BEGIN_STATE
4 7 11
3 2 21
3 5 14
3 10 15
3 11 17
3 4 16
3 13 20
3 1 19
3 0 18
4 9 0
4 8 10
4 3 1
4 12 13
4 6 5
2 0
2 1
2 2
2 4
2 5
2 10
2 11
2 13
5 2
5 3
5 4
5 6
5 7
5 8
5 9
5 12
END_STATE
END_LABELED_STATE
BEGIN_LABELED_STATE
3.0
BEGIN_STATE
4 7 11
3 2 21
3 5 14
3 10 15
3 11 17
3 4 16
3 13 20
3 1 19
3 0 18
4 9 0
4 8 10
4 6 5
2 0
2 1
2 2
2 4
2 5
2 10
2 11
2 13
4 3 13
4 12 2
5 1
5 3
5 4
5 6
5 7
5 8
5 9
5 12
END_STATE
END_LABELED_STATE
BEGIN_LABELED_STATE
2.0
BEGIN_STATE
4 7 11
3 2 21
3 5 14
3 10 15
3 11 17
3 4 16
3 13 20
3 1 19
3 0 18
4 9 0
4 3 4
4 8 10
4 6 5
2 0
2 1
2 2
2 4
2 5
2 10
2 11
2 13
4 12 2
5 1
5 3
5 6
5 7
5 8
5 9
5 12
5 13
END_STATE
END_LABELED_STATE
BEGIN_LABELED_STATE
1.0
BEGIN_STATE
4 7 11
3 2 21
3 5 14
3 10 15
3 11 17
3 4 16
6 20
3 1 19
3 0 18
4 9 0
4 3 4
4 8 10
4 6 5
2 0
2 1
2 2
2 4
2 5
2 10
2 11
4 12 2
4 13 13
5 1
5 3
5 6
5 7
5 8
5 9
5 12
END_STATE
END_LABELED_STATE
BEGIN_LABELED_STATE
0.0
BEGIN_STATE
4 7 11
3 2 21
3 5 14
3 10 15
3 11 17
3 4 16
3 6 20
3 1 19
3 0 18
4 9 0
4 3 4
4 8 10
2 0
2 1
2 2
2 4
2 5
2 6
2 10
2 11
4 12 2
4 13 13
5 1
5 3
5 5
5 6
5 7
5 8
5 9
5 12
END_STATE
END_LABELED_STATE
BEGIN_LABELED_STATE
3.0
BEGIN_STATE
4 7 11
3 2 21
3 5 14
3 10 15
3 11 17
3 4 16
3 13 20
3 1 19
3 0 18
4 9 0
4 8 10
4 6 5
2 0
2 1
2 2
2 4
2 5
2 10
2 11
2 13
4 3 13
4 12 4
5 1
5 2
5 3
5 6
5 7
5 8
5 9
5 12
END_STATE
END_LABELED_STATE
BEGIN_LABELED_STATE
2.0
BEGIN_STATE
4 7 11
3 2 21
3 5 14
3 10 15
3 11 17
3 4 16
3 13 20
3 1 19
3 0 18
4 9 0
4 8 10
4 3 2
4 6 5
2 0
2 1
2 2
2 4
2 5
2 10
2 11
2 13
4 12 4
5 1
5 3
5 6
5 7
5 8
5 9
5 12
5 13
END_STATE
END_LABELED_STATE
BEGIN_LABELED_STATE
1.0
BEGIN_STATE
4 7 11
3 2 21
3 5 14
3 10 15
3 11 17
3 4 16
6 20
3 1 19
3 0 18
4 9 0
4 8 10
4 3 2
4 6 5
2 0
2 1
2 2
2 4
2 5
2 10
2 11
4 12 4
4 13 13
5 1
5 3
5 6
5 7
5 8
5 9
5 12
END_STATE
END_LABELED_STATE
BEGIN_LABELED_STATE
0.0
BEGIN_STATE
4 7 11
3 2 21
3 5 14
3 10 15
3 11 17
3 4 16
3 6 20
3 1 19
3 0 18
4 9 0
4 8 10
4 3 2
2 0
2 1
2 2
2 4
2 5
2 6
2 10
2 11
4 12 4
4 13 13
5 1
5 3
5 5
5 6
5 7
5 8
5 9
5 12
END_STATE
END_LABELED_STATE
BEGIN_LABELED_STATE
3.0
BEGIN_STATE
4 7 11
3 2 21
3 5 14
3 10 15
3 11 17
3 4 16
3 13 20
3 1 19
3 0 18
4 9 0
4 8 10
4 3 2
4 12 13
4 6 5
2 0
2 1
2 2
2 4
2 5
2 10
2 11
2 13
5 1
5 3
5 4
5 6
5 7
5 8
5 9
5 12
END_STATE
END_LABELED_STATE
BEGIN_LABELED_STATE
3.0
BEGIN_STATE
4 7 11
3 2 21
3 5 14
3 10 15
3 11 17
3 4 16
3 13 20
3 1 19
3 0 18
4 9 0
4 8 10
4 6 4
4 3 2
4 12 13
2 0
2 1
2 2
2 4
2 5
2 10
2 11
2 13
5 1
5 3
5 5
5 6
5 7
5 8
5 9
5 12
END_STATE
END_LABELED_STATE
BEGIN_LABELED_STATE
2.0
BEGIN_STATE
4 7 11
3 2 21
3 5 14
3 10 15
3 11 17
3 4 16
3 13 20
3 1 19
3 0 18
4 9 0
4 8 10
4 6 4
4 3 2
4 12 5
2 0
2 1
2 2
2 4
2 5
2 10
2 11
2 13
5 1
5 3
5 6
5 7
5 8
5 9
5 12
5 13
END_STATE
END_LABELED_STATE
BEGIN_LABELED_STATE
1.0
BEGIN_STATE
4 7 11
3 2 21
3 5 14
3 10 15
3 11 17
3 4 16
6 20
3 1 19
3 0 18
4 9 0
4 8 10
4 6 4
4 3 2
4 12 5
2 0
2 1
2 2
2 4
2 5
2 10
2 11
4 13 13
5 1
5 3
5 6
5 7
5 8
5 9
5 12
END_STATE
END_LABELED_STATE
BEGIN_LABELED_STATE
0.0
BEGIN_STATE
4 7 11
3 2 21
3 5 14
3 10 15
3 11 17
3 4 16
3 6 20
3 1 19
3 0 18
4 9 0
4 8 10
4 3 2
4 12 5
2 0
2 1
2 2
2 4
2 5
2 6
2 10
2 11
4 13 13
5 1
5 3
5 4
5 6
5 7
5 8
5 9
5 12
END_STATE
END_LABELED_STATE
BEGIN_LABELED_STATE
2.0
BEGIN_STATE
4 7 11
3 2 21
3 5 14
3 10 15
3 11 17
3 4 16
3 13 20
3 1 19
3 0 18
4 9 0
4 8 10
4 6 4
4 3 2
2 0
2 1
2 2
2 4
2 5
2 10
2 11
2 13
4 12 1
5 3
5 5
5 6
5 7
5 8
5 9
5 12
5 13
END_STATE
END_LABELED_STATE
BEGIN_LABELED_STATE
1.0
BEGIN_STATE
4 7 11
3 2 21
3 5 14
3 10 15
3 11 17
3 4 16
6 20
3 1 19
3 0 18
4 9 0
4 8 10
4 6 4
4 3 2
2 0
2 1
2 2
2 4
2 5
2 10
2 11
4 12 1
4 13 13
5 3
5 5
5 6
5 7
5 8
5 9
5 12
END_STATE
END_LABELED_STATE
BEGIN_LABELED_STATE
0.0
BEGIN_STATE
4 7 11
3 2 21
3 5 14
3 10 15
3 11 17
3 4 16
3 6 20
3 1 19
3 0 18
4 9 0
4 8 10
4 3 2
2 0
2 1
2 2
2 4
2 5
2 6
2 10
2 11
4 12 1
4 13 13
5 3
5 4
5 5
5 6
5 7
5 8
5 9
5 12
END_STATE
END_LABELED_STATE
BEGIN_LABELED_STATE
3.0
BEGIN_STATE
4 7 11
3 2 21
3 5 14
3 10 15
3 11 17
3 4 16
3 13 20
3 1 19
3 0 18
4 9 0
4 8 10
4 6 4
2 0
2 1
2 2
2 4
2 5
2 10
2 11
2 13
4 3 13
4 12 1
5 2
5 3
5 5
5 6
5 7
5 8
5 9
5 12
END_STATE
END_LABELED_STATE
BEGIN_LABELED_STATE
2.0
BEGIN_STATE
4 7 11
3 2 21
3 5 14
3 10 15
3 11 17
3 4 16
3 13 20
3 1 19
3 0 18
4 9 0
4 8 10
4 3 5
4 6 4
2 0
2 1
2 2
2 4
2 5
2 10
2 11
2 13
4 12 1
5 2
5 3
5 6
5 7
5 8
5 9
5 12
5 13
END_STATE
END_LABELED_STATE
BEGIN_LABELED_STATE
1.0
BEGIN_STATE
4 7 11
3 2 21
3 5 14
3 10 15
3 11 17
3 4 16
6 20
3 1 19
3 0 18
4 9 0
4 8 10
4 3 5
4 6 4
2 0
2 1
2 2
2 4
2 5
2 10
2 11
4 12 1
4 13 13
5 2
5 3
5 6
5 7
5 8
5 9
5 12
END_STATE
END_LABELED_STATE
BEGIN_LABELED_STATE
0.0
BEGIN_STATE
4 7 11
3 2 21
3 5 14
3 10 15
3 11 17
3 4 16
3 6 20
3 1 19
3 0 18
4 9 0
4 8 10
4 3 5
2 0
2 1
2 2
2 4
2 5
2 6
2 10
2 11
4 12 1
4 13 13
5 2
5 3
5 4
5 6
5 7
5 8
5 9
5 12
END_STATE
END_LABELED_STATE
BEGIN_LABELED_STATE
3.0
BEGIN_STATE
4 7 11
3 2 21
3 5 14
3 10 15
3 11 17
3 4 16
3 13 20
3 1 19
3 0 18
4 9 0
4 8 10
4 6 4
4 12 5
2 0
2 1
2 2
2 4
2 5
2 10
2 11
2 13
4 3 13
5 1
5 2
5 3
5 6
5 7
5 8
5 9
5 12
END_STATE
END_LABELED_STATE
BEGIN_LABELED_STATE
3.0
BEGIN_STATE
4 7 11
3 2 21
3 5 14
3 10 15
3 11 17
3 4 16
3 13 20
3 1 19
3 0 18
4 9 0
4 8 10
4 6 4
2 0
2 1
2 2
2 4
2 5
2 10
2 11
2 13
4 3 13
4 12 2
5 1
5 3
5 5
5 6
5 7
5 8
5 9
5 12
END_STATE
END_LABELED_STATE
BEGIN_LABELED_STATE
2.0
BEGIN_STATE
4 7 11
3 2 21
3 5 14
3 10 15
3 11 17
3 4 16
3 13 20
3 1 19
3 0 18
4 9 0
4 8 10
4 3 5
4 6 4
2 0
2 1
2 2
2 4
2 5
2 10
2 11
2 13
4 12 2
5 1
5 3
5 6
5 7
5 8
5 9
5 12
5 13
END_STATE
END_LABELED_STATE
BEGIN_LABELED_STATE
1.0
BEGIN_STATE
4 7 11
3 2 21
3 5 14
3 10 15
3 11 17
3 4 16
6 20
3 1 19
3 0 18
4 9 0
4 8 10
4 3 5
4 6 4
2 0
2 1
2 2
2 4
2 5
2 10
2 11
4 12 2
4 13 13
5 1
5 3
5 6
5 7
5 8
5 9
5 12
END_STATE
END_LABELED_STATE
BEGIN_LABELED_STATE
0.0
BEGIN_STATE
4 7 11
3 2 21
3 5 14
3 10 15
3 11 17
3 4 16
3 6 20
3 1 19
3 0 18
4 9 0
4 8 10
4 3 5
2 0
2 1
2 2
2 4
2 5
2 6
2 10
2 11
4 12 2
4 13 13
5 1
5 3
5 4
5 6
5 7
5 8
5 9
5 12
END_STATE
END_LABELED_STATE
BEGIN_LABELED_STATE
3.0
BEGIN_STATE
4 7 11
3 2 21
3 5 14
3 10 15
3 11 17
3 4 16
3 13 20
3 1 19
3 0 18
4 9 0
4 8 10
4 3 5
4 6 4
4 12 13
2 0
2 1
2 2
2 4
2 5
2 10
2 11
2 13
5 1
5 2
5 3
5 6
5 7
5 8
5 9
5 12
END_STATE
END_LABELED_STATE
BEGIN_LABELED_STATE
3.0
BEGIN_STATE
4 7 11
3 2 21
3 5 14
3 10 15
3 11 17
3 4 16
3 13 20
3 1 19
3 0 18
4 9 0
4 8 10
4 3 5
2 0
2 1
2 2
2 4
2 5
2 10
2 11
2 13
4 6 13
4 12 1
5 2
5 3
5 4
5 6
5 7
5 8
5 9
5 12
END_STATE
END_LABELED_STATE
BEGIN_LABELED_STATE
3.0
BEGIN_STATE
4 7 11
3 2 21
3 5 14
3 10 15
3 11 17
3 4 16
3 13 20
3 1 19
3 0 18
4 9 0
4 8 10
4 3 5
2 0
2 1
2 2
2 4
2 5
2 10
2 11
2 13
4 6 13
4 12 4
5 1
5 2
5 3
5 6
5 7
5 8
5 9
5 12
END_STATE
END_LABELED_STATE
BEGIN_LABELED_STATE
2.0
BEGIN_STATE
4 7 11
3 2 21
3 5 14
3 10 15
3 11 17
3 4 16
3 13 20
3 1 19
3 0 18
4 9 0
4 8 10
4 3 5
4 6 2
2 0
2 1
2 2
2 4
2 5
2 10
2 11
2 13
4 12 4
5 1
5 3
5 6
5 7
5 8
5 9
5 12
5 13
END_STATE
END_LABELED_STATE
BEGIN_LABELED_STATE
1.0
BEGIN_STATE
4 7 11
3 2 21
3 5 14
3 10 15
3 11 17
3 4 16
6 20
3 1 19
3 0 18
4 9 0
4 8 10
4 3 5
4 6 2
2 0
2 1
2 2
2 4
2 5
2 10
2 11
4 12 4
4 13 13
5 1
5 3
5 6
5 7
5 8
5 9
5 12
END_STATE
END_LABELED_STATE
BEGIN_LABELED_STATE
0.0
BEGIN_STATE
4 7 11
3 2 21
3 5 14
3 10 15
3 11 17
3 4 16
3 6 20
3 1 19
3 0 18
4 9 0
4 8 10
4 3 5
2 0
2 1
2 2
2 4
2 5
2 6
2 10
2 11
4 12 4
4 13 13
5 1
5 2
5 3
5 6
5 7
5 8
5 9
5 12
END_STATE
END_LABELED_STATE
BEGIN_LABELED_STATE
3.0
BEGIN_STATE
4 7 11
3 2 21
3 5 14
3 10 15
3 11 17
3 4 16
3 13 20
3 1 19
3 0 18
4 9 0
4 8 10
4 3 5
2 0
2 1
2 2
2 4
2 5
2 10
2 11
2 13
4 6 13
4 12 2
5 1
5 3
5 4
5 6
5 7
5 8
5 9
5 12
END_STATE
END_LABELED_STATE
BEGIN_LABELED_STATE
2.0
BEGIN_STATE
4 7 11
3 2 21
3 5 14
3 10 15
3 11 17
3 4 16
3 13 20
3 1 19
3 0 18
4 9 0
4 8 10
4 6 1
4 3 5
2 0
2 1
2 2
2 4
2 5
2 10
2 11
2 13
4 12 2
5 3
5 4
5 6
5 7
5 8
5 9
5 12
5 13
END_STATE
END_LABELED_STATE
BEGIN_LABELED_STATE
1.0
BEGIN_STATE
4 7 11
3 2 21
3 5 14
3 10 15
3 11 17
3 4 16
6 20
3 1 19
3 0 18
4 9 0
4 8 10
4 6 1
4 3 5
2 0
2 1
2 2
2 4
2 5
2 10
2 11
4 12 2
4 13 13
5 3
5 4
5 6
5 7
5 8
5 9
5 12
END_STATE
END_LABELED_STATE
BEGIN_LABELED_STATE
3.0
BEGIN_STATE
4 7 11
3 2 21
3 5 14
3 10 15
3 11 17
3 4 16
3 13 20
3 1 19
3 0 18
4 9 0
4 8 10
4 6 1
4 3 5
4 12 13
2 0
2 1
2 2
2 4
2 5
2 10
2 11
2 13
5 2
5 3
5 4
5 6
5 7
5 8
5 9
5 12
END_STATE
END_LABELED_STATE
BEGIN_LABELED_STATE
2.0
BEGIN_STATE
4 7 11
3 2 21
3 5 14
3 10 15
3 11 17
3 4 16
3 13 20
3 1 19
3 0 18
4 9 0
4 8 10
4 6 1
4 3 5
2 0
2 1
2 2
2 4
2 5
2 10
2 11
2 13
4 12 4
5 2
5 3
5 6
5 7
5 8
5 9
5 12
5 13
END_STATE
END_LABELED_STATE
BEGIN_LABELED_STATE
1.0
BEGIN_STATE
4 7 11
3 2 21
3 5 14
3 10 15
3 11 17
3 4 16
6 20
3 1 19
3 0 18
4 9 0
4 8 10
4 6 1
4 3 5
2 0
2 1
2 2
2 4
2 5
2 10
2 11
4 12 4
4 13 13
5 2
5 3
5 6
5 7
5 8
5 9
5 12
END_STATE
END_LABELED_STATE
BEGIN_LABELED_STATE
3.0
BEGIN_STATE
4 7 11
3 2 21
3 5 14
3 10 15
3 11 17
3 4 16
3 13 20
3 1 19
3 0 18
4 9 0
4 8 10
4 6 1
2 0
2 1
2 2
2 4
2 5
2 10
2 11
2 13
4 3 13
4 12 4
5 2
5 3
5 5
5 6
5 7
5 8
5 9
5 12
END_STATE
END_LABELED_STATE
BEGIN_LABELED_STATE
3.0
BEGIN_STATE
4 7 11
3 2 21
3 5 14
3 10 15
3 11 17
3 4 16
3 13 20
3 1 19
3 0 18
4 9 0
4 8 10
4 6 1
4 12 5
2 0
2 1
2 2
2 4
2 5
2 10
2 11
2 13
4 3 13
5 2
5 3
5 4
5 6
5 7
5 8
5 9
5 12
END_STATE
END_LABELED_STATE
BEGIN_LABELED_STATE
2.0
BEGIN_STATE
4 7 11
3 2 21
3 5 14
3 10 15
3 11 17
3 4 16
3 13 20
3 1 19
3 0 18
4 9 0
4 3 4
4 8 10
4 6 1
4 12 5
2 0
2 1
2 2
2 4
2 5
2 10
2 11
2 13
5 2
5 3
5 6
5 7
5 8
5 9
5 12
5 13
END_STATE
END_LABELED_STATE
BEGIN_LABELED_STATE
1.0
BEGIN_STATE
4 7 11
3 2 21
3 5 14
3 10 15
3 11 17
3 4 16
6 20
3 1 19
3 0 18
4 9 0
4 3 4
4 8 10
4 6 1
4 12 5
2 0
2 1
2 2
2 4
2 5
2 10
2 11
4 13 13
5 2
5 3
5 6
5 7
5 8
5 9
5 12
END_STATE
END_LABELED_STATE
BEGIN_LABELED_STATE
0.0
BEGIN_STATE
4 7 11
3 2 21
3 5 14
3 10 15
3 11 17
3 4 16
3 6 20
3 1 19
3 0 18
4 9 0
4 3 4
4 8 10
4 12 5
2 0
2 1
2 2
2 4
2 5
2 6
2 10
2 11
4 13 13
5 1
5 2
5 3
5 6
5 7
5 8
5 9
5 12
END_STATE
END_LABELED_STATE
BEGIN_LABELED_STATE
3.0
BEGIN_STATE
4 7 11
3 2 21
3 5 14
3 10 15
3 11 17
3 4 16
3 13 20
3 1 19
3 0 18
4 9 0
4 3 4
4 8 10
4 6 1
4 12 13
2 0
2 1
2 2
2 4
2 5
2 10
2 11
2 13
5 2
5 3
5 5
5 6
5 7
5 8
5 9
5 12
END_STATE
END_LABELED_STATE
BEGIN_LABELED_STATE
2.0
BEGIN_STATE
4 7 11
3 2 21
3 5 14
3 10 15
3 11 17
3 4 16
3 13 20
3 1 19
3 0 18
4 9 0
4 3 4
4 8 10
4 6 1
2 0
2 1
2 2
2 4
2 5
2 10
2 11
2 13
4 12 2
5 3
5 5
5 6
5 7
5 8
5 9
5 12
5 13
END_STATE
END_LABELED_STATE
BEGIN_LABELED_STATE
1.0
BEGIN_STATE
4 7 11
3 2 21
3 5 14
3 10 15
3 11 17
3 4 16
6 20
3 1 19
3 0 18
4 9 0
4 3 4
4 8 10
4 6 1
2 0
2 1
2 2
2 4
2 5
2 10
2 11
4 12 2
4 13 13
5 3
5 5
5 6
5 7
5 8
5 9
5 12
END_STATE
END_LABELED_STATE
BEGIN_LABELED_STATE
3.0
BEGIN_STATE
4 7 11
3 2 21
3 5 14
3 10 15
3 11 17
3 4 16
3 13 20
3 1 19
3 0 18
4 9 0
4 3 4
4 8 10
2 0
2 1
2 2
2 4
2 5
2 10
2 11
2 13
4 6 13
4 12 2
5 1
5 3
5 5
5 6
5 7
5 8
5 9
5 12
END_STATE
END_LABELED_STATE
BEGIN_LABELED_STATE
3.0
BEGIN_STATE
4 7 11
3 2 21
3 5 14
3 10 15
3 11 17
3 4 16
3 13 20
3 1 19
3 0 18
4 9 0
4 3 4
4 8 10
4 12 5
2 0
2 1
2 2
2 4
2 5
2 10
2 11
2 13
4 6 13
5 1
5 2
5 3
5 6
5 7
5 8
5 9
5 12
END_STATE
END_LABELED_STATE
BEGIN_LABELED_STATE
2.0
BEGIN_STATE
4 7 11
3 2 21
3 5 14
3 10 15
3 11 17
3 4 16
3 13 20
3 1 19
3 0 18
4 9 0
4 3 4
4 8 10
4 6 2
4 12 5
2 0
2 1
2 2
2 4
2 5
2 10
2 11
2 13
5 1
5 3
5 6
5 7
5 8
5 9
5 12
5 13
END_STATE
END_LABELED_STATE
BEGIN_LABELED_STATE
1.0
BEGIN_STATE
4 7 11
3 2 21
3 5 14
3 10 15
3 11 17
3 4 16
6 20
3 1 19
3 0 18
4 9 0
4 3 4
4 8 10
4 6 2
4 12 5
2 0
2 1
2 2
2 4
2 5
2 10
2 11
4 13 13
5 1
5 3
5 6
5 7
5 8
5 9
5 12
END_STATE
END_LABELED_STATE
BEGIN_LABELED_STATE
3.0
BEGIN_STATE
4 7 11
3 2 21
3 5 14
3 10 15
3 11 17
3 4 16
3 13 20
3 1 19
3 0 18
4 9 0
4 3 4
4 8 10
4 6 2
4 12 13
2 0
2 1
2 2
2 4
2 5
2 10
2 11
2 13
5 1
5 3
5 5
5 6
5 7
5 8
5 9
5 12
END_STATE
END_LABELED_STATE
BEGIN_LABELED_STATE
2.0
BEGIN_STATE
4 7 11
3 2 21
3 5 14
3 10 15
3 11 17
3 4 16
3 13 20
3 1 19
3 0 18
4 9 0
4 3 4
4 8 10
4 6 2
2 0
2 1
2 2
2 4
2 5
2 10
2 11
2 13
4 12 1
5 3
5 5
5 6
5 7
5 8
5 9
5 12
5 13
END_STATE
END_LABELED_STATE
BEGIN_LABELED_STATE
1.0
BEGIN_STATE
4 7 11
3 2 21
3 5 14
3 10 15
3 11 17
3 4 16
6 20
3 1 19
3 0 18
4 9 0
4 3 4
4 8 10
4 6 2
2 0
2 1
2 2
2 4
2 5
2 10
2 11
4 12 1
4 13 13
5 3
5 5
5 6
5 7
5 8
5 9
5 12
END_STATE
END_LABELED_STATE
BEGIN_LABELED_STATE
0.0
BEGIN_STATE
4 7 11
3 2 21
3 5 14
3 10 15
3 11 17
3 4 16
3 6 20
3 1 19
3 0 18
4 9 0
4 3 4
4 8 10
2 0
2 1
2 2
2 4
2 5
2 6
2 10
2 11
4 12 1
4 13 13
5 2
5 3
5 5
5 6
5 7
5 8
5 9
5 12
END_STATE
END_LABELED_STATE
BEGIN_LABELED_STATE
3.0
BEGIN_STATE
4 7 11
3 2 21
3 5 14
3 10 15
3 11 17
3 4 16
3 13 20
3 1 19
3 0 18
4 9 0
4 3 4
4 8 10
2 0
2 1
2 2
2 4
2 5
2 10
2 11
2 13
4 6 13
4 12 1
5 2
5 3
5 5
5 6
5 7
5 8
5 9
5 12
END_STATE
END_LABELED_STATE
BEGIN_LABELED_STATE
2.0
BEGIN_STATE
4 7 11
3 2 21
3 5 14
3 10 15
3 11 17
3 4 16
3 13 20
3 1 19
3 0 18
4 9 0
4 3 4
4 8 10
4 6 5
2 0
2 1
2 2
2 4
2 5
2 10
2 11
2 13
4 12 1
5 2
5 3
5 6
5 7
5 8
5 9
5 12
5 13
END_STATE
END_LABELED_STATE
BEGIN_LABELED_STATE
1.0
BEGIN_STATE
4 7 11
3 2 21
3 5 14
3 10 15
3 11 17
3 4 16
6 20
3 1 19
3 0 18
4 9 0
4 3 4
4 8 10
4 6 5
2 0
2 1
2 2
2 4
2 5
2 10
2 11
4 12 1
4 13 13
5 2
5 3
5 6
5 7
5 8
5 9
5 12
END_STATE
END_LABELED_STATE
BEGIN_LABELED_STATE
3.0
BEGIN_STATE
4 7 11
3 2 21
3 5 14
3 10 15
3 11 17
3 4 16
3 13 20
3 1 19
3 0 18
4 9 0
4 3 4
4 8 10
4 12 13
4 6 5
2 0
2 1
2 2
2 4
2 5
2 10
2 11
2 13
5 1
5 2
5 3
5 6
5 7
5 8
5 9
5 12
END_STATE
END_LABELED_STATE
BEGIN_LABELED_STATE
3.0
BEGIN_STATE
4 7 11
3 2 21
3 5 14
3 10 15
3 11 17
3 4 16
3 13 20
3 1 19
3 0 18
4 9 0
4 3 4
4 6 5
2 0
2 1
2 2
2 4
2 5
2 10
2 11
2 13
4 8 13
4 12 2
5 1
5 3
5 6
5 7
5 8
5 9
5 10
5 12
END_STATE
END_LABELED_STATE
BEGIN_LABELED_STATE
3.0
BEGIN_STATE
4 7 11
3 2 21
3 5 14
3 10 15
3 11 17
3 4 16
3 13 20
3 1 19
3 0 18
4 9 0
4 3 4
4 12 10
4 6 5
2 0
2 1
2 2
2 4
2 5
2 10
2 11
2 13
4 8 13
5 1
5 2
5 3
5 6
5 7
5 8
5 9
5 12
END_STATE
END_LABELED_STATE
BEGIN_LABELED_STATE
2.0
BEGIN_STATE
4 7 11
3 2 21
3 5 14
3 10 15
3 11 17
3 4 16
3 13 20
3 1 19
3 0 18
4 9 0
4 3 4
4 8 2
4 12 10
4 6 5
2 0
2 1
2 2
2 4
2 5
2 10
2 11
2 13
5 1
5 3
5 6
5 7
5 8
5 9
5 12
5 13
END_STATE
END_LABELED_STATE
BEGIN_LABELED_STATE
1.0
BEGIN_STATE
4 7 11
3 2 21
3 5 14
3 10 15
3 11 17
3 4 16
6 20
3 1 19
3 0 18
4 9 0
4 3 4
4 8 2
4 12 10
4 6 5
2 0
2 1
2 2
2 4
2 5
2 10
2 11
4 13 13
5 1
5 3
5 6
5 7
5 8
5 9
5 12
END_STATE
END_LABELED_STATE
BEGIN_LABELED_STATE
0.0
BEGIN_STATE
4 7 11
3 2 21
3 5 14
3 10 15
3 11 17
3 4 16
3 6 20
3 1 19
3 0 18
4 9 0
4 3 4
4 8 2
4 12 10
2 0
2 1
2 2
2 4
2 5
2 6
2 10
2 11
4 13 13
5 1
5 3
5 5
5 6
5 7
5 8
5 9
5 12
END_STATE
END_LABELED_STATE
BEGIN_LABELED_STATE
3.0
BEGIN_STATE
4 7 11
3 2 21
3 5 14
3 10 15
3 11 17
3 4 16
3 13 20
3 1 19
3 0 18
4 9 0
4 3 4
4 8 2
4 12 10
2 0
2 1
2 2
2 4
2 5
2 10
2 11
2 13
4 6 13
5 1
5 3
5 5
5 6
5 7
5 8
5 9
5 12
END_STATE
END_LABELED_STATE
BEGIN_LABELED_STATE
2.0
BEGIN_STATE
4 7 11
3 2 21
3 5 14
3 10 15
3 11 17
3 4 16
3 13 20
3 1 19
3 0 18
4 9 0
4 3 4
4 6 1
4 8 2
4 12 10
2 0
2 1
2 2
2 4
2 5
2 10
2 11
2 13
5 3
5 5
5 6
5 7
5 8
5 9
5 12
5 13
END_STATE
END_LABELED_STATE
BEGIN_LABELED_STATE
1.0
BEGIN_STATE
4 7 11
3 2 21
3 5 14
3 10 15
3 11 17
3 4 16
6 20
3 1 19
3 0 18
4 9 0
4 3 4
4 6 1
4 8 2
4 12 10
2 0
2 1
2 2
2 4
2 5
2 10
2 11
4 13 13
5 3
5 5
5 6
5 7
5 8
5 9
5 12
END_STATE
END_LABELED_STATE
BEGIN_LABELED_STATE
3.0
BEGIN_STATE
4 7 11
3 2 21
3 5 14
3 10 15
3 11 17
3 4 16
3 13 20
3 1 19
3 0 18
4 9 0
4 3 4
4 6 1
4 8 2
4 12 13
2 0
2 1
2 2
2 4
2 5
2 10
2 11
2 13
5 3
5 5
5 6
5 7
5 8
5 9
5 10
5 12
END_STATE
END_LABELED_STATE
BEGIN_LABELED_STATE
2.0
BEGIN_STATE
4 7 11
3 2 21
3 5 14
3 10 15
3 11 17
3 4 16
3 13 20
3 1 19
3 0 18
4 9 0
4 3 4
4 6 1
4 8 2
4 12 5
2 0
2 1
2 2
2 4
2 5
2 10
2 11
2 13
5 3
5 6
5 7
5 8
5 9
5 10
5 12
5 13
END_STATE
END_LABELED_STATE
BEGIN_LABELED_STATE
1.0
BEGIN_STATE
4 7 11
3 2 21
3 5 14
3 10 15
3 11 17
3 4 16
6 20
3 1 19
3 0 18
4 9 0
4 3 4
4 6 1
4 8 2
4 12 5
2 0
2 1
2 2
2 4
2 5
2 10
2 11
4 13 13
5 3
5 6
5 7
5 8
5 9
5 10
5 12
END_STATE
END_LABELED_STATE
BEGIN_LABELED_STATE
0.0
BEGIN_STATE
4 7 11
3 2 21
3 5 14
3 10 15
3 11 17
3 4 16
3 6 20
3 1 19
3 0 18
4 9 0
4 3 4
4 8 2
4 12 5
2 0
2 1
2 2
2 4
2 5
2 6
2 10
2 11
4 13 13
5 1
5 3
5 6
5 7
5 8
5 9
5 10
5 12
END_STATE
END_LABELED_STATE
BEGIN_LABELED_STATE
3.0
BEGIN_STATE
4 7 11
3 2 21
3 5 14
3 10 15
3 11 17
3 4 16
3 13 20
3 1 19
3 0 18
4 9 0
4 3 4
4 6 1
4 12 5
2 0
2 1
2 2
2 4
2 5
2 10
2 11
2 13
4 8 13
5 2
5 3
5 6
5 7
5 8
5 9
5 10
5 12
END_STATE
END_LABELED_STATE
BEGIN_LABELED_STATE
3.0
BEGIN_STATE
4 7 11
3 2 21
3 5 14
3 10 15
3 11 17
3 4 16
3 13 20
3 1 19
3 0 18
4 9 0
4 3 4
4 6 1
4 12 10
2 0
2 1
2 2
2 4
2 5
2 10
2 11
2 13
4 8 13
5 2
5 3
5 5
5 6
5 7
5 8
5 9
5 12
END_STATE
END_LABELED_STATE
BEGIN_LABELED_STATE
2.0
BEGIN_STATE
4 7 11
3 2 21
3 5 14
3 10 15
3 11 17
3 4 16
3 13 20
3 1 19
3 0 18
4 9 0
4 3 4
4 6 1
4 8 5
4 12 10
2 0
2 1
2 2
2 4
2 5
2 10
2 11
2 13
5 2
5 3
5 6
5 7
5 8
5 9
5 12
5 13
END_STATE
END_LABELED_STATE
BEGIN_LABELED_STATE
1.0
BEGIN_STATE
4 7 11
3 2 21
3 5 14
3 10 15
3 11 17
3 4 16
6 20
3 1 19
3 0 18
4 9 0
4 3 4
4 6 1
4 8 5
4 12 10
2 0
2 1
2 2
2 4
2 5
2 10
2 11
4 13 13
5 2
5 3
5 6
5 7
5 8
5 9
5 12
END_STATE
END_LABELED_STATE
BEGIN_LABELED_STATE
0.0
BEGIN_STATE
4 7 11
3 2 21
3 5 14
3 10 15
3 11 17
3 4 16
3 6 20
3 1 19
3 0 18
4 9 0
4 3 4
4 8 5
4 12 10
2 0
2 1
2 2
2 4
2 5
2 6
2 10
2 11
4 13 13
5 1
5 2
5 3
5 6
5 7
5 8
5 9
5 12
END_STATE
END_LABELED_STATE
BEGIN_LABELED_STATE
3.0
BEGIN_STATE
4 7 11
3 2 21
3 5 14
3 10 15
3 11 17
3 4 16
3 13 20
3 1 19
3 0 18
4 9 0
4 3 4
4 6 1
4 8 5
4 12 13
2 0
2 1
2 2
2 4
2 5
2 10
2 11
2 13
5 2
5 3
5 6
5 7
5 8
5 9
5 10
5 12
END_STATE
END_LABELED_STATE
BEGIN_LABELED_STATE
2.0
BEGIN_STATE
4 7 11
3 2 21
3 5 14
3 10 15
3 11 17
3 4 16
3 13 20
3 1 19
3 0 18
4 9 0
4 3 4
4 6 1
4 8 5
2 0
2 1
2 2
2 4
2 5
2 10
2 11
2 13
4 12 2
5 3
5 6
5 7
5 8
5 9
5 10
5 12
5 13
END_STATE
END_LABELED_STATE
BEGIN_LABELED_STATE
1.0
BEGIN_STATE
4 7 11
3 2 21
3 5 14
3 10 15
3 11 17
3 4 16
6 20
3 1 19
3 0 18
4 9 0
4 3 4
4 6 1
4 8 5
2 0
2 1
2 2
2 4
2 5
2 10
2 11
4 12 2
4 13 13
5 3
5 6
5 7
5 8
5 9
5 10
5 12
END_STATE
END_LABELED_STATE
BEGIN_LABELED_STATE
0.0
BEGIN_STATE
4 7 11
3 2 21
3 5 14
3 10 15
3 11 17
3 4 16
3 6 20
3 1 19
3 0 18
4 9 0
4 3 4
4 8 5
2 0
2 1
2 2
2 4
2 5
2 6
2 10
2 11
4 12 2
4 13 13
5 1
5 3
5 6
5 7
5 8
5 9
5 10
5 12
END_STATE
END_LABELED_STATE
BEGIN_LABELED_STATE
3.0
BEGIN_STATE
4 7 11
3 2 21
3 5 14
3 10 15
3 11 17
3 4 16
3 13 20
3 1 19
3 0 18
4 9 0
4 3 4
4 6 1
2 0
2 1
2 2
2 4
2 5
2 10
2 11
2 13
4 8 13
4 12 2
5 3
5 5
5 6
5 7
5 8
5 9
5 10
5 12
END_STATE
END_LABELED_STATE
BEGIN_LABELED_STATE
3.0
BEGIN_STATE
4 7 11
3 2 21
3 5 14
3 10 15
3 11 17
3 4 16
3 13 20
3 1 19
3 0 18
4 9 0
4 3 4
2 0
2 1
2 2
2 4
2 5
2 10
2 11
2 13
4 6 10
4 8 13
4 12 2
5 1
5 3
5 5
5 6
5 7
5 8
5 9
5 12
END_STATE
END_LABELED_STATE
BEGIN_LABELED_STATE
2.0
BEGIN_STATE
4 7 11
3 2 21
3 5 14
3 10 15
3 11 17
3 4 16
3 13 20
3 1 19
3 0 18
4 9 0
4 3 4
4 8 5
2 0
2 1
2 2
2 4
2 5
2 10
2 11
2 13
4 6 10
4 12 2
5 1
5 3
5 6
5 7
5 8
5 9
5 12
5 13
END_STATE
END_LABELED_STATE
BEGIN_LABELED_STATE
1.0
BEGIN_STATE
4 7 11
3 2 21
3 5 14
3 10 15
3 11 17
3 4 16
6 20
3 1 19
3 0 18
4 9 0
4 3 4
4 8 5
2 0
2 1
2 2
2 4
2 5
2 10
2 11
4 6 10
4 12 2
4 13 13
5 1
5 3
5 6
5 7
5 8
5 9
5 12
END_STATE
END_LABELED_STATE
BEGIN_LABELED_STATE
3.0
BEGIN_STATE
4 7 11
3 2 21
3 5 14
3 10 15
3 11 17
3 4 16
3 13 20
3 1 19
3 0 18
4 9 0
4 3 4
4 12 5
2 0
2 1
2 2
2 4
2 5
2 10
2 11
2 13
4 6 10
4 8 13
5 1
5 2
5 3
5 6
5 7
5 8
5 9
5 12
END_STATE
END_LABELED_STATE
BEGIN_LABELED_STATE
2.0
BEGIN_STATE
4 7 11
3 2 21
3 5 14
3 10 15
3 11 17
3 4 16
3 13 20
3 1 19
3 0 18
4 9 0
4 3 4
4 8 2
4 12 5
2 0
2 1
2 2
2 4
2 5
2 10
2 11
2 13
4 6 10
5 1
5 3
5 6
5 7
5 8
5 9
5 12
5 13
END_STATE
END_LABELED_STATE
BEGIN_LABELED_STATE
1.0
BEGIN_STATE
4 7 11
3 2 21
3 5 14
3 10 15
3 11 17
3 4 16
6 20
3 1 19
3 0 18
4 9 0
4 3 4
4 8 2
4 12 5
2 0
2 1
2 2
2 4
2 5
2 10
2 11
4 6 10
4 13 13
5 1
5 3
5 6
5 7
5 8
5 9
5 12
END_STATE
END_LABELED_STATE
BEGIN_LABELED_STATE
3.0
BEGIN_STATE
4 7 11
3 2 21
3 5 14
3 10 15
3 11 17
3 4 16
3 13 20
3 1 19
3 0 18
4 9 0
4 3 4
4 8 2
4 12 5
2 0
2 1
2 2
2 4
2 5
2 10
2 11
2 13
4 6 13
5 1
5 3
5 6
5 7
5 8
5 9
5 10
5 12
END_STATE
END_LABELED_STATE
BEGIN_LABELED_STATE
3.0
BEGIN_STATE
4 7 11
3 2 21
3 5 14
3 10 15
3 11 17
3 4 16
3 13 20
3 1 19
3 0 18
4 9 0
4 3 4
4 8 2
2 0
2 1
2 2
2 4
2 5
2 10
2 11
2 13
4 6 13
4 12 1
5 3
5 5
5 6
5 7
5 8
5 9
5 10
5 12
END_STATE
END_LABELED_STATE
BEGIN_LABELED_STATE
2.0
BEGIN_STATE
4 7 11
3 2 21
3 5 14
3 10 15
3 11 17
3 4 16
3 13 20
3 1 19
3 0 18
4 9 0
4 3 4
4 8 2
2 0
2 1
2 2
2 4
2 5
2 10
2 11
2 13
4 6 10
4 12 1
5 3
5 5
5 6
5 7
5 8
5 9
5 12
5 13
END_STATE
END_LABELED_STATE
BEGIN_LABELED_STATE
1.0
BEGIN_STATE
4 7 11
3 2 21
3 5 14
3 10 15
3 11 17
3 4 16
6 20
3 1 19
3 0 18
4 9 0
4 3 4
4 8 2
2 0
2 1
2 2
2 4
2 5
2 10
2 11
4 6 10
4 12 1
4 13 13
5 3
5 5
5 6
5 7
5 8
5 9
5 12
END_STATE
END_LABELED_STATE
BEGIN_LABELED_STATE
0.0
BEGIN_STATE
4 7 11
3 2 21
3 5 14
3 10 15
3 11 17
3 4 16
3 6 20
3 1 19
3 0 18
4 9 0
4 3 4
4 8 2
2 0
2 1
2 2
2 4
2 5
2 6
2 10
2 11
4 12 1
4 13 13
5 3
5 5
5 6
5 7
5 8
5 9
5 10
5 12
END_STATE
END_LABELED_STATE
BEGIN_LABELED_STATE
3.0
BEGIN_STATE
4 7 11
3 2 21
3 5 14
3 10 15
3 11 17
3 4 16
3 13 20
3 1 19
3 0 18
4 9 0
4 3 4
4 8 2
4 12 13
2 0
2 1
2 2
2 4
2 5
2 10
2 11
2 13
4 6 10
5 1
5 3
5 5
5 6
5 7
5 8
5 9
5 12
END_STATE
END_LABELED_STATE
BEGIN_LABELED_STATE
3.0
BEGIN_STATE
4 7 11
3 2 21
3 5 14
3 10 15
3 11 17
3 4 16
3 13 20
3 1 19
3 0 18
4 9 0
4 3 4
4 8 2
4 12 13
4 6 5
2 0
2 1
2 2
2 4
2 5
2 10
2 11
2 13
5 1
5 3
5 6
5 7
5 8
5 9
5 10
5 12
END_STATE
END_LABELED_STATE
BEGIN_LABELED_STATE
2.0
BEGIN_STATE
4 7 11
3 2 21
3 5 14
3 10 15
3 11 17
3 4 16
3 13 20
3 1 19
3 0 18
4 9 0
4 3 4
4 8 2
4 6 5
2 0
2 1
2 2
2 4
2 5
2 10
2 11
2 13
4 12 1
5 3
5 6
5 7
5 8
5 9
5 10
5 12
5 13
END_STATE
END_LABELED_STATE
BEGIN_LABELED_STATE
1.0
BEGIN_STATE
4 7 11
3 2 21
3 5 14
3 10 15
3 11 17
3 4 16
6 20
3 1 19
3 0 18
4 9 0
4 3 4
4 8 2
4 6 5
2 0
2 1
2 2
2 4
2 5
2 10
2 11
4 12 1
4 13 13
5 3
5 6
5 7
5 8
5 9
5 10
5 12
END_STATE
END_LABELED_STATE
BEGIN_LABELED_STATE
3.0
BEGIN_STATE
4 7 11
3 2 21
3 5 14
3 10 15
3 11 17
3 4 16
3 13 20
3 1 19
3 0 18
4 9 0
4 3 4
4 6 5
2 0
2 1
2 2
2 4
2 5
2 10
2 11
2 13
4 8 13
4 12 1
5 2
5 3
5 6
5 7
5 8
5 9
5 10
5 12
END_STATE
END_LABELED_STATE
BEGIN_LABELED_STATE
3.0
BEGIN_STATE
4 7 11
3 2 21
3 5 14
3 10 15
3 11 17
3 4 16
3 13 20
3 1 19
3 0 18
4 9 0
4 3 4
2 0
2 1
2 2
2 4
2 5
2 10
2 11
2 13
4 6 10
4 8 13
4 12 1
5 2
5 3
5 5
5 6
5 7
5 8
5 9
5 12
END_STATE
END_LABELED_STATE
BEGIN_LABELED_STATE
2.0
BEGIN_STATE
4 7 11
3 2 21
3 5 14
3 10 15
3 11 17
3 4 16
3 13 20
3 1 19
3 0 18
4 9 0
4 3 4
4 8 5
2 0
2 1
2 2
2 4
2 5
2 10
2 11
2 13
4 6 10
4 12 1
5 2
5 3
5 6
5 7
5 8
5 9
5 12
5 13
END_STATE
END_LABELED_STATE
BEGIN_LABELED_STATE
1.0
BEGIN_STATE
4 7 11
3 2 21
3 5 14
3 10 15
3 11 17
3 4 16
6 20
3 1 19
3 0 18
4 9 0
4 3 4
4 8 5
2 0
2 1
2 2
2 4
2 5
2 10
2 11
4 6 10
4 12 1
4 13 13
5 2
5 3
5 6
5 7
5 8
5 9
5 12
END_STATE
END_LABELED_STATE
BEGIN_LABELED_STATE
0.0
BEGIN_STATE
4 7 11
3 2 21
3 5 14
3 10 15
3 11 17
3 4 16
3 6 20
3 1 19
3 0 18
4 9 0
4 3 4
4 8 5
2 0
2 1
2 2
2 4
2 5
2 6
2 10
2 11
4 12 1
4 13 13
5 2
5 3
5 6
5 7
5 8
5 9
5 10
5 12
END_STATE
END_LABELED_STATE
BEGIN_LABELED_STATE
3.0
BEGIN_STATE
4 7 11
3 2 21
3 5 14
3 10 15
3 11 17
3 4 16
3 13 20
3 1 19
3 0 18
4 9 0
4 3 4
4 8 5
4 12 13
2 0
2 1
2 2
2 4
2 5
2 10
2 11
2 13
4 6 10
5 1
5 2
5 3
5 6
5 7
5 8
5 9
5 12
END_STATE
END_LABELED_STATE
BEGIN_LABELED_STATE
3.0
BEGIN_STATE
4 7 11
3 2 21
3 5 14
3 10 15
3 11 17
3 4 16
3 13 20
3 1 19
3 0 18
4 9 0
4 3 4
4 6 2
4 8 5
4 12 13
2 0
2 1
2 2
2 4
2 5
2 10
2 11
2 13
5 1
5 3
5 6
5 7
5 8
5 9
5 10
5 12
END_STATE
END_LABELED_STATE
BEGIN_LABELED_STATE
2.0
BEGIN_STATE
4 7 11
3 2 21
3 5 14
3 10 15
3 11 17
3 4 16
3 13 20
3 1 19
3 0 18
4 9 0
4 3 4
4 6 2
4 8 5
4 12 10
2 0
2 1
2 2
2 4
2 5
2 10
2 11
2 13
5 1
5 3
5 6
5 7
5 8
5 9
5 12
5 13
END_STATE
END_LABELED_STATE
BEGIN_LABELED_STATE
1.0
BEGIN_STATE
4 7 11
3 2 21
3 5 14
3 10 15
3 11 17
3 4 16
6 20
3 1 19
3 0 18
4 9 0
4 3 4
4 6 2
4 8 5
4 12 10
2 0
2 1
2 2
2 4
2 5
2 10
2 11
4 13 13
5 1
5 3
5 6
5 7
5 8
5 9
5 12
END_STATE
END_LABELED_STATE
BEGIN_LABELED_STATE
2.0
BEGIN_STATE
4 7 11
3 2 21
3 5 14
3 10 15
3 11 17
3 4 16
3 13 20
3 1 19
3 0 18
4 9 0
4 3 4
4 6 2
4 8 5
2 0
2 1
2 2
2 4
2 5
2 10
2 11
2 13
4 12 1
5 3
5 6
5 7
5 8
5 9
5 10
5 12
5 13
END_STATE
END_LABELED_STATE
BEGIN_LABELED_STATE
1.0
BEGIN_STATE
4 7 11
3 2 21
3 5 14
3 10 15
3 11 17
3 4 16
6 20
3 1 19
3 0 18
4 9 0
4 3 4
4 6 2
4 8 5
2 0
2 1
2 2
2 4
2 5
2 10
2 11
4 12 1
4 13 13
5 3
5 6
5 7
5 8
5 9
5 10
5 12
END_STATE
END_LABELED_STATE
BEGIN_LABELED_STATE
3.0
BEGIN_STATE
4 7 11
3 2 21
3 5 14
3 10 15
3 11 17
3 4 16
3 13 20
3 1 19
3 0 18
4 9 0
4 3 4
4 6 2
2 0
2 1
2 2
2 4
2 5
2 10
2 11
2 13
4 8 13
4 12 1
5 3
5 5
5 6
5 7
5 8
5 9
5 10
5 12
END_STATE
END_LABELED_STATE
BEGIN_LABELED_STATE
3.0
BEGIN_STATE
4 7 11
3 2 21
3 5 14
3 10 15
3 11 17
3 4 16
3 13 20
3 1 19
3 0 18
4 9 0
4 3 4
4 6 2
4 12 10
2 0
2 1
2 2
2 4
2 5
2 10
2 11
2 13
4 8 13
5 1
5 3
5 5
5 6
5 7
5 8
5 9
5 12
END_STATE
END_LABELED_STATE
BEGIN_LABELED_STATE
2.0
BEGIN_STATE
4 7 11
3 2 21
3 5 14
3 10 15
3 11 17
3 4 16
3 13 20
3 1 19
3 0 18
4 9 0
4 3 4
4 8 1
4 6 2
4 12 10
2 0
2 1
2 2
2 4
2 5
2 10
2 11
2 13
5 3
5 5
5 6
5 7
5 8
5 9
5 12
5 13
END_STATE
END_LABELED_STATE
BEGIN_LABELED_STATE
1.0
BEGIN_STATE
4 7 11
3 2 21
3 5 14
3 10 15
3 11 17
3 4 16
6 20
3 1 19
3 0 18
4 9 0
4 3 4
4 8 1
4 6 2
4 12 10
2 0
2 1
2 2
2 4
2 5
2 10
2 11
4 13 13
5 3
5 5
5 6
5 7
5 8
5 9
5 12
END_STATE
END_LABELED_STATE
BEGIN_LABELED_STATE
0.0
BEGIN_STATE
4 7 11
3 2 21
3 5 14
3 10 15
3 11 17
3 4 16
3 6 20
3 1 19
3 0 18
4 9 0
4 3 4
4 8 1
4 12 10
2 0
2 1
2 2
2 4
2 5
2 6
2 10
2 11
4 13 13
5 2
5 3
5 5
5 6
5 7
5 8
5 9
5 12
END_STATE
END_LABELED_STATE
BEGIN_LABELED_STATE
3.0
BEGIN_STATE
4 7 11
3 2 21
3 5 14
3 10 15
3 11 17
3 4 16
3 13 20
3 1 19
3 0 18
4 9 0
4 3 4
4 8 1
4 6 2
4 12 13
2 0
2 1
2 2
2 4
2 5
2 10
2 11
2 13
5 3
5 5
5 6
5 7
5 8
5 9
5 10
5 12
END_STATE
END_LABELED_STATE
BEGIN_LABELED_STATE
2.0
BEGIN_STATE
4 7 11
3 2 21
3 5 14
3 10 15
3 11 17
3 4 16
3 13 20
3 1 19
3 0 18
4 9 0
4 3 4
4 8 1
4 6 2
4 12 5
2 0
2 1
2 2
2 4
2 5
2 10
2 11
2 13
5 3
5 6
5 7
5 8
5 9
5 10
5 12
5 13
END_STATE
END_LABELED_STATE
BEGIN_LABELED_STATE
1.0
BEGIN_STATE
4 7 11
3 2 21
3 5 14
3 10 15
3 11 17
3 4 16
6 20
3 1 19
3 0 18
4 9 0
4 3 4
4 8 1
4 6 2
4 12 5
2 0
2 1
2 2
2 4
2 5
2 10
2 11
4 13 13
5 3
5 6
5 7
5 8
5 9
5 10
5 12
END_STATE
END_LABELED_STATE
BEGIN_LABELED_STATE
0.0
BEGIN_STATE
4 7 11
3 2 21
3 5 14
3 10 15
3 11 17
3 4 16
3 6 20
3 1 19
3 0 18
4 9 0
4 3 4
4 8 1
4 12 5
2 0
2 1
2 2
2 4
2 5
2 6
2 10
2 11
4 13 13
5 2
5 3
5 6
5 7
5 8
5 9
5 10
5 12
END_STATE
END_LABELED_STATE
BEGIN_LABELED_STATE
3.0
BEGIN_STATE
4 7 11
3 2 21
3 5 14
3 10 15
3 11 17
3 4 16
3 13 20
3 1 19
3 0 18
4 9 0
4 3 4
4 8 1
4 12 5
2 0
2 1
2 2
2 4
2 5
2 10
2 11
2 13
4 6 13
5 2
5 3
5 6
5 7
5 8
5 9
5 10
5 12
END_STATE
END_LABELED_STATE
BEGIN_LABELED_STATE
2.0
BEGIN_STATE
4 7 11
3 2 21
3 5 14
3 10 15
3 11 17
3 4 16
3 13 20
3 1 19
3 0 18
4 9 0
4 3 4
4 8 1
4 12 5
2 0
2 1
2 2
2 4
2 5
2 10
2 11
2 13
4 6 10
5 2
5 3
5 6
5 7
5 8
5 9
5 12
5 13
END_STATE
END_LABELED_STATE
BEGIN_LABELED_STATE
1.0
BEGIN_STATE
4 7 11
3 2 21
3 5 14
3 10 15
3 11 17
3 4 16
6 20
3 1 19
3 0 18
4 9 0
4 3 4
4 8 1
4 12 5
2 0
2 1
2 2
2 4
2 5
2 10
2 11
4 6 10
4 13 13
5 2
5 3
5 6
5 7
5 8
5 9
5 12
END_STATE
END_LABELED_STATE
BEGIN_LABELED_STATE
3.0
BEGIN_STATE
4 7 11
3 2 21
3 5 14
3 10 15
3 11 17
3 4 16
3 13 20
3 1 19
3 0 18
4 9 0
4 3 4
4 8 1
4 12 13
2 0
2 1
2 2
2 4
2 5
2 10
2 11
2 13
4 6 10
5 2
5 3
5 5
5 6
5 7
5 8
5 9
5 12
END_STATE
END_LABELED_STATE
BEGIN_LABELED_STATE
3.0
BEGIN_STATE
4 7 11
3 2 21
3 5 14
3 10 15
3 11 17
3 4 16
3 13 20
3 1 19
3 0 18
4 9 0
4 3 4
4 8 1
4 12 13
4 6 5
2 0
2 1
2 2
2 4
2 5
2 10
2 11
2 13
5 2
5 3
5 6
5 7
5 8
5 9
5 10
5 12
END_STATE
END_LABELED_STATE
BEGIN_LABELED_STATE
2.0
BEGIN_STATE
4 7 11
3 2 21
3 5 14
3 10 15
3 11 17
3 4 16
3 13 20
3 1 19
3 0 18
4 9 0
4 3 4
4 8 1
4 12 10
4 6 5
2 0
2 1
2 2
2 4
2 5
2 10
2 11
2 13
5 2
5 3
5 6
5 7
5 8
5 9
5 12
5 13
END_STATE
END_LABELED_STATE
BEGIN_LABELED_STATE
1.0
BEGIN_STATE
4 7 11
3 2 21
3 5 14
3 10 15
3 11 17
3 4 16
6 20
3 1 19
3 0 18
4 9 0
4 3 4
4 8 1
4 12 10
4 6 5
2 0
2 1
2 2
2 4
2 5
2 10
2 11
4 13 13
5 2
5 3
5 6
5 7
5 8
5 9
5 12
END_STATE
END_LABELED_STATE
BEGIN_LABELED_STATE
3.0
BEGIN_STATE
4 7 11
3 2 21
3 5 14
3 10 15
3 11 17
3 4 16
3 13 20
3 1 19
3 0 18
4 9 0
4 3 4
4 8 1
4 12 10
2 0
2 1
2 2
2 4
2 5
2 10
2 11
2 13
4 6 13
5 2
5 3
5 5
5 6
5 7
5 8
5 9
5 12
END_STATE
END_LABELED_STATE
BEGIN_LABELED_STATE
3.0
BEGIN_STATE
4 7 11
3 2 21
3 5 14
3 10 15
3 11 17
3 4 16
3 13 20
3 1 19
3 0 18
4 9 0
4 3 4
4 8 1
2 0
2 1
2 2
2 4
2 5
2 10
2 11
2 13
4 6 13
4 12 2
5 3
5 5
5 6
5 7
5 8
5 9
5 10
5 12
END_STATE
END_LABELED_STATE
BEGIN_LABELED_STATE
2.0
BEGIN_STATE
4 7 11
3 2 21
3 5 14
3 10 15
3 11 17
3 4 16
3 13 20
3 1 19
3 0 18
4 9 0
4 3 4
4 8 1
2 0
2 1
2 2
2 4
2 5
2 10
2 11
2 13
4 6 10
4 12 2
5 3
5 5
5 6
5 7
5 8
5 9
5 12
5 13
END_STATE
END_LABELED_STATE
BEGIN_LABELED_STATE
1.0
BEGIN_STATE
4 7 11
3 2 21
3 5 14
3 10 15
3 11 17
3 4 16
6 20
3 1 19
3 0 18
4 9 0
4 3 4
4 8 1
2 0
2 1
2 2
2 4
2 5
2 10
2 11
4 6 10
4 12 2
4 13 13
5 3
5 5
5 6
5 7
5 8
5 9
5 12
END_STATE
END_LABELED_STATE
BEGIN_LABELED_STATE
0.0
BEGIN_STATE
4 7 11
3 2 21
3 5 14
3 10 15
3 11 17
3 4 16
3 6 20
3 1 19
3 0 18
4 9 0
4 3 4
4 8 1
2 0
2 1
2 2
2 4
2 5
2 6
2 10
2 11
4 12 2
4 13 13
5 3
5 5
5 6
5 7
5 8
5 9
5 10
5 12
END_STATE
END_LABELED_STATE
BEGIN_LABELED_STATE
2.0
BEGIN_STATE
4 7 11
3 2 21
3 5 14
3 10 15
3 11 17
3 4 16
3 13 20
3 1 19
3 0 18
4 9 0
4 3 4
4 8 1
4 6 5
2 0
2 1
2 2
2 4
2 5
2 10
2 11
2 13
4 12 2
5 3
5 6
5 7
5 8
5 9
5 10
5 12
5 13
END_STATE
END_LABELED_STATE
BEGIN_LABELED_STATE
1.0
BEGIN_STATE
4 7 11
3 2 21
3 5 14
3 10 15
3 11 17
3 4 16
6 20
3 1 19
3 0 18
4 9 0
4 3 4
4 8 1
4 6 5
2 0
2 1
2 2
2 4
2 5
2 10
2 11
4 12 2
4 13 13
5 3
5 6
5 7
5 8
5 9
5 10
5 12
END_STATE
END_LABELED_STATE
BEGIN_LABELED_STATE
3.0
BEGIN_STATE
4 7 11
3 2 21
3 5 14
3 10 15
3 11 17
3 4 16
3 13 20
3 1 19
3 0 18
4 9 0
4 8 1
4 6 5
2 0
2 1
2 2
2 4
2 5
2 10
2 11
2 13
4 3 13
4 12 2
5 3
5 4
5 6
5 7
5 8
5 9
5 10
5 12
END_STATE
END_LABELED_STATE
BEGIN_LABELED_STATE
2.0
BEGIN_STATE
4 7 11
3 2 21
3 5 14
3 10 15
3 11 17
3 4 16
3 13 20
3 1 19
3 0 18
4 9 0
4 3 10
4 8 1
4 6 5
2 0
2 1
2 2
2 4
2 5
2 10
2 11
2 13
4 12 2
5 3
5 4
5 6
5 7
5 8
5 9
5 12
5 13
END_STATE
END_LABELED_STATE
BEGIN_LABELED_STATE
1.0
BEGIN_STATE
4 7 11
3 2 21
3 5 14
3 10 15
3 11 17
3 4 16
6 20
3 1 19
3 0 18
4 9 0
4 3 10
4 8 1
4 6 5
2 0
2 1
2 2
2 4
2 5
2 10
2 11
4 12 2
4 13 13
5 3
5 4
5 6
5 7
5 8
5 9
5 12
END_STATE
END_LABELED_STATE
BEGIN_LABELED_STATE
0.0
BEGIN_STATE
4 7 11
3 2 21
3 5 14
3 10 15
3 11 17
3 4 16
3 6 20
3 1 19
3 0 18
4 9 0
4 3 10
4 8 1
2 0
2 1
2 2
2 4
2 5
2 6
2 10
2 11
4 12 2
4 13 13
5 3
5 4
5 5
5 6
5 7
5 8
5 9
5 12
END_STATE
END_LABELED_STATE
BEGIN_LABELED_STATE
3.0
BEGIN_STATE
4 7 11
3 2 21
3 5 14
3 10 15
3 11 17
3 4 16
3 13 20
3 1 19
3 0 18
4 9 0
4 8 1
4 12 10
4 6 5
2 0
2 1
2 2
2 4
2 5
2 10
2 11
2 13
4 3 13
5 2
5 3
5 4
5 6
5 7
5 8
5 9
5 12
END_STATE
END_LABELED_STATE
BEGIN_LABELED_STATE
2.0
BEGIN_STATE
4 7 11
3 2 21
3 5 14
3 10 15
3 11 17
3 4 16
3 13 20
3 1 19
3 0 18
4 9 0
4 8 1
4 3 2
4 12 10
4 6 5
2 0
2 1
2 2
2 4
2 5
2 10
2 11
2 13
5 3
5 4
5 6
5 7
5 8
5 9
5 12
5 13
END_STATE
END_LABELED_STATE
BEGIN_LABELED_STATE
1.0
BEGIN_STATE
4 7 11
3 2 21
3 5 14
3 10 15
3 11 17
3 4 16
6 20
3 1 19
3 0 18
4 9 0
4 8 1
4 3 2
4 12 10
4 6 5
2 0
2 1
2 2
2 4
2 5
2 10
2 11
4 13 13
5 3
5 4
5 6
5 7
5 8
5 9
5 12
END_STATE
END_LABELED_STATE
BEGIN_LABELED_STATE
0.0
BEGIN_STATE
4 7 11
3 2 21
3 5 14
3 10 15
3 11 17
3 4 16
3 6 20
3 1 19
3 0 18
4 9 0
4 8 1
4 3 2
4 12 10
2 0
2 1
2 2
2 4
2 5
2 6
2 10
2 11
4 13 13
5 3
5 4
5 5
5 6
5 7
5 8
5 9
5 12
END_STATE
END_LABELED_STATE
BEGIN_LABELED_STATE
3.0
BEGIN_STATE
4 7 11
3 2 21
3 5 14
3 10 15
3 11 17
3 4 16
3 13 20
3 1 19
3 0 18
4 9 0
4 8 1
4 3 2
4 12 10
2 0
2 1
2 2
2 4
2 5
2 10
2 11
2 13
4 6 13
5 3
5 4
5 5
5 6
5 7
5 8
5 9
5 12
END_STATE
END_LABELED_STATE
BEGIN_LABELED_STATE
2.0
BEGIN_STATE
4 7 11
3 2 21
3 5 14
3 10 15
3 11 17
3 4 16
3 13 20
3 1 19
3 0 18
4 9 0
4 8 1
4 6 4
4 3 2
4 12 10
2 0
2 1
2 2
2 4
2 5
2 10
2 11
2 13
5 3
5 5
5 6
5 7
5 8
5 9
5 12
5 13
END_STATE
END_LABELED_STATE
BEGIN_LABELED_STATE
1.0
BEGIN_STATE
4 7 11
3 2 21
3 5 14
3 10 15
3 11 17
3 4 16
6 20
3 1 19
3 0 18
4 9 0
4 8 1
4 6 4
4 3 2
4 12 10
2 0
2 1
2 2
2 4
2 5
2 10
2 11
4 13 13
5 3
5 5
5 6
5 7
5 8
5 9
5 12
END_STATE
END_LABELED_STATE
BEGIN_LABELED_STATE
3.0
BEGIN_STATE
4 7 11
3 2 21
3 5 14
3 10 15
3 11 17
3 4 16
3 13 20
3 1 19
3 0 18
4 9 0
4 8 1
4 6 4
4 3 2
4 12 13
2 0
2 1
2 2
2 4
2 5
2 10
2 11
2 13
5 3
5 5
5 6
5 7
5 8
5 9
5 10
5 12
END_STATE
END_LABELED_STATE
BEGIN_LABELED_STATE
2.0
BEGIN_STATE
4 7 11
3 2 21
3 5 14
3 10 15
3 11 17
3 4 16
3 13 20
3 1 19
3 0 18
4 9 0
4 8 1
4 6 4
4 3 2
4 12 5
2 0
2 1
2 2
2 4
2 5
2 10
2 11
2 13
5 3
5 6
5 7
5 8
5 9
5 10
5 12
5 13
END_STATE
END_LABELED_STATE
BEGIN_LABELED_STATE
1.0
BEGIN_STATE
4 7 11
3 2 21
3 5 14
3 10 15
3 11 17
3 4 16
6 20
3 1 19
3 0 18
4 9 0
4 8 1
4 6 4
4 3 2
4 12 5
2 0
2 1
2 2
2 4
2 5
2 10
2 11
4 13 13
5 3
5 6
5 7
5 8
5 9
5 10
5 12
END_STATE
END_LABELED_STATE
BEGIN_LABELED_STATE
0.0
BEGIN_STATE
4 7 11
3 2 21
3 5 14
3 10 15
3 11 17
3 4 16
3 6 20
3 1 19
3 0 18
4 9 0
4 8 1
4 3 2
4 12 5
2 0
2 1
2 2
2 4
2 5
2 6
2 10
2 11
4 13 13
5 3
5 4
5 6
5 7
5 8
5 9
5 10
5 12
END_STATE
END_LABELED_STATE
BEGIN_LABELED_STATE
3.0
BEGIN_STATE
4 7 11
3 2 21
3 5 14
3 10 15
3 11 17
3 4 16
3 13 20
3 1 19
3 0 18
4 9 0
4 8 1
4 6 4
4 12 5
2 0
2 1
2 2
2 4
2 5
2 10
2 11
2 13
4 3 13
5 2
5 3
5 6
5 7
5 8
5 9
5 10
5 12
END_STATE
END_LABELED_STATE
BEGIN_LABELED_STATE
2.0
BEGIN_STATE
4 7 11
3 2 21
3 5 14
3 10 15
3 11 17
3 4 16
3 13 20
3 1 19
3 0 18
4 9 0
4 3 10
4 8 1
4 6 4
4 12 5
2 0
2 1
2 2
2 4
2 5
2 10
2 11
2 13
5 2
5 3
5 6
5 7
5 8
5 9
5 12
5 13
END_STATE
END_LABELED_STATE
BEGIN_LABELED_STATE
1.0
BEGIN_STATE
4 7 11
3 2 21
3 5 14
3 10 15
3 11 17
3 4 16
6 20
3 1 19
3 0 18
4 9 0
4 3 10
4 8 1
4 6 4
4 12 5
2 0
2 1
2 2
2 4
2 5
2 10
2 11
4 13 13
5 2
5 3
5 6
5 7
5 8
5 9
5 12
END_STATE
END_LABELED_STATE
BEGIN_LABELED_STATE
0.0
BEGIN_STATE
4 7 11
3 2 21
3 5 14
3 10 15
3 11 17
3 4 16
3 6 20
3 1 19
3 0 18
4 9 0
4 3 10
4 8 1
4 12 5
2 0
2 1
2 2
2 4
2 5
2 6
2 10
2 11
4 13 13
5 2
5 3
5 4
5 6
5 7
5 8
5 9
5 12
END_STATE
END_LABELED_STATE
BEGIN_LABELED_STATE
3.0
BEGIN_STATE
4 7 11
3 2 21
3 5 14
3 10 15
3 11 17
3 4 16
3 13 20
3 1 19
3 0 18
4 9 0
4 3 10
4 8 1
4 6 4
4 12 13
2 0
2 1
2 2
2 4
2 5
2 10
2 11
2 13
5 2
5 3
5 5
5 6
5 7
5 8
5 9
5 12
END_STATE
END_LABELED_STATE
BEGIN_LABELED_STATE
2.0
BEGIN_STATE
4 7 11
3 2 21
3 5 14
3 10 15
3 11 17
3 4 16
3 13 20
3 1 19
3 0 18
4 9 0
4 3 10
4 8 1
4 6 4
2 0
2 1
2 2
2 4
2 5
2 10
2 11
2 13
4 12 2
5 3
5 5
5 6
5 7
5 8
5 9
5 12
5 13
END_STATE
END_LABELED_STATE
BEGIN_LABELED_STATE
1.0
BEGIN_STATE
4 7 11
3 2 21
3 5 14
3 10 15
3 11 17
3 4 16
6 20
3 1 19
3 0 18
4 9 0
4 3 10
4 8 1
4 6 4
2 0
2 1
2 2
2 4
2 5
2 10
2 11
4 12 2
4 13 13
5 3
5 5
5 6
5 7
5 8
5 9
5 12
END_STATE
END_LABELED_STATE
BEGIN_LABELED_STATE
3.0
BEGIN_STATE
4 7 11
3 2 21
3 5 14
3 10 15
3 11 17
3 4 16
3 13 20
3 1 19
3 0 18
4 9 0
4 3 10
4 8 1
2 0
2 1
2 2
2 4
2 5
2 10
2 11
2 13
4 6 13
4 12 2
5 3
5 4
5 5
5 6
5 7
5 8
5 9
5 12
END_STATE
END_LABELED_STATE
BEGIN_LABELED_STATE
3.0
BEGIN_STATE
4 7 11
3 2 21
3 5 14
3 10 15
3 11 17
3 4 16
3 13 20
3 1 19
3 0 18
4 9 0
4 3 10
4 8 1
4 12 5
2 0
2 1
2 2
2 4
2 5
2 10
2 11
2 13
4 6 13
5 2
5 3
5 4
5 6
5 7
5 8
5 9
5 12
END_STATE
END_LABELED_STATE
BEGIN_LABELED_STATE
2.0
BEGIN_STATE
4 7 11
3 2 21
3 5 14
3 10 15
3 11 17
3 4 16
3 13 20
3 1 19
3 0 18
4 9 0
4 3 10
4 8 1
4 6 2
4 12 5
2 0
2 1
2 2
2 4
2 5
2 10
2 11
2 13
5 3
5 4
5 6
5 7
5 8
5 9
5 12
5 13
END_STATE
END_LABELED_STATE
BEGIN_LABELED_STATE
1.0
BEGIN_STATE
4 7 11
3 2 21
3 5 14
3 10 15
3 11 17
3 4 16
6 20
3 1 19
3 0 18
4 9 0
4 3 10
4 8 1
4 6 2
4 12 5
2 0
2 1
2 2
2 4
2 5
2 10
2 11
4 13 13
5 3
5 4
5 6
5 7
5 8
5 9
5 12
END_STATE
END_LABELED_STATE
BEGIN_LABELED_STATE
3.0
BEGIN_STATE
4 7 11
3 2 21
3 5 14
3 10 15
3 11 17
3 4 16
3 13 20
3 1 19
3 0 18
4 9 0
4 3 10
4 8 1
4 6 2
4 12 13
2 0
2 1
2 2
2 4
2 5
2 10
2 11
2 13
5 3
5 4
5 5
5 6
5 7
5 8
5 9
5 12
END_STATE
END_LABELED_STATE
BEGIN_LABELED_STATE
2.0
BEGIN_STATE
4 7 11
3 2 21
3 5 14
3 10 15
3 11 17
3 4 16
3 13 20
3 1 19
3 0 18
4 9 0
4 3 10
4 8 1
4 6 2
2 0
2 1
2 2
2 4
2 5
2 10
2 11
2 13
4 12 4
5 3
5 5
5 6
5 7
5 8
5 9
5 12
5 13
END_STATE
END_LABELED_STATE
BEGIN_LABELED_STATE
1.0
BEGIN_STATE
4 7 11
3 2 21
3 5 14
3 10 15
3 11 17
3 4 16
6 20
3 1 19
3 0 18
4 9 0
4 3 10
4 8 1
4 6 2
2 0
2 1
2 2
2 4
2 5
2 10
2 11
4 12 4
4 13 13
5 3
5 5
5 6
5 7
5 8
5 9
5 12
END_STATE
END_LABELED_STATE
BEGIN_LABELED_STATE
0.0
BEGIN_STATE
4 7 11
3 2 21
3 5 14
3 10 15
3 11 17
3 4 16
3 6 20
3 1 19
3 0 18
4 9 0
4 3 10
4 8 1
2 0
2 1
2 2
2 4
2 5
2 6
2 10
2 11
4 12 4
4 13 13
5 2
5 3
5 5
5 6
5 7
5 8
5 9
5 12
END_STATE
END_LABELED_STATE
BEGIN_LABELED_STATE
3.0
BEGIN_STATE
4 7 11
3 2 21
3 5 14
3 10 15
3 11 17
3 4 16
3 13 20
3 1 19
3 0 18
4 9 0
4 3 10
4 8 1
2 0
2 1
2 2
2 4
2 5
2 10
2 11
2 13
4 6 13
4 12 4
5 2
5 3
5 5
5 6
5 7
5 8
5 9
5 12
END_STATE
END_LABELED_STATE
BEGIN_LABELED_STATE
2.0
BEGIN_STATE
4 7 11
3 2 21
3 5 14
3 10 15
3 11 17
3 4 16
3 13 20
3 1 19
3 0 18
4 9 0
4 3 10
4 8 1
4 6 5
2 0
2 1
2 2
2 4
2 5
2 10
2 11
2 13
4 12 4
5 2
5 3
5 6
5 7
5 8
5 9
5 12
5 13
END_STATE
END_LABELED_STATE
BEGIN_LABELED_STATE
1.0
BEGIN_STATE
4 7 11
3 2 21
3 5 14
3 10 15
3 11 17
3 4 16
6 20
3 1 19
3 0 18
4 9 0
4 3 10
4 8 1
4 6 5
2 0
2 1
2 2
2 4
2 5
2 10
2 11
4 12 4
4 13 13
5 2
5 3
5 6
5 7
5 8
5 9
5 12
END_STATE
END_LABELED_STATE
BEGIN_LABELED_STATE
3.0
BEGIN_STATE
4 7 11
3 2 21
3 5 14
3 10 15
3 11 17
3 4 16
3 13 20
3 1 19
3 0 18
4 9 0
4 3 10
4 8 1
4 12 13
4 6 5
2 0
2 1
2 2
2 4
2 5
2 10
2 11
2 13
5 2
5 3
5 4
5 6
5 7
5 8
5 9
5 12
END_STATE
END_LABELED_STATE
BEGIN_LABELED_STATE
3.0
BEGIN_STATE
4 7 11
3 2 21
3 5 14
3 10 15
3 11 17
3 4 16
3 13 20
3 1 19
3 0 18
4 9 0
4 3 10
4 6 5
2 0
2 1
2 2
2 4
2 5
2 10
2 11
2 13
4 8 13
4 12 2
5 1
5 3
5 4
5 6
5 7
5 8
5 9
5 12
END_STATE
END_LABELED_STATE
BEGIN_LABELED_STATE
2.0
BEGIN_STATE
4 7 11
3 2 21
3 5 14
3 10 15
3 11 17
3 4 16
3 13 20
3 1 19
3 0 18
4 9 0
4 3 10
4 8 4
4 6 5
2 0
2 1
2 2
2 4
2 5
2 10
2 11
2 13
4 12 2
5 1
5 3
5 6
5 7
5 8
5 9
5 12
5 13
END_STATE
END_LABELED_STATE
BEGIN_LABELED_STATE
1.0
BEGIN_STATE
4 7 11
3 2 21
3 5 14
3 10 15
3 11 17
3 4 16
6 20
3 1 19
3 0 18
4 9 0
4 3 10
4 8 4
4 6 5
2 0
2 1
2 2
2 4
2 5
2 10
2 11
4 12 2
4 13 13
5 1
5 3
5 6
5 7
5 8
5 9
5 12
END_STATE
END_LABELED_STATE
BEGIN_LABELED_STATE
0.0
BEGIN_STATE
4 7 11
3 2 21
3 5 14
3 10 15
3 11 17
3 4 16
3 6 20
3 1 19
3 0 18
4 9 0
4 3 10
4 8 4
2 0
2 1
2 2
2 4
2 5
2 6
2 10
2 11
4 12 2
4 13 13
5 1
5 3
5 5
5 6
5 7
5 8
5 9
5 12
END_STATE
END_LABELED_STATE
BEGIN_LABELED_STATE
3.0
BEGIN_STATE
4 7 11
3 2 21
3 5 14
3 10 15
3 11 17
3 4 16
3 13 20
3 1 19
3 0 18
4 9 0
4 3 10
4 6 5
2 0
2 1
2 2
2 4
2 5
2 10
2 11
2 13
4 8 13
4 12 4
5 1
5 2
5 3
5 6
5 7
5 8
5 9
5 12
END_STATE
END_LABELED_STATE
BEGIN_LABELED_STATE
2.0
BEGIN_STATE
4 7 11
3 2 21
3 5 14
3 10 15
3 11 17
3 4 16
3 13 20
3 1 19
3 0 18
4 9 0
4 3 10
4 8 2
4 6 5
2 0
2 1
2 2
2 4
2 5
2 10
2 11
2 13
4 12 4
5 1
5 3
5 6
5 7
5 8
5 9
5 12
5 13
END_STATE
END_LABELED_STATE
BEGIN_LABELED_STATE
1.0
BEGIN_STATE
4 7 11
3 2 21
3 5 14
3 10 15
3 11 17
3 4 16
6 20
3 1 19
3 0 18
4 9 0
4 3 10
4 8 2
4 6 5
2 0
2 1
2 2
2 4
2 5
2 10
2 11
4 12 4
4 13 13
5 1
5 3
5 6
5 7
5 8
5 9
5 12
END_STATE
END_LABELED_STATE
BEGIN_LABELED_STATE
0.0
BEGIN_STATE
4 7 11
3 2 21
3 5 14
3 10 15
3 11 17
3 4 16
3 6 20
3 1 19
3 0 18
4 9 0
4 3 10
4 8 2
2 0
2 1
2 2
2 4
2 5
2 6
2 10
2 11
4 12 4
4 13 13
5 1
5 3
5 5
5 6
5 7
5 8
5 9
5 12
END_STATE
END_LABELED_STATE
BEGIN_LABELED_STATE
3.0
BEGIN_STATE
4 7 11
3 2 21
3 5 14
3 10 15
3 11 17
3 4 16
3 13 20
3 1 19
3 0 18
4 9 0
4 3 10
4 8 2
4 12 13
4 6 5
2 0
2 1
2 2
2 4
2 5
2 10
2 11
2 13
5 1
5 3
5 4
5 6
5 7
5 8
5 9
5 12
END_STATE
END_LABELED_STATE
BEGIN_LABELED_STATE
3.0
BEGIN_STATE
4 7 11
3 2 21
3 5 14
3 10 15
3 11 17
3 4 16
3 13 20
3 1 19
3 0 18
4 9 0
4 3 10
4 6 4
4 8 2
4 12 13
2 0
2 1
2 2
2 4
2 5
2 10
2 11
2 13
5 1
5 3
5 5
5 6
5 7
5 8
5 9
5 12
END_STATE
END_LABELED_STATE
BEGIN_LABELED_STATE
2.0
BEGIN_STATE
4 7 11
3 2 21
3 5 14
3 10 15
3 11 17
3 4 16
3 13 20
3 1 19
3 0 18
4 9 0
4 3 10
4 6 4
4 8 2
4 12 5
2 0
2 1
2 2
2 4
2 5
2 10
2 11
2 13
5 1
5 3
5 6
5 7
5 8
5 9
5 12
5 13
END_STATE
END_LABELED_STATE
BEGIN_LABELED_STATE
1.0
BEGIN_STATE
4 7 11
3 2 21
3 5 14
3 10 15
3 11 17
3 4 16
6 20
3 1 19
3 0 18
4 9 0
4 3 10
4 6 4
4 8 2
4 12 5
2 0
2 1
2 2
2 4
2 5
2 10
2 11
4 13 13
5 1
5 3
5 6
5 7
5 8
5 9
5 12
END_STATE
END_LABELED_STATE
BEGIN_LABELED_STATE
0.0
BEGIN_STATE
4 7 11
3 2 21
3 5 14
3 10 15
3 11 17
3 4 16
3 6 20
3 1 19
3 0 18
4 9 0
4 3 10
4 8 2
4 12 5
2 0
2 1
2 2
2 4
2 5
2 6
2 10
2 11
4 13 13
5 1
5 3
5 4
5 6
5 7
5 8
5 9
5 12
END_STATE
END_LABELED_STATE
BEGIN_LABELED_STATE
2.0
BEGIN_STATE
4 7 11
3 2 21
3 5 14
3 10 15
3 11 17
3 4 16
3 13 20
3 1 19
3 0 18
4 9 0
4 3 10
4 6 4
4 8 2
2 0
2 1
2 2
2 4
2 5
2 10
2 11
2 13
4 12 1
5 3
5 5
5 6
5 7
5 8
5 9
5 12
5 13
END_STATE
END_LABELED_STATE
BEGIN_LABELED_STATE
1.0
BEGIN_STATE
4 7 11
3 2 21
3 5 14
3 10 15
3 11 17
3 4 16
6 20
3 1 19
3 0 18
4 9 0
4 3 10
4 6 4
4 8 2
2 0
2 1
2 2
2 4
2 5
2 10
2 11
4 12 1
4 13 13
5 3
5 5
5 6
5 7
5 8
5 9
5 12
END_STATE
END_LABELED_STATE
BEGIN_LABELED_STATE
0.0
BEGIN_STATE
4 7 11
3 2 21
3 5 14
3 10 15
3 11 17
3 4 16
3 6 20
3 1 19
3 0 18
4 9 0
4 3 10
4 8 2
2 0
2 1
2 2
2 4
2 5
2 6
2 10
2 11
4 12 1
4 13 13
5 3
5 4
5 5
5 6
5 7
5 8
5 9
5 12
END_STATE
END_LABELED_STATE
BEGIN_LABELED_STATE
3.0
BEGIN_STATE
4 7 11
3 2 21
3 5 14
3 10 15
3 11 17
3 4 16
3 13 20
3 1 19
3 0 18
4 9 0
4 3 10
4 6 4
2 0
2 1
2 2
2 4
2 5
2 10
2 11
2 13
4 8 13
4 12 1
5 2
5 3
5 5
5 6
5 7
5 8
5 9
5 12
END_STATE
END_LABELED_STATE
BEGIN_LABELED_STATE
2.0
BEGIN_STATE
4 7 11
3 2 21
3 5 14
3 10 15
3 11 17
3 4 16
3 13 20
3 1 19
3 0 18
4 9 0
4 3 10
4 6 4
4 8 5
2 0
2 1
2 2
2 4
2 5
2 10
2 11
2 13
4 12 1
5 2
5 3
5 6
5 7
5 8
5 9
5 12
5 13
END_STATE
END_LABELED_STATE
BEGIN_LABELED_STATE
1.0
BEGIN_STATE
4 7 11
3 2 21
3 5 14
3 10 15
3 11 17
3 4 16
6 20
3 1 19
3 0 18
4 9 0
4 3 10
4 6 4
4 8 5
2 0
2 1
2 2
2 4
2 5
2 10
2 11
4 12 1
4 13 13
5 2
5 3
5 6
5 7
5 8
5 9
5 12
END_STATE
END_LABELED_STATE
BEGIN_LABELED_STATE
0.0
BEGIN_STATE
4 7 11
3 2 21
3 5 14
3 10 15
3 11 17
3 4 16
3 6 20
3 1 19
3 0 18
4 9 0
4 3 10
4 8 5
2 0
2 1
2 2
2 4
2 5
2 6
2 10
2 11
4 12 1
4 13 13
5 2
5 3
5 4
5 6
5 7
5 8
5 9
5 12
END_STATE
END_LABELED_STATE
BEGIN_LABELED_STATE
3.0
BEGIN_STATE
4 7 11
3 2 21
3 5 14
3 10 15
3 11 17
3 4 16
3 13 20
3 1 19
3 0 18
4 9 0
4 3 10
4 6 4
4 12 5
2 0
2 1
2 2
2 4
2 5
2 10
2 11
2 13
4 8 13
5 1
5 2
5 3
5 6
5 7
5 8
5 9
5 12
END_STATE
END_LABELED_STATE
BEGIN_LABELED_STATE
3.0
BEGIN_STATE
4 7 11
3 2 21
3 5 14
3 10 15
3 11 17
3 4 16
3 13 20
3 1 19
3 0 18
4 9 0
4 3 10
4 6 4
2 0
2 1
2 2
2 4
2 5
2 10
2 11
2 13
4 8 13
4 12 2
5 1
5 3
5 5
5 6
5 7
5 8
5 9
5 12
END_STATE
END_LABELED_STATE
BEGIN_LABELED_STATE
2.0
BEGIN_STATE
4 7 11
3 2 21
3 5 14
3 10 15
3 11 17
3 4 16
3 13 20
3 1 19
3 0 18
4 9 0
4 3 10
4 6 4
4 8 5
2 0
2 1
2 2
2 4
2 5
2 10
2 11
2 13
4 12 2
5 1
5 3
5 6
5 7
5 8
5 9
5 12
5 13
END_STATE
END_LABELED_STATE
BEGIN_LABELED_STATE
1.0
BEGIN_STATE
4 7 11
3 2 21
3 5 14
3 10 15
3 11 17
3 4 16
6 20
3 1 19
3 0 18
4 9 0
4 3 10
4 6 4
4 8 5
2 0
2 1
2 2
2 4
2 5
2 10
2 11
4 12 2
4 13 13
5 1
5 3
5 6
5 7
5 8
5 9
5 12
END_STATE
END_LABELED_STATE
BEGIN_LABELED_STATE
0.0
BEGIN_STATE
4 7 11
3 2 21
3 5 14
3 10 15
3 11 17
3 4 16
3 6 20
3 1 19
3 0 18
4 9 0
4 3 10
4 8 5
2 0
2 1
2 2
2 4
2 5
2 6
2 10
2 11
4 12 2
4 13 13
5 1
5 3
5 4
5 6
5 7
5 8
5 9
5 12
END_STATE
END_LABELED_STATE
BEGIN_LABELED_STATE
3.0
BEGIN_STATE
4 7 11
3 2 21
3 5 14
3 10 15
3 11 17
3 4 16
3 13 20
3 1 19
3 0 18
4 9 0
4 3 10
4 6 4
4 8 5
4 12 13
2 0
2 1
2 2
2 4
2 5
2 10
2 11
2 13
5 1
5 2
5 3
5 6
5 7
5 8
5 9
5 12
END_STATE
END_LABELED_STATE
BEGIN_LABELED_STATE
3.0
BEGIN_STATE
4 7 11
3 2 21
3 5 14
3 10 15
3 11 17
3 4 16
3 13 20
3 1 19
3 0 18
4 9 0
4 3 10
4 8 5
2 0
2 1
2 2
2 4
2 5
2 10
2 11
2 13
4 6 13
4 12 1
5 2
5 3
5 4
5 6
5 7
5 8
5 9
5 12
END_STATE
END_LABELED_STATE
BEGIN_LABELED_STATE
3.0
BEGIN_STATE
4 7 11
3 2 21
3 5 14
3 10 15
3 11 17
3 4 16
3 13 20
3 1 19
3 0 18
4 9 0
4 3 10
4 8 5
2 0
2 1
2 2
2 4
2 5
2 10
2 11
2 13
4 6 13
4 12 4
5 1
5 2
5 3
5 6
5 7
5 8
5 9
5 12
END_STATE
END_LABELED_STATE
BEGIN_LABELED_STATE
2.0
BEGIN_STATE
4 7 11
3 2 21
3 5 14
3 10 15
3 11 17
3 4 16
3 13 20
3 1 19
3 0 18
4 9 0
4 3 10
4 6 2
4 8 5
2 0
2 1
2 2
2 4
2 5
2 10
2 11
2 13
4 12 4
5 1
5 3
5 6
5 7
5 8
5 9
5 12
5 13
END_STATE
END_LABELED_STATE
BEGIN_LABELED_STATE
1.0
BEGIN_STATE
4 7 11
3 2 21
3 5 14
3 10 15
3 11 17
3 4 16
6 20
3 1 19
3 0 18
4 9 0
4 3 10
4 6 2
4 8 5
2 0
2 1
2 2
2 4
2 5
2 10
2 11
4 12 4
4 13 13
5 1
5 3
5 6
5 7
5 8
5 9
5 12
END_STATE
END_LABELED_STATE
BEGIN_LABELED_STATE
0.0
BEGIN_STATE
4 7 11
3 2 21
3 5 14
3 10 15
3 11 17
3 4 16
3 6 20
3 1 19
3 0 18
4 9 0
4 3 10
4 8 5
2 0
2 1
2 2
2 4
2 5
2 6
2 10
2 11
4 12 4
4 13 13
5 1
5 2
5 3
5 6
5 7
5 8
5 9
5 12
END_STATE
END_LABELED_STATE
BEGIN_LABELED_STATE
3.0
BEGIN_STATE
4 7 11
3 2 21
3 5 14
3 10 15
3 11 17
3 4 16
3 13 20
3 1 19
3 0 18
4 9 0
4 3 10
4 8 5
2 0
2 1
2 2
2 4
2 5
2 10
2 11
2 13
4 6 13
4 12 2
5 1
5 3
5 4
5 6
5 7
5 8
5 9
5 12
END_STATE
END_LABELED_STATE
BEGIN_LABELED_STATE
2.0
BEGIN_STATE
4 7 11
3 2 21
3 5 14
3 10 15
3 11 17
3 4 16
3 13 20
3 1 19
3 0 18
4 9 0
4 3 10
4 6 1
4 8 5
2 0
2 1
2 2
2 4
2 5
2 10
2 11
2 13
4 12 2
5 3
5 4
5 6
5 7
5 8
5 9
5 12
5 13
END_STATE
END_LABELED_STATE
BEGIN_LABELED_STATE
1.0
BEGIN_STATE
4 7 11
3 2 21
3 5 14
3 10 15
3 11 17
3 4 16
6 20
3 1 19
3 0 18
4 9 0
4 3 10
4 6 1
4 8 5
2 0
2 1
2 2
2 4
2 5
2 10
2 11
4 12 2
4 13 13
5 3
5 4
5 6
5 7
5 8
5 9
5 12
END_STATE
END_LABELED_STATE
BEGIN_LABELED_STATE
3.0
BEGIN_STATE
4 7 11
3 2 21
3 5 14
3 10 15
3 11 17
3 4 16
3 13 20
3 1 19
3 0 18
4 9 0
4 3 10
4 6 1
4 8 5
4 12 13
2 0
2 1
2 2
2 4
2 5
2 10
2 11
2 13
5 2
5 3
5 4
5 6
5 7
5 8
5 9
5 12
END_STATE
END_LABELED_STATE
BEGIN_LABELED_STATE
2.0
BEGIN_STATE
4 7 11
3 2 21
3 5 14
3 10 15
3 11 17
3 4 16
3 13 20
3 1 19
3 0 18
4 9 0
4 3 10
4 6 1
4 8 5
2 0
2 1
2 2
2 4
2 5
2 10
2 11
2 13
4 12 4
5 2
5 3
5 6
5 7
5 8
5 9
5 12
5 13
END_STATE
END_LABELED_STATE
BEGIN_LABELED_STATE
1.0
BEGIN_STATE
4 7 11
3 2 21
3 5 14
3 10 15
3 11 17
3 4 16
6 20
3 1 19
3 0 18
4 9 0
4 3 10
4 6 1
4 8 5
2 0
2 1
2 2
2 4
2 5
2 10
2 11
4 12 4
4 13 13
5 2
5 3
5 6
5 7
5 8
5 9
5 12
END_STATE
END_LABELED_STATE
BEGIN_LABELED_STATE
3.0
BEGIN_STATE
4 7 11
3 2 21
3 5 14
3 10 15
3 11 17
3 4 16
3 13 20
3 1 19
3 0 18
4 9 0
4 3 10
4 6 1
2 0
2 1
2 2
2 4
2 5
2 10
2 11
2 13
4 8 13
4 12 4
5 2
5 3
5 5
5 6
5 7
5 8
5 9
5 12
END_STATE
END_LABELED_STATE
BEGIN_LABELED_STATE
3.0
BEGIN_STATE
4 7 11
3 2 21
3 5 14
3 10 15
3 11 17
3 4 16
3 13 20
3 1 19
3 0 18
4 9 0
4 3 10
4 6 1
4 12 5
2 0
2 1
2 2
2 4
2 5
2 10
2 11
2 13
4 8 13
5 2
5 3
5 4
5 6
5 7
5 8
5 9
5 12
END_STATE
END_LABELED_STATE
BEGIN_LABELED_STATE
2.0
BEGIN_STATE
4 7 11
3 2 21
3 5 14
3 10 15
3 11 17
3 4 16
3 13 20
3 1 19
3 0 18
4 9 0
4 3 10
4 8 4
4 6 1
4 12 5
2 0
2 1
2 2
2 4
2 5
2 10
2 11
2 13
5 2
5 3
5 6
5 7
5 8
5 9
5 12
5 13
END_STATE
END_LABELED_STATE
BEGIN_LABELED_STATE
1.0
BEGIN_STATE
4 7 11
3 2 21
3 5 14
3 10 15
3 11 17
3 4 16
6 20
3 1 19
3 0 18
4 9 0
4 3 10
4 8 4
4 6 1
4 12 5
2 0
2 1
2 2
2 4
2 5
2 10
2 11
4 13 13
5 2
5 3
5 6
5 7
5 8
5 9
5 12
END_STATE
END_LABELED_STATE
BEGIN_LABELED_STATE
0.0
BEGIN_STATE
4 7 11
3 2 21
3 5 14
3 10 15
3 11 17
3 4 16
3 6 20
3 1 19
3 0 18
4 9 0
4 3 10
4 8 4
4 12 5
2 0
2 1
2 2
2 4
2 5
2 6
2 10
2 11
4 13 13
5 1
5 2
5 3
5 6
5 7
5 8
5 9
5 12
END_STATE
END_LABELED_STATE
BEGIN_LABELED_STATE
3.0
BEGIN_STATE
4 7 11
3 2 21
3 5 14
3 10 15
3 11 17
3 4 16
3 13 20
3 1 19
3 0 18
4 9 0
4 3 10
4 8 4
4 6 1
4 12 13
2 0
2 1
2 2
2 4
2 5
2 10
2 11
2 13
5 2
5 3
5 5
5 6
5 7
5 8
5 9
5 12
END_STATE
END_LABELED_STATE
BEGIN_LABELED_STATE
2.0
BEGIN_STATE
4 7 11
3 2 21
3 5 14
3 10 15
3 11 17
3 4 16
3 13 20
3 1 19
3 0 18
4 9 0
4 3 10
4 8 4
4 6 1
2 0
2 1
2 2
2 4
2 5
2 10
2 11
2 13
4 12 2
5 3
5 5
5 6
5 7
5 8
5 9
5 12
5 13
END_STATE
END_LABELED_STATE
BEGIN_LABELED_STATE
1.0
BEGIN_STATE
4 7 11
3 2 21
3 5 14
3 10 15
3 11 17
3 4 16
6 20
3 1 19
3 0 18
4 9 0
4 3 10
4 8 4
4 6 1
2 0
2 1
2 2
2 4
2 5
2 10
2 11
4 12 2
4 13 13
5 3
5 5
5 6
5 7
5 8
5 9
5 12
END_STATE
END_LABELED_STATE
BEGIN_LABELED_STATE
3.0
BEGIN_STATE
4 7 11
3 2 21
3 5 14
3 10 15
3 11 17
3 4 16
3 13 20
3 1 19
3 0 18
4 9 0
4 3 10
4 8 4
2 0
2 1
2 2
2 4
2 5
2 10
2 11
2 13
4 6 13
4 12 2
5 1
5 3
5 5
5 6
5 7
5 8
5 9
5 12
END_STATE
END_LABELED_STATE
BEGIN_LABELED_STATE
3.0
BEGIN_STATE
4 7 11
3 2 21
3 5 14
3 10 15
3 11 17
3 4 16
3 13 20
3 1 19
3 0 18
4 9 0
4 3 10
4 8 4
4 12 5
2 0
2 1
2 2
2 4
2 5
2 10
2 11
2 13
4 6 13
5 1
5 2
5 3
5 6
5 7
5 8
5 9
5 12
END_STATE
END_LABELED_STATE
BEGIN_LABELED_STATE
2.0
BEGIN_STATE
4 7 11
3 2 21
3 5 14
3 10 15
3 11 17
3 4 16
3 13 20
3 1 19
3 0 18
4 9 0
4 3 10
4 8 4
4 6 2
4 12 5
2 0
2 1
2 2
2 4
2 5
2 10
2 11
2 13
5 1
5 3
5 6
5 7
5 8
5 9
5 12
5 13
END_STATE
END_LABELED_STATE
BEGIN_LABELED_STATE
1.0
BEGIN_STATE
4 7 11
3 2 21
3 5 14
3 10 15
3 11 17
3 4 16
6 20
3 1 19
3 0 18
4 9 0
4 3 10
4 8 4
4 6 2
4 12 5
2 0
2 1
2 2
2 4
2 5
2 10
2 11
4 13 13
5 1
5 3
5 6
5 7
5 8
5 9
5 12
END_STATE
END_LABELED_STATE
BEGIN_LABELED_STATE
3.0
BEGIN_STATE
4 7 11
3 2 21
3 5 14
3 10 15
3 11 17
3 4 16
3 13 20
3 1 19
3 0 18
4 9 0
4 3 10
4 8 4
4 6 2
4 12 13
2 0
2 1
2 2
2 4
2 5
2 10
2 11
2 13
5 1
5 3
5 5
5 6
5 7
5 8
5 9
5 12
END_STATE
END_LABELED_STATE
BEGIN_LABELED_STATE
2.0
BEGIN_STATE
4 7 11
3 2 21
3 5 14
3 10 15
3 11 17
3 4 16
3 13 20
3 1 19
3 0 18
4 9 0
4 3 10
4 8 4
4 6 2
2 0
2 1
2 2
2 4
2 5
2 10
2 11
2 13
4 12 1
5 3
5 5
5 6
5 7
5 8
5 9
5 12
5 13
END_STATE
END_LABELED_STATE
BEGIN_LABELED_STATE
1.0
BEGIN_STATE
4 7 11
3 2 21
3 5 14
3 10 15
3 11 17
3 4 16
6 20
3 1 19
3 0 18
4 9 0
4 3 10
4 8 4
4 6 2
2 0
2 1
2 2
2 4
2 5
2 10
2 11
4 12 1
4 13 13
5 3
5 5
5 6
5 7
5 8
5 9
5 12
END_STATE
END_LABELED_STATE
BEGIN_LABELED_STATE
0.0
BEGIN_STATE
4 7 11
3 2 21
3 5 14
3 10 15
3 11 17
3 4 16
3 6 20
3 1 19
3 0 18
4 9 0
4 3 10
4 8 4
2 0
2 1
2 2
2 4
2 5
2 6
2 10
2 11
4 12 1
4 13 13
5 2
5 3
5 5
5 6
5 7
5 8
5 9
5 12
END_STATE
END_LABELED_STATE
BEGIN_LABELED_STATE
3.0
BEGIN_STATE
4 7 11
3 2 21
3 5 14
3 10 15
3 11 17
3 4 16
3 13 20
3 1 19
3 0 18
4 9 0
4 3 10
4 8 4
2 0
2 1
2 2
2 4
2 5
2 10
2 11
2 13
4 6 13
4 12 1
5 2
5 3
5 5
5 6
5 7
5 8
5 9
5 12
END_STATE
END_LABELED_STATE
BEGIN_LABELED_STATE
2.0
BEGIN_STATE
4 7 11
3 2 21
3 5 14
3 10 15
3 11 17
3 4 16
3 13 20
3 1 19
3 0 18
4 9 0
4 3 10
4 8 4
4 6 5
2 0
2 1
2 2
2 4
2 5
2 10
2 11
2 13
4 12 1
5 2
5 3
5 6
5 7
5 8
5 9
5 12
5 13
END_STATE
END_LABELED_STATE
BEGIN_LABELED_STATE
1.0
BEGIN_STATE
4 7 11
3 2 21
3 5 14
3 10 15
3 11 17
3 4 16
6 20
3 1 19
3 0 18
4 9 0
4 3 10
4 8 4
4 6 5
2 0
2 1
2 2
2 4
2 5
2 10
2 11
4 12 1
4 13 13
5 2
5 3
5 6
5 7
5 8
5 9
5 12
END_STATE
END_LABELED_STATE
BEGIN_LABELED_STATE
3.0
BEGIN_STATE
4 7 11
3 2 21
3 5 14
3 10 15
3 11 17
3 4 16
3 13 20
3 1 19
3 0 18
4 9 0
4 3 10
4 8 4
4 12 13
4 6 5
2 0
2 1
2 2
2 4
2 5
2 10
2 11
2 13
5 1
5 2
5 3
5 6
5 7
5 8
5 9
5 12
END_STATE
END_LABELED_STATE
BEGIN_LABELED_STATE
3.0
BEGIN_STATE
4 7 11
3 2 21
3 5 14
3 10 15
3 11 17
3 4 16
3 13 20
3 1 19
3 0 18
4 9 0
4 8 4
4 6 5
2 0
2 1
2 2
2 4
2 5
2 10
2 11
2 13
4 3 13
4 12 2
5 1
5 3
5 6
5 7
5 8
5 9
5 10
5 12
END_STATE
END_LABELED_STATE
BEGIN_LABELED_STATE
3.0
BEGIN_STATE
4 7 11
3 2 21
3 5 14
3 10 15
3 11 17
3 4 16
3 13 20
3 1 19
3 0 18
4 9 0
4 8 4
4 12 10
4 6 5
2 0
2 1
2 2
2 4
2 5
2 10
2 11
2 13
4 3 13
5 1
5 2
5 3
5 6
5 7
5 8
5 9
5 12
END_STATE
END_LABELED_STATE
BEGIN_LABELED_STATE
2.0
BEGIN_STATE
4 7 11
3 2 21
3 5 14
3 10 15
3 11 17
3 4 16
3 13 20
3 1 19
3 0 18
4 9 0
4 8 4
4 3 2
4 12 10
4 6 5
2 0
2 1
2 2
2 4
2 5
2 10
2 11
2 13
5 1
5 3
5 6
5 7
5 8
5 9
5 12
5 13
END_STATE
END_LABELED_STATE
BEGIN_LABELED_STATE
1.0
BEGIN_STATE
4 7 11
3 2 21
3 5 14
3 10 15
3 11 17
3 4 16
6 20
3 1 19
3 0 18
4 9 0
4 8 4
4 3 2
4 12 10
4 6 5
2 0
2 1
2 2
2 4
2 5
2 10
2 11
4 13 13
5 1
5 3
5 6
5 7
5 8
5 9
5 12
END_STATE
END_LABELED_STATE
BEGIN_LABELED_STATE
0.0
BEGIN_STATE
4 7 11
3 2 21
3 5 14
3 10 15
3 11 17
3 4 16
3 6 20
3 1 19
3 0 18
4 9 0
4 8 4
4 3 2
4 12 10
2 0
2 1
2 2
2 4
2 5
2 6
2 10
2 11
4 13 13
5 1
5 3
5 5
5 6
5 7
5 8
5 9
5 12
END_STATE
END_LABELED_STATE
BEGIN_LABELED_STATE
3.0
BEGIN_STATE
4 7 11
3 2 21
3 5 14
3 10 15
3 11 17
3 4 16
3 13 20
3 1 19
3 0 18
4 9 0
4 8 4
4 3 2
4 12 10
2 0
2 1
2 2
2 4
2 5
2 10
2 11
2 13
4 6 13
5 1
5 3
5 5
5 6
5 7
5 8
5 9
5 12
END_STATE
END_LABELED_STATE
BEGIN_LABELED_STATE
2.0
BEGIN_STATE
4 7 11
3 2 21
3 5 14
3 10 15
3 11 17
3 4 16
3 13 20
3 1 19
3 0 18
4 9 0
4 8 4
4 6 1
4 3 2
4 12 10
2 0
2 1
2 2
2 4
2 5
2 10
2 11
2 13
5 3
5 5
5 6
5 7
5 8
5 9
5 12
5 13
END_STATE
END_LABELED_STATE
BEGIN_LABELED_STATE
1.0
BEGIN_STATE
4 7 11
3 2 21
3 5 14
3 10 15
3 11 17
3 4 16
6 20
3 1 19
3 0 18
4 9 0
4 8 4
4 6 1
4 3 2
4 12 10
2 0
2 1
2 2
2 4
2 5
2 10
2 11
4 13 13
5 3
5 5
5 6
5 7
5 8
5 9
5 12
END_STATE
END_LABELED_STATE
BEGIN_LABELED_STATE
3.0
BEGIN_STATE
4 7 11
3 2 21
3 5 14
3 10 15
3 11 17
3 4 16
3 13 20
3 1 19
3 0 18
4 9 0
4 8 4
4 6 1
4 3 2
4 12 13
2 0
2 1
2 2
2 4
2 5
2 10
2 11
2 13
5 3
5 5
5 6
5 7
5 8
5 9
5 10
5 12
END_STATE
END_LABELED_STATE
BEGIN_LABELED_STATE
2.0
BEGIN_STATE
4 7 11
3 2 21
3 5 14
3 10 15
3 11 17
3 4 16
3 13 20
3 1 19
3 0 18
4 9 0
4 8 4
4 6 1
4 3 2
4 12 5
2 0
2 1
2 2
2 4
2 5
2 10
2 11
2 13
5 3
5 6
5 7
5 8
5 9
5 10
5 12
5 13
END_STATE
END_LABELED_STATE
BEGIN_LABELED_STATE
1.0
BEGIN_STATE
4 7 11
3 2 21
3 5 14
3 10 15
3 11 17
3 4 16
6 20
3 1 19
3 0 18
4 9 0
4 8 4
4 6 1
4 3 2
4 12 5
2 0
2 1
2 2
2 4
2 5
2 10
2 11
4 13 13
5 3
5 6
5 7
5 8
5 9
5 10
5 12
END_STATE
END_LABELED_STATE
BEGIN_LABELED_STATE
0.0
BEGIN_STATE
4 7 11
3 2 21
3 5 14
3 10 15
3 11 17
3 4 16
3 6 20
3 1 19
3 0 18
4 9 0
4 8 4
4 3 2
4 12 5
2 0
2 1
2 2
2 4
2 5
2 6
2 10
2 11
4 13 13
5 1
5 3
5 6
5 7
5 8
5 9
5 10
5 12
END_STATE
END_LABELED_STATE
BEGIN_LABELED_STATE
3.0
BEGIN_STATE
4 7 11
3 2 21
3 5 14
3 10 15
3 11 17
3 4 16
3 13 20
3 1 19
3 0 18
4 9 0
4 8 4
4 6 1
4 12 5
2 0
2 1
2 2
2 4
2 5
2 10
2 11
2 13
4 3 13
5 2
5 3
5 6
5 7
5 8
5 9
5 10
5 12
END_STATE
END_LABELED_STATE
BEGIN_LABELED_STATE
3.0
BEGIN_STATE
4 7 11
3 2 21
3 5 14
3 10 15
3 11 17
3 4 16
3 13 20
3 1 19
3 0 18
4 9 0
4 8 4
4 6 1
4 12 10
2 0
2 1
2 2
2 4
2 5
2 10
2 11
2 13
4 3 13
5 2
5 3
5 5
5 6
5 7
5 8
5 9
5 12
END_STATE
END_LABELED_STATE
BEGIN_LABELED_STATE
2.0
BEGIN_STATE
4 7 11
3 2 21
3 5 14
3 10 15
3 11 17
3 4 16
3 13 20
3 1 19
3 0 18
4 9 0
4 8 4
4 6 1
4 3 5
4 12 10
2 0
2 1
2 2
2 4
2 5
2 10
2 11
2 13
5 2
5 3
5 6
5 7
5 8
5 9
5 12
5 13
END_STATE
END_LABELED_STATE
BEGIN_LABELED_STATE
1.0
BEGIN_STATE
4 7 11
3 2 21
3 5 14
3 10 15
3 11 17
3 4 16
6 20
3 1 19
3 0 18
4 9 0
4 8 4
4 6 1
4 3 5
4 12 10
2 0
2 1
2 2
2 4
2 5
2 10
2 11
4 13 13
5 2
5 3
5 6
5 7
5 8
5 9
5 12
END_STATE
END_LABELED_STATE
BEGIN_LABELED_STATE
0.0
BEGIN_STATE
4 7 11
3 2 21
3 5 14
3 10 15
3 11 17
3 4 16
3 6 20
3 1 19
3 0 18
4 9 0
4 8 4
4 3 5
4 12 10
2 0
2 1
2 2
2 4
2 5
2 6
2 10
2 11
4 13 13
5 1
5 2
5 3
5 6
5 7
5 8
5 9
5 12
END_STATE
END_LABELED_STATE
BEGIN_LABELED_STATE
3.0
BEGIN_STATE
4 7 11
3 2 21
3 5 14
3 10 15
3 11 17
3 4 16
3 13 20
3 1 19
3 0 18
4 9 0
4 8 4
4 6 1
4 3 5
4 12 13
2 0
2 1
2 2
2 4
2 5
2 10
2 11
2 13
5 2
5 3
5 6
5 7
5 8
5 9
5 10
5 12
END_STATE
END_LABELED_STATE
BEGIN_LABELED_STATE
2.0
BEGIN_STATE
4 7 11
3 2 21
3 5 14
3 10 15
3 11 17
3 4 16
3 13 20
3 1 19
3 0 18
4 9 0
4 8 4
4 6 1
4 3 5
2 0
2 1
2 2
2 4
2 5
2 10
2 11
2 13
4 12 2
5 3
5 6
5 7
5 8
5 9
5 10
5 12
5 13
END_STATE
END_LABELED_STATE
BEGIN_LABELED_STATE
1.0
BEGIN_STATE
4 7 11
3 2 21
3 5 14
3 10 15
3 11 17
3 4 16
6 20
3 1 19
3 0 18
4 9 0
4 8 4
4 6 1
4 3 5
2 0
2 1
2 2
2 4
2 5
2 10
2 11
4 12 2
4 13 13
5 3
5 6
5 7
5 8
5 9
5 10
5 12
END_STATE
END_LABELED_STATE
BEGIN_LABELED_STATE
0.0
BEGIN_STATE
4 7 11
3 2 21
3 5 14
3 10 15
3 11 17
3 4 16
3 6 20
3 1 19
3 0 18
4 9 0
4 8 4
4 3 5
2 0
2 1
2 2
2 4
2 5
2 6
2 10
2 11
4 12 2
4 13 13
5 1
5 3
5 6
5 7
5 8
5 9
5 10
5 12
END_STATE
END_LABELED_STATE
BEGIN_LABELED_STATE
3.0
BEGIN_STATE
4 7 11
3 2 21
3 5 14
3 10 15
3 11 17
3 4 16
3 13 20
3 1 19
3 0 18
4 9 0
4 8 4
4 6 1
2 0
2 1
2 2
2 4
2 5
2 10
2 11
2 13
4 3 13
4 12 2
5 3
5 5
5 6
5 7
5 8
5 9
5 10
5 12
END_STATE
END_LABELED_STATE
BEGIN_LABELED_STATE
3.0
BEGIN_STATE
4 7 11
3 2 21
3 5 14
3 10 15
3 11 17
3 4 16
3 13 20
3 1 19
3 0 18
4 9 0
4 8 4
2 0
2 1
2 2
2 4
2 5
2 10
2 11
2 13
4 3 13
4 6 10
4 12 2
5 1
5 3
5 5
5 6
5 7
5 8
5 9
5 12
END_STATE
END_LABELED_STATE
BEGIN_LABELED_STATE
2.0
BEGIN_STATE
4 7 11
3 2 21
3 5 14
3 10 15
3 11 17
3 4 16
3 13 20
3 1 19
3 0 18
4 9 0
4 8 4
4 3 5
2 0
2 1
2 2
2 4
2 5
2 10
2 11
2 13
4 6 10
4 12 2
5 1
5 3
5 6
5 7
5 8
5 9
5 12
5 13
END_STATE
END_LABELED_STATE
BEGIN_LABELED_STATE
1.0
BEGIN_STATE
4 7 11
3 2 21
3 5 14
3 10 15
3 11 17
3 4 16
6 20
3 1 19
3 0 18
4 9 0
4 8 4
4 3 5
2 0
2 1
2 2
2 4
2 5
2 10
2 11
4 6 10
4 12 2
4 13 13
5 1
5 3
5 6
5 7
5 8
5 9
5 12
END_STATE
END_LABELED_STATE
BEGIN_LABELED_STATE
3.0
BEGIN_STATE
4 7 11
3 2 21
3 5 14
3 10 15
3 11 17
3 4 16
3 13 20
3 1 19
3 0 18
4 9 0
4 8 4
4 12 5
2 0
2 1
2 2
2 4
2 5
2 10
2 11
2 13
4 3 13
4 6 10
5 1
5 2
5 3
5 6
5 7
5 8
5 9
5 12
END_STATE
END_LABELED_STATE
BEGIN_LABELED_STATE
2.0
BEGIN_STATE
4 7 11
3 2 21
3 5 14
3 10 15
3 11 17
3 4 16
3 13 20
3 1 19
3 0 18
4 9 0
4 8 4
4 3 2
4 12 5
2 0
2 1
2 2
2 4
2 5
2 10
2 11
2 13
4 6 10
5 1
5 3
5 6
5 7
5 8
5 9
5 12
5 13
END_STATE
END_LABELED_STATE
BEGIN_LABELED_STATE
1.0
BEGIN_STATE
4 7 11
3 2 21
3 5 14
3 10 15
3 11 17
3 4 16
6 20
3 1 19
3 0 18
4 9 0
4 8 4
4 3 2
4 12 5
2 0
2 1
2 2
2 4
2 5
2 10
2 11
4 6 10
4 13 13
5 1
5 3
5 6
5 7
5 8
5 9
5 12
END_STATE
END_LABELED_STATE
BEGIN_LABELED_STATE
3.0
BEGIN_STATE
4 7 11
3 2 21
3 5 14
3 10 15
3 11 17
3 4 16
3 13 20
3 1 19
3 0 18
4 9 0
4 8 4
4 6 2
4 12 5
2 0
2 1
2 2
2 4
2 5
2 10
2 11
2 13
4 3 13
5 1
5 3
5 6
5 7
5 8
5 9
5 10
5 12
END_STATE
END_LABELED_STATE
BEGIN_LABELED_STATE
2.0
BEGIN_STATE
4 7 11
3 2 21
3 5 14
3 10 15
3 11 17
3 4 16
3 13 20
3 1 19
3 0 18
4 9 0
4 8 4
4 3 1
4 6 2
4 12 5
2 0
2 1
2 2
2 4
2 5
2 10
2 11
2 13
5 3
5 6
5 7
5 8
5 9
5 10
5 12
5 13
END_STATE
END_LABELED_STATE
BEGIN_LABELED_STATE
1.0
BEGIN_STATE
4 7 11
3 2 21
3 5 14
3 10 15
3 11 17
3 4 16
6 20
3 1 19
3 0 18
4 9 0
4 8 4
4 3 1
4 6 2
4 12 5
2 0
2 1
2 2
2 4
2 5
2 10
2 11
4 13 13
5 3
5 6
5 7
5 8
5 9
5 10
5 12
END_STATE
END_LABELED_STATE
BEGIN_LABELED_STATE
0.0
BEGIN_STATE
4 7 11
3 2 21
3 5 14
3 10 15
3 11 17
3 4 16
3 6 20
3 1 19
3 0 18
4 9 0
4 8 4
4 3 1
4 12 5
2 0
2 1
2 2
2 4
2 5
2 6
2 10
2 11
4 13 13
5 2
5 3
5 6
5 7
5 8
5 9
5 10
5 12
END_STATE
END_LABELED_STATE
BEGIN_LABELED_STATE
3.0
BEGIN_STATE
4 7 11
3 2 21
3 5 14
3 10 15
3 11 17
3 4 16
3 13 20
3 1 19
3 0 18
4 9 0
4 8 4
4 3 1
4 6 2
4 12 13
2 0
2 1
2 2
2 4
2 5
2 10
2 11
2 13
5 3
5 5
5 6
5 7
5 8
5 9
5 10
5 12
END_STATE
END_LABELED_STATE
BEGIN_LABELED_STATE
2.0
BEGIN_STATE
4 7 11
3 2 21
3 5 14
3 10 15
3 11 17
3 4 16
3 13 20
3 1 19
3 0 18
4 9 0
4 8 4
4 3 1
4 6 2
4 12 10
2 0
2 1
2 2
2 4
2 5
2 10
2 11
2 13
5 3
5 5
5 6
5 7
5 8
5 9
5 12
5 13
END_STATE
END_LABELED_STATE
BEGIN_LABELED_STATE
1.0
BEGIN_STATE
4 7 11
3 2 21
3 5 14
3 10 15
3 11 17
3 4 16
6 20
3 1 19
3 0 18
4 9 0
4 8 4
4 3 1
4 6 2
4 12 10
2 0
2 1
2 2
2 4
2 5
2 10
2 11
4 13 13
5 3
5 5
5 6
5 7
5 8
5 9
5 12
END_STATE
END_LABELED_STATE
BEGIN_LABELED_STATE
0.0
BEGIN_STATE
4 7 11
3 2 21
3 5 14
3 10 15
3 11 17
3 4 16
3 6 20
3 1 19
3 0 18
4 9 0
4 8 4
4 3 1
4 12 10
2 0
2 1
2 2
2 4
2 5
2 6
2 10
2 11
4 13 13
5 2
5 3
5 5
5 6
5 7
5 8
5 9
5 12
END_STATE
END_LABELED_STATE
BEGIN_LABELED_STATE
3.0
BEGIN_STATE
4 7 11
3 2 21
3 5 14
3 10 15
3 11 17
3 4 16
3 13 20
3 1 19
3 0 18
4 9 0
4 8 4
4 3 1
4 12 10
2 0
2 1
2 2
2 4
2 5
2 10
2 11
2 13
4 6 13
5 2
5 3
5 5
5 6
5 7
5 8
5 9
5 12
END_STATE
END_LABELED_STATE
BEGIN_LABELED_STATE
2.0
BEGIN_STATE
4 7 11
3 2 21
3 5 14
3 10 15
3 11 17
3 4 16
3 13 20
3 1 19
3 0 18
4 9 0
4 8 4
4 3 1
4 12 10
4 6 5
2 0
2 1
2 2
2 4
2 5
2 10
2 11
2 13
5 2
5 3
5 6
5 7
5 8
5 9
5 12
5 13
END_STATE
END_LABELED_STATE
BEGIN_LABELED_STATE
1.0
BEGIN_STATE
4 7 11
3 2 21
3 5 14
3 10 15
3 11 17
3 4 16
6 20
3 1 19
3 0 18
4 9 0
4 8 4
4 3 1
4 12 10
4 6 5
2 0
2 1
2 2
2 4
2 5
2 10
2 11
4 13 13
5 2
5 3
5 6
5 7
5 8
5 9
5 12
END_STATE
END_LABELED_STATE
BEGIN_LABELED_STATE
3.0
BEGIN_STATE
4 7 11
3 2 21
3 5 14
3 10 15
3 11 17
3 4 16
3 13 20
3 1 19
3 0 18
4 9 0
4 8 4
4 3 1
4 12 13
4 6 5
2 0
2 1
2 2
2 4
2 5
2 10
2 11
2 13
5 2
5 3
5 6
5 7
5 8
5 9
5 10
5 12
END_STATE
END_LABELED_STATE
BEGIN_LABELED_STATE
3.0
BEGIN_STATE
4 7 11
3 2 21
3 5 14
3 10 15
3 11 17
3 4 16
3 13 20
3 1 19
3 0 18
4 9 0
4 8 4
4 3 1
4 12 13
2 0
2 1
2 2
2 4
2 5
2 10
2 11
2 13
4 6 10
5 2
5 3
5 5
5 6
5 7
5 8
5 9
5 12
END_STATE
END_LABELED_STATE
BEGIN_LABELED_STATE
2.0
BEGIN_STATE
4 7 11
3 2 21
3 5 14
3 10 15
3 11 17
3 4 16
3 13 20
3 1 19
3 0 18
4 9 0
4 8 4
4 3 1
4 12 5
2 0
2 1
2 2
2 4
2 5
2 10
2 11
2 13
4 6 10
5 2
5 3
5 6
5 7
5 8
5 9
5 12
5 13
END_STATE
END_LABELED_STATE
BEGIN_LABELED_STATE
1.0
BEGIN_STATE
4 7 11
3 2 21
3 5 14
3 10 15
3 11 17
3 4 16
6 20
3 1 19
3 0 18
4 9 0
4 8 4
4 3 1
4 12 5
2 0
2 1
2 2
2 4
2 5
2 10
2 11
4 6 10
4 13 13
5 2
5 3
5 6
5 7
5 8
5 9
5 12
END_STATE
END_LABELED_STATE
BEGIN_LABELED_STATE
3.0
BEGIN_STATE
4 7 11
3 2 21
3 5 14
3 10 15
3 11 17
3 4 16
3 13 20
3 1 19
3 0 18
4 9 0
4 8 4
4 3 1
4 12 5
2 0
2 1
2 2
2 4
2 5
2 10
2 11
2 13
4 6 13
5 2
5 3
5 6
5 7
5 8
5 9
5 10
5 12
END_STATE
END_LABELED_STATE
BEGIN_LABELED_STATE
3.0
BEGIN_STATE
4 7 11
3 2 21
3 5 14
3 10 15
3 11 17
3 4 16
3 13 20
3 1 19
3 0 18
4 9 0
4 8 4
4 3 1
2 0
2 1
2 2
2 4
2 5
2 10
2 11
2 13
4 6 13
4 12 2
5 3
5 5
5 6
5 7
5 8
5 9
5 10
5 12
END_STATE
END_LABELED_STATE
BEGIN_LABELED_STATE
2.0
BEGIN_STATE
4 7 11
3 2 21
3 5 14
3 10 15
3 11 17
3 4 16
3 13 20
3 1 19
3 0 18
4 9 0
4 8 4
4 3 1
2 0
2 1
2 2
2 4
2 5
2 10
2 11
2 13
4 6 10
4 12 2
5 3
5 5
5 6
5 7
5 8
5 9
5 12
5 13
END_STATE
END_LABELED_STATE
BEGIN_LABELED_STATE
1.0
BEGIN_STATE
4 7 11
3 2 21
3 5 14
3 10 15
3 11 17
3 4 16
6 20
3 1 19
3 0 18
4 9 0
4 8 4
4 3 1
2 0
2 1
2 2
2 4
2 5
2 10
2 11
4 6 10
4 12 2
4 13 13
5 3
5 5
5 6
5 7
5 8
5 9
5 12
END_STATE
END_LABELED_STATE
BEGIN_LABELED_STATE
0.0
BEGIN_STATE
4 7 11
3 2 21
3 5 14
3 10 15
3 11 17
3 4 16
3 6 20
3 1 19
3 0 18
4 9 0
4 8 4
4 3 1
2 0
2 1
2 2
2 4
2 5
2 6
2 10
2 11
4 12 2
4 13 13
5 3
5 5
5 6
5 7
5 8
5 9
5 10
5 12
END_STATE
END_LABELED_STATE
BEGIN_LABELED_STATE
2.0
BEGIN_STATE
4 7 11
3 2 21
3 5 14
3 10 15
3 11 17
3 4 16
3 13 20
3 1 19
3 0 18
4 9 0
4 8 4
4 3 1
4 6 5
2 0
2 1
2 2
2 4
2 5
2 10
2 11
2 13
4 12 2
5 3
5 6
5 7
5 8
5 9
5 10
5 12
5 13
END_STATE
END_LABELED_STATE
BEGIN_LABELED_STATE
1.0
BEGIN_STATE
4 7 11
3 2 21
3 5 14
3 10 15
3 11 17
3 4 16
6 20
3 1 19
3 0 18
4 9 0
4 8 4
4 3 1
4 6 5
2 0
2 1
2 2
2 4
2 5
2 10
2 11
4 12 2
4 13 13
5 3
5 6
5 7
5 8
5 9
5 10
5 12
END_STATE
END_LABELED_STATE
BEGIN_LABELED_STATE
3.0
BEGIN_STATE
4 7 11
3 2 21
3 5 14
3 10 15
3 11 17
3 4 16
3 13 20
3 1 19
3 0 18
4 9 0
4 3 1
4 6 5
2 0
2 1
2 2
2 4
2 5
2 10
2 11
2 13
4 8 13
4 12 2
5 3
5 4
5 6
5 7
5 8
5 9
5 10
5 12
END_STATE
END_LABELED_STATE
BEGIN_LABELED_STATE
3.0
BEGIN_STATE
4 7 11
3 2 21
3 5 14
3 10 15
3 11 17
3 4 16
3 13 20
3 1 19
3 0 18
4 9 0
4 3 1
4 12 10
4 6 5
2 0
2 1
2 2
2 4
2 5
2 10
2 11
2 13
4 8 13
5 2
5 3
5 4
5 6
5 7
5 8
5 9
5 12
END_STATE
END_LABELED_STATE
BEGIN_LABELED_STATE
2.0
BEGIN_STATE
4 7 11
3 2 21
3 5 14
3 10 15
3 11 17
3 4 16
3 13 20
3 1 19
3 0 18
4 9 0
4 3 1
4 8 2
4 12 10
4 6 5
2 0
2 1
2 2
2 4
2 5
2 10
2 11
2 13
5 3
5 4
5 6
5 7
5 8
5 9
5 12
5 13
END_STATE
END_LABELED_STATE
BEGIN_LABELED_STATE
1.0
BEGIN_STATE
4 7 11
3 2 21
3 5 14
3 10 15
3 11 17
3 4 16
6 20
3 1 19
3 0 18
4 9 0
4 3 1
4 8 2
4 12 10
4 6 5
2 0
2 1
2 2
2 4
2 5
2 10
2 11
4 13 13
5 3
5 4
5 6
5 7
5 8
5 9
5 12
END_STATE
END_LABELED_STATE
BEGIN_LABELED_STATE
3.0
BEGIN_STATE
4 7 11
3 2 21
3 5 14
3 10 15
3 11 17
3 4 16
3 13 20
3 1 19
3 0 18
4 9 0
4 3 1
4 8 2
4 12 10
2 0
2 1
2 2
2 4
2 5
2 10
2 11
2 13
4 6 13
5 3
5 4
5 5
5 6
5 7
5 8
5 9
5 12
END_STATE
END_LABELED_STATE
BEGIN_LABELED_STATE
3.0
BEGIN_STATE
4 7 11
3 2 21
3 5 14
3 10 15
3 11 17
3 4 16
3 13 20
3 1 19
3 0 18
4 9 0
4 3 1
4 8 2
4 12 5
2 0
2 1
2 2
2 4
2 5
2 10
2 11
2 13
4 6 13
5 3
5 4
5 6
5 7
5 8
5 9
5 10
5 12
END_STATE
END_LABELED_STATE
BEGIN_LABELED_STATE
2.0
BEGIN_STATE
4 7 11
3 2 21
3 5 14
3 10 15
3 11 17
3 4 16
3 13 20
3 1 19
3 0 18
4 9 0
4 3 1
4 8 2
4 12 5
2 0
2 1
2 2
2 4
2 5
2 10
2 11
2 13
4 6 10
5 3
5 4
5 6
5 7
5 8
5 9
5 12
5 13
END_STATE
END_LABELED_STATE
BEGIN_LABELED_STATE
1.0
BEGIN_STATE
4 7 11
3 2 21
3 5 14
3 10 15
3 11 17
3 4 16
6 20
3 1 19
3 0 18
4 9 0
4 3 1
4 8 2
4 12 5
2 0
2 1
2 2
2 4
2 5
2 10
2 11
4 6 10
4 13 13
5 3
5 4
5 6
5 7
5 8
5 9
5 12
END_STATE
END_LABELED_STATE
BEGIN_LABELED_STATE
3.0
BEGIN_STATE
4 7 11
3 2 21
3 5 14
3 10 15
3 11 17
3 4 16
3 13 20
3 1 19
3 0 18
4 9 0
4 3 1
4 8 2
4 12 13
2 0
2 1
2 2
2 4
2 5
2 10
2 11
2 13
4 6 10
5 3
5 4
5 5
5 6
5 7
5 8
5 9
5 12
END_STATE
END_LABELED_STATE
BEGIN_LABELED_STATE
3.0
BEGIN_STATE
4 7 11
3 2 21
3 5 14
3 10 15
3 11 17
3 4 16
3 13 20
3 1 19
3 0 18
4 9 0
4 3 1
4 8 2
4 12 13
4 6 5
2 0
2 1
2 2
2 4
2 5
2 10
2 11
2 13
5 3
5 4
5 6
5 7
5 8
5 9
5 10
5 12
END_STATE
END_LABELED_STATE
BEGIN_LABELED_STATE
2.0
BEGIN_STATE
4 7 11
3 2 21
3 5 14
3 10 15
3 11 17
3 4 16
3 13 20
3 1 19
3 0 18
4 9 0
4 3 1
4 8 2
4 6 5
2 0
2 1
2 2
2 4
2 5
2 10
2 11
2 13
4 12 4
5 3
5 6
5 7
5 8
5 9
5 10
5 12
5 13
END_STATE
END_LABELED_STATE
BEGIN_LABELED_STATE
1.0
BEGIN_STATE
4 7 11
3 2 21
3 5 14
3 10 15
3 11 17
3 4 16
6 20
3 1 19
3 0 18
4 9 0
4 3 1
4 8 2
4 6 5
2 0
2 1
2 2
2 4
2 5
2 10
2 11
4 12 4
4 13 13
5 3
5 6
5 7
5 8
5 9
5 10
5 12
END_STATE
END_LABELED_STATE
BEGIN_LABELED_STATE
0.0
BEGIN_STATE
4 7 11
3 2 21
3 5 14
3 10 15
3 11 17
3 4 16
3 6 20
3 1 19
3 0 18
4 9 0
4 3 1
4 8 2
2 0
2 1
2 2
2 4
2 5
2 6
2 10
2 11
4 12 4
4 13 13
5 3
5 5
5 6
5 7
5 8
5 9
5 10
5 12
END_STATE
END_LABELED_STATE
BEGIN_LABELED_STATE
3.0
BEGIN_STATE
4 7 11
3 2 21
3 5 14
3 10 15
3 11 17
3 4 16
3 13 20
3 1 19
3 0 18
4 9 0
4 3 1
4 8 2
2 0
2 1
2 2
2 4
2 5
2 10
2 11
2 13
4 6 13
4 12 4
5 3
5 5
5 6
5 7
5 8
5 9
5 10
5 12
END_STATE
END_LABELED_STATE
BEGIN_LABELED_STATE
2.0
BEGIN_STATE
4 7 11
3 2 21
3 5 14
3 10 15
3 11 17
3 4 16
3 13 20
3 1 19
3 0 18
4 9 0
4 3 1
4 8 2
2 0
2 1
2 2
2 4
2 5
2 10
2 11
2 13
4 6 10
4 12 4
5 3
5 5
5 6
5 7
5 8
5 9
5 12
5 13
END_STATE
END_LABELED_STATE
BEGIN_LABELED_STATE
1.0
BEGIN_STATE
4 7 11
3 2 21
3 5 14
3 10 15
3 11 17
3 4 16
6 20
3 1 19
3 0 18
4 9 0
4 3 1
4 8 2
2 0
2 1
2 2
2 4
2 5
2 10
2 11
4 6 10
4 12 4
4 13 13
5 3
5 5
5 6
5 7
5 8
5 9
5 12
END_STATE
END_LABELED_STATE
BEGIN_LABELED_STATE
3.0
BEGIN_STATE
4 7 11
3 2 21
3 5 14
3 10 15
3 11 17
3 4 16
3 13 20
3 1 19
3 0 18
4 9 0
4 3 1
2 0
2 1
2 2
2 4
2 5
2 10
2 11
2 13
4 6 10
4 8 13
4 12 4
5 2
5 3
5 5
5 6
5 7
5 8
5 9
5 12
END_STATE
END_LABELED_STATE
BEGIN_LABELED_STATE
3.0
BEGIN_STATE
4 7 11
3 2 21
3 5 14
3 10 15
3 11 17
3 4 16
3 13 20
3 1 19
3 0 18
4 9 0
4 3 1
4 12 5
2 0
2 1
2 2
2 4
2 5
2 10
2 11
2 13
4 6 10
4 8 13
5 2
5 3
5 4
5 6
5 7
5 8
5 9
5 12
END_STATE
END_LABELED_STATE
BEGIN_LABELED_STATE
3.0
BEGIN_STATE
4 7 11
3 2 21
3 5 14
3 10 15
3 11 17
3 4 16
3 13 20
3 1 19
3 0 18
4 9 0
4 3 1
4 6 2
4 12 5
2 0
2 1
2 2
2 4
2 5
2 10
2 11
2 13
4 8 13
5 3
5 4
5 6
5 7
5 8
5 9
5 10
5 12
END_STATE
END_LABELED_STATE
BEGIN_LABELED_STATE
3.0
BEGIN_STATE
4 7 11
3 2 21
3 5 14
3 10 15
3 11 17
3 4 16
3 13 20
3 1 19
3 0 18
4 9 0
4 3 1
4 6 2
4 12 10
2 0
2 1
2 2
2 4
2 5
2 10
2 11
2 13
4 8 13
5 3
5 4
5 5
5 6
5 7
5 8
5 9
5 12
END_STATE
END_LABELED_STATE
BEGIN_LABELED_STATE
2.0
BEGIN_STATE
4 7 11
3 2 21
3 5 14
3 10 15
3 11 17
3 4 16
3 13 20
3 1 19
3 0 18
4 9 0
4 3 1
4 6 2
4 8 5
4 12 10
2 0
2 1
2 2
2 4
2 5
2 10
2 11
2 13
5 3
5 4
5 6
5 7
5 8
5 9
5 12
5 13
END_STATE
END_LABELED_STATE
BEGIN_LABELED_STATE
1.0
BEGIN_STATE
4 7 11
3 2 21
3 5 14
3 10 15
3 11 17
3 4 16
6 20
3 1 19
3 0 18
4 9 0
4 3 1
4 6 2
4 8 5
4 12 10
2 0
2 1
2 2
2 4
2 5
2 10
2 11
4 13 13
5 3
5 4
5 6
5 7
5 8
5 9
5 12
END_STATE
END_LABELED_STATE
BEGIN_LABELED_STATE
3.0
BEGIN_STATE
4 7 11
3 2 21
3 5 14
3 10 15
3 11 17
3 4 16
3 13 20
3 1 19
3 0 18
4 9 0
4 3 1
4 6 2
4 8 5
4 12 13
2 0
2 1
2 2
2 4
2 5
2 10
2 11
2 13
5 3
5 4
5 6
5 7
5 8
5 9
5 10
5 12
END_STATE
END_LABELED_STATE
BEGIN_LABELED_STATE
2.0
BEGIN_STATE
4 7 11
3 2 21
3 5 14
3 10 15
3 11 17
3 4 16
3 13 20
3 1 19
3 0 18
4 9 0
4 3 1
4 6 2
4 8 5
2 0
2 1
2 2
2 4
2 5
2 10
2 11
2 13
4 12 4
5 3
5 6
5 7
5 8
5 9
5 10
5 12
5 13
END_STATE
END_LABELED_STATE
BEGIN_LABELED_STATE
1.0
BEGIN_STATE
4 7 11
3 2 21
3 5 14
3 10 15
3 11 17
3 4 16
6 20
3 1 19
3 0 18
4 9 0
4 3 1
4 6 2
4 8 5
2 0
2 1
2 2
2 4
2 5
2 10
2 11
4 12 4
4 13 13
5 3
5 6
5 7
5 8
5 9
5 10
5 12
END_STATE
END_LABELED_STATE
BEGIN_LABELED_STATE
3.0
BEGIN_STATE
4 7 11
3 2 21
3 5 14
3 10 15
3 11 17
3 4 16
3 13 20
3 1 19
3 0 18
4 9 0
4 3 1
4 6 2
2 0
2 1
2 2
2 4
2 5
2 10
2 11
2 13
4 8 13
4 12 4
5 3
5 5
5 6
5 7
5 8
5 9
5 10
5 12
END_STATE
END_LABELED_STATE
BEGIN_LABELED_STATE
3.0
BEGIN_STATE
4 7 11
3 2 21
3 5 14
3 10 15
3 11 17
3 4 16
3 13 20
3 1 19
3 0 18
4 9 0
4 3 1
4 6 5
2 0
2 1
2 2
2 4
2 5
2 10
2 11
2 13
4 8 13
4 12 4
5 2
5 3
5 6
5 7
5 8
5 9
5 10
5 12
END_STATE
END_LABELED_STATE
BEGIN_LABELED_STATE
3.0
BEGIN_STATE
4 7 11
3 2 21
3 5 14
3 10 15
3 11 17
3 4 16
3 13 20
3 1 19
3 0 18
4 9 0
4 3 2
4 6 5
2 0
2 1
2 2
2 4
2 5
2 10
2 11
2 13
4 8 13
4 12 4
5 1
5 3
5 6
5 7
5 8
5 9
5 10
5 12
END_STATE
END_LABELED_STATE
BEGIN_LABELED_STATE
3.0
BEGIN_STATE
4 7 11
3 2 21
3 5 14
3 10 15
3 11 17
3 4 16
3 13 20
3 1 19
3 0 18
4 9 0
4 3 2
4 12 10
4 6 5
2 0
2 1
2 2
2 4
2 5
2 10
2 11
2 13
4 8 13
5 1
5 3
5 4
5 6
5 7
5 8
5 9
5 12
END_STATE
END_LABELED_STATE
BEGIN_LABELED_STATE
3.0
BEGIN_STATE
4 7 11
3 2 21
3 5 14
3 10 15
3 11 17
3 4 16
3 13 20
3 1 19
3 0 18
4 9 0
4 6 4
4 3 2
4 12 10
2 0
2 1
2 2
2 4
2 5
2 10
2 11
2 13
4 8 13
5 1
5 3
5 5
5 6
5 7
5 8
5 9
5 12
END_STATE
END_LABELED_STATE
BEGIN_LABELED_STATE
2.0
BEGIN_STATE
4 7 11
3 2 21
3 5 14
3 10 15
3 11 17
3 4 16
3 13 20
3 1 19
3 0 18
4 9 0
4 6 4
4 8 5
4 3 2
4 12 10
2 0
2 1
2 2
2 4
2 5
2 10
2 11
2 13
5 1
5 3
5 6
5 7
5 8
5 9
5 12
5 13
END_STATE
END_LABELED_STATE
BEGIN_LABELED_STATE
1.0
BEGIN_STATE
4 7 11
3 2 21
3 5 14
3 10 15
3 11 17
3 4 16
6 20
3 1 19
3 0 18
4 9 0
4 6 4
4 8 5
4 3 2
4 12 10
2 0
2 1
2 2
2 4
2 5
2 10
2 11
4 13 13
5 1
5 3
5 6
5 7
5 8
5 9
5 12
END_STATE
END_LABELED_STATE
BEGIN_LABELED_STATE
0.0
BEGIN_STATE
4 7 11
3 2 21
3 5 14
3 10 15
3 11 17
3 4 16
3 6 20
3 1 19
3 0 18
4 9 0
4 8 5
4 3 2
4 12 10
2 0
2 1
2 2
2 4
2 5
2 6
2 10
2 11
4 13 13
5 1
5 3
5 4
5 6
5 7
5 8
5 9
5 12
END_STATE
END_LABELED_STATE
BEGIN_LABELED_STATE
3.0
BEGIN_STATE
4 7 11
3 2 21
3 5 14
3 10 15
3 11 17
3 4 16
3 13 20
3 1 19
3 0 18
4 9 0
4 6 4
4 8 5
4 3 2
4 12 13
2 0
2 1
2 2
2 4
2 5
2 10
2 11
2 13
5 1
5 3
5 6
5 7
5 8
5 9
5 10
5 12
END_STATE
END_LABELED_STATE
BEGIN_LABELED_STATE
2.0
BEGIN_STATE
4 7 11
3 2 21
3 5 14
3 10 15
3 11 17
3 4 16
3 13 20
3 1 19
3 0 18
4 9 0
4 6 4
4 8 5
4 3 2
2 0
2 1
2 2
2 4
2 5
2 10
2 11
2 13
4 12 1
5 3
5 6
5 7
5 8
5 9
5 10
5 12
5 13
END_STATE
END_LABELED_STATE
BEGIN_LABELED_STATE
1.0
BEGIN_STATE
4 7 11
3 2 21
3 5 14
3 10 15
3 11 17
3 4 16
6 20
3 1 19
3 0 18
4 9 0
4 6 4
4 8 5
4 3 2
2 0
2 1
2 2
2 4
2 5
2 10
2 11
4 12 1
4 13 13
5 3
5 6
5 7
5 8
5 9
5 10
5 12
END_STATE
END_LABELED_STATE
BEGIN_LABELED_STATE
0.0
BEGIN_STATE
4 7 11
3 2 21
3 5 14
3 10 15
3 11 17
3 4 16
3 6 20
3 1 19
3 0 18
4 9 0
4 8 5
4 3 2
2 0
2 1
2 2
2 4
2 5
2 6
2 10
2 11
4 12 1
4 13 13
5 3
5 4
5 6
5 7
5 8
5 9
5 10
5 12
END_STATE
END_LABELED_STATE
BEGIN_LABELED_STATE
3.0
BEGIN_STATE
4 7 11
3 2 21
3 5 14
3 10 15
3 11 17
3 4 16
3 13 20
3 1 19
3 0 18
4 9 0
4 6 4
4 8 5
2 0
2 1
2 2
2 4
2 5
2 10
2 11
2 13
4 3 13
4 12 1
5 2
5 3
5 6
5 7
5 8
5 9
5 10
5 12
END_STATE
END_LABELED_STATE
BEGIN_LABELED_STATE
3.0
BEGIN_STATE
4 7 11
3 2 21
3 5 14
3 10 15
3 11 17
3 4 16
3 13 20
3 1 19
3 0 18
4 9 0
4 6 4
4 8 5
4 12 10
2 0
2 1
2 2
2 4
2 5
2 10
2 11
2 13
4 3 13
5 1
5 2
5 3
5 6
5 7
5 8
5 9
5 12
END_STATE
END_LABELED_STATE
BEGIN_LABELED_STATE
3.0
BEGIN_STATE
4 7 11
3 2 21
3 5 14
3 10 15
3 11 17
3 4 16
3 13 20
3 1 19
3 0 18
4 9 0
4 6 4
4 8 5
2 0
2 1
2 2
2 4
2 5
2 10
2 11
2 13
4 3 13
4 12 2
5 1
5 3
5 6
5 7
5 8
5 9
5 10
5 12
END_STATE
END_LABELED_STATE
END_STATE_LIST
